<?xml version="1.0" encoding="UTF-8" standalone="no"?>
<!-- Created with Inkscape (http://www.inkscape.org/) -->

<svg
   xmlns:dc="http://purl.org/dc/elements/1.1/"
   xmlns:cc="http://creativecommons.org/ns#"
   xmlns:rdf="http://www.w3.org/1999/02/22-rdf-syntax-ns#"
   xmlns:svg="http://www.w3.org/2000/svg"
   xmlns="http://www.w3.org/2000/svg"
   xmlns:sodipodi="http://sodipodi.sourceforge.net/DTD/sodipodi-0.dtd"
   xmlns:inkscape="http://www.inkscape.org/namespaces/inkscape"
   width="48"
   height="48"
   viewBox="0 0 48.000001 48.000001"
   id="svg4654"
   version="1.1"
   inkscape:version="0.91 r13725"
   sodipodi:docname="battery-100-charging.svg">
  <defs
     id="defs4656" />
  <sodipodi:namedview
     id="base"
     pagecolor="#ffffff"
     bordercolor="#666666"
     borderopacity="1.0"
     inkscape:pageopacity="0.0"
     inkscape:pageshadow="2"
     inkscape:zoom="14.03125"
     inkscape:cx="32"
     inkscape:cy="31.999962"
     inkscape:document-units="px"
     inkscape:current-layer="layer1"
     showgrid="false"
     units="px"
     inkscape:window-width="1920"
     inkscape:window-height="1080"
     inkscape:window-x="0"
     inkscape:window-y="0"
     inkscape:window-maximized="1" />
  <metadata
     id="metadata4659">
    <rdf:RDF>
      <cc:Work
         rdf:about="">
        <dc:format>image/svg+xml</dc:format>
        <dc:type
           rdf:resource="http://purl.org/dc/dcmitype/StillImage" />
        <dc:title></dc:title>
      </cc:Work>
    </rdf:RDF>
  </metadata>
  <g
     inkscape:label="Layer 1"
     inkscape:groupmode="layer"
     id="layer1"
     transform="translate(0,-1004.3622)">
    <g
       id="g4673"
       transform="matrix(0.046875,0,0,0.046875,-11.625,990.28272)">
      <path
         style="fill:#fae6e9"
         d="m 526.2,1279.1622 c -1.7492,-1.7492 -1.7492,-838.85079 0,-840.59999 0.9092,-0.9092 17.26667,-1.2 67.5,-1.2 l 66.3,0 0,-45.3 c 0,-33.9 0.30199,-45.60199 1.2,-46.5 1.74019,-1.74019 191.85981,-1.74019 193.6,0 0.89801,0.89801 1.2,12.6 1.2,46.5 l 0,45.3 68.3,0 c 51.78889,0 68.59009,0.29009 69.5,1.2 1.7492,1.7492 1.7492,838.85079 0,840.59999 -1.74706,1.7471 -465.85294,1.7471 -467.6,0 z m 370.8,-257.3 0,-160.49999 -20.5,0 -20.5,0 0,138.3 c 0,106.23329 -0.27824,138.57829 -1.2,139.49999 -1.87093,1.8709 -188.11874,1.7258 -189.6737,-0.1478 -0.80876,-0.9745 -1.18889,-36.316 -1.37244,-127.5966 L 663.5,885.16898 l -9,-4.98463 c -4.95,-2.74154 -14.0625,-7.68549 -20.25,-10.98655 l -11.25,-6.00191 0,159.58311 0,159.5832 137,0 137,0 0,-160.5 z M 805.13285,857.70213 c 0.8689,-1.04696 6.01211,-1.33992 23.52343,-1.33992 l 22.41138,0 -0.28383,-10.72322 L 850.5,834.91577 784,802.64727 c -36.575,-17.74767 -66.8375,-32.27222 -67.25,-32.27678 -0.4125,-0.005 -0.75,19.92672 -0.75,44.29172 0,33.12222 -0.30278,44.60278 -1.2,45.5 -0.86158,0.86158 -7.48889,1.2 -23.5,1.2 l -22.3,0 0.0264,10.75 0.0264,10.75 67.22361,32.54804 67.2236,32.54803 0.26041,-44.45811 c 0.18039,-30.79777 0.60209,-44.86982 1.37244,-45.79804 z M 664,718.06221 c 0,-106.23333 0.27824,-138.57824 1.2,-139.5 1.87093,-1.87093 188.11874,-1.72579 189.6737,0.14781 0.80876,0.97451 1.18889,36.3237 1.37244,127.62613 l 0.25386,126.27832 19,10.47476 c 10.45,5.76112 19.5625,10.70251 20.25,10.98086 0.99689,0.40362 1.25,-31.81205 1.25,-159.10089 l 0,-159.60699 -137,0 -137,0 0,160.5 0,160.5 20.5,0 20.5,0 0,-138.3 z"
         id="path4687"
         inkscape:connector-curvature="0" />
      <path
         style="fill:#f3bcc4"
         d="m 526.46364,1278.1143 c -0.26136,-0.6886 -0.3601,-189.8021 -0.21942,-420.25209 l 0.25578,-419 67.24002,-0.25703 67.24002,-0.25704 0.25998,-46.24296 0.25998,-46.24297 96.5,0 96.5,0 0.25998,46.24316 0.25999,46.24316 69.24001,0.25684 69.24002,0.25684 0,420 0,419.99999 -233.28057,0.2521 c -186.09996,0.2011 -233.37669,-10e-4 -233.75579,-1 z M 898,1021.8622 l 0,-161.49999 -21.4965,0 -21.49651,0 -0.25349,139.25 -0.2535,139.24999 -94.5,0 -94.5,0 -0.25383,-126.7399 -0.25383,-126.73984 -3.74617,-2.34206 c -5.23041,-3.26998 -37.67391,-20.67819 -38.53775,-20.67819 -0.38963,0 -0.70842,72.225 -0.70842,160.49999 l 0,160.5 138,0 138,0 0,-161.5 z m -92.76009,-118.24999 0.26009,-45.75 23.25,-0.26843 23.25,-0.26843 0,-11.33122 0,-11.33122 -67.28913,-32.65035 c -37.00902,-17.95769 -67.82944,-32.65035 -68.48981,-32.65035 -0.91272,0 -1.26308,10.85248 -1.46087,45.25 l -0.26019,45.25 -23.28158,0.26851 -23.28157,0.26851 0.28157,11.52054 0.28158,11.52054 67.5,32.87163 c 37.125,18.0794 67.83296,32.91182 68.23991,32.96095 0.40695,0.0491 0.85695,-20.49818 1,-45.66068 z m -139.99341,-185.5 0.2535,-139.25 94.5,0 94.5,0 0.25382,126.63073 c 0.1997,99.63225 0.51951,126.8494 1.5,127.65637 2.06658,1.70086 39.71197,22.2129 40.76695,22.2129 0.6349,0 0.97923,-56.43658 0.97923,-160.5 l 0,-160.5 -138,0 -138,0 0,161.5 0,161.5 21.4965,0 21.49651,0 0.25349,-139.25 z"
         id="path4685"
         inkscape:connector-curvature="0" />
      <path
         style="fill:#f1b0b9"
         d="M 527.57143,1277.7908 C 526.14788,1276.3672 526,1236.9445 526,858.86221 c 0,-378.08225 0.14788,-417.50502 1.57143,-418.92857 1.39679,-1.39679 8.89827,-1.57143 67.5,-1.57143 l 65.92857,0 0,-44.92857 c 0,-39.51082 0.18949,-45.11806 1.57143,-46.5 1.40625,-1.40625 11.43723,-1.57143 95.42857,-1.57143 83.99134,0 94.02232,0.16518 95.42857,1.57143 1.38194,1.38194 1.57143,6.98918 1.57143,46.5 l 0,44.92857 67.92857,0 c 60.41991,0 68.10227,0.1737 69.5,1.57143 1.42355,1.42355 1.57143,40.84632 1.57143,418.92857 0,378.08229 -0.14788,417.50499 -1.57143,418.92859 -1.41949,1.4195 -23.89177,1.5714 -232.42857,1.5714 -208.5368,0 -231.00908,-0.1519 -232.42857,-1.5714 z M 898,1021.8622 l 0,-161.49999 -21.5,0 -21.5,0 0,137.92857 c 0,124.05632 -0.15805,138.08662 -1.57143,139.50002 -1.40594,1.4059 -11.22596,1.5698 -93.25,1.5561 -56.02547,-0.01 -92.26191,-0.384 -93.17857,-0.9634 -1.31611,-0.8319 -1.5613,-16.477 -2,-127.6187 l -0.5,-126.67048 -20.87491,-11.36606 c -11.4812,-6.25133 -21.0437,-11.36605 -21.25,-11.36605 -0.2063,0 -0.37509,72.45 -0.37509,160.99999 l 0,161 138,0 138,0 0,-161.5 z M 805,904.93364 c 0,-39.05628 0.19002,-44.61859 1.57143,-46 1.33316,-1.33316 4.90115,-1.57143 23.53173,-1.57143 l 21.96031,0 -0.28173,-11.72577 L 851.5,833.91067 784,801.15395 c -37.125,-18.01619 -67.8375,-32.7646 -68.25,-32.77423 -0.4125,-0.01 -0.75,19.97535 -0.75,44.41106 0,39.05628 -0.19002,44.61859 -1.57143,46 -1.33302,1.33302 -4.89827,1.57143 -23.5,1.57143 l -21.92857,0 0,11.44098 c 0,8.05876 0.36953,11.67787 1.25,12.2423 2.98881,1.91597 133.37364,65.14845 134.5,65.22821 0.98257,0.0696 1.25,-9.41667 1.25,-44.34006 z m -140,-185.5 c 0,-124.05628 0.15805,-138.08662 1.57143,-139.5 1.40594,-1.40595 11.22596,-1.56982 93.25,-1.55612 56.02547,0.009 92.26191,0.38403 93.17857,0.96344 1.31611,0.83189 1.5613,16.47585 2,127.60832 l 0.5,126.6602 20.5,11.33323 c 11.275,6.23327 20.8375,11.35264 21.25,11.37636 0.4125,0.0237 0.75,-72.40686 0.75,-160.95686 l 0,-161 -138,0 -138,0 0,161.5 0,161.5 21.5,0 21.5,0 0,-137.92857 z"
         id="path4683"
         inkscape:connector-curvature="0" />
      <path
         style="fill:#e96f80"
         d="m 527.46365,1277.1143 c -0.26137,-0.6886 -0.36011,-189.3521 -0.21943,-419.25209 l 0.25578,-418 67,-0.5 67,-0.5 0.5,-46 0.5,-46 95.5,0 95.5,0 0.5,46 0.5,46 69,0.5 69,0.5 0,419 0,418.99999 -232.28057,0.2521 c -185.29995,0.2012 -232.37669,-10e-4 -232.75578,-1 z M 898.5,1021.8622 l 0,-161.99999 -22,0 -22,0 -0.5,139 -0.5,138.99999 -93.5,0 -93.5,0 -0.5,-126.8839 -0.5,-126.88393 -20.87491,-11.36608 c -11.4812,-6.25134 -21.4937,-11.36608 -22.25,-11.36608 -1.16109,0 -1.37509,25.03039 -1.37509,160.83329 0,88.4584 0.30158,161.135 0.67017,161.5036 0.3686,0.3686 62.8061,0.5561 138.75,0.4166 l 138.07983,-0.2535 0,-162 z m -92.26009,-117.24999 0.26009,-45.75 23,-0.5 23,-0.5 0,-11.94997 0,-11.94997 -33.5,-16.29455 c -18.425,-8.962 -42.95,-20.87339 -54.5,-26.46975 -11.55,-5.59636 -26.78708,-13.02382 -33.86017,-16.50548 -7.07309,-3.48165 -13.706,-6.33028 -14.73981,-6.33028 -1.80799,0 -1.88956,1.72477 -2.13983,45.25 l -0.26019,45.25 -23,0.5 -23,0.5 -0.2843,11.4157 c -0.16067,6.45145 0.13729,11.83729 0.68518,12.38518 1.28781,1.28781 135.24424,66.49407 136.83903,66.60943 0.96628,0.0699 1.29731,-10.00669 1.5,-45.66031 z M 666,718.86221 l 0.5,-139 93.5,0 93.5,0 0.5,126.87361 0.5,126.8736 20.5,11.33326 c 11.275,6.23329 21.28886,11.35267 22.25303,11.37639 1.66466,0.041 1.74027,-8.08568 1.5,-161.20686 l -0.25303,-161.25 -138.5,0 -138.5,0 -0.25678,161 c -0.14123,88.55 -0.0395,161.57131 0.22612,162.26957 0.3743,0.98402 5.38014,1.20894 22.25678,1 l 21.77388,-0.26957 0.5,-139 z"
         id="path4681"
         inkscape:connector-curvature="0" />
      <path
         style="fill:#e4566a"
         d="m 528,858.86221 0,-418.5 66.3,0 c 50.23333,0 66.5908,-0.2908 67.5,-1.2 0.89801,-0.89801 1.2,-12.6 1.2,-46.5 l 0,-45.3 95,0 95,0 0,45.3 c 0,33.9 0.30199,45.60199 1.2,46.5 0.90991,0.90991 17.71111,1.2 69.5,1.2 l 68.3,0 0,418.5 0,418.49999 -232,0 -232,0 0,-418.49999 z m 370.8,325.29999 c 1.74494,-1.7449 1.74494,-322.85505 0,-324.59999 -0.93333,-0.93333 -0.93333,-1.46667 0,-2.4 1.74492,-1.74492 1.74492,-321.85508 0,-323.6 -1.74376,-1.74376 -275.85624,-1.74376 -277.6,0 -1.74494,1.74494 -1.74494,322.85506 0,324.6 0.93333,0.93333 0.93333,1.46667 0,2.4 -1.74492,1.74492 -1.74492,321.85509 0,323.59999 1.74376,1.7438 275.85624,1.7438 277.6,0 z m -231.8,-172.8 c 0,-69.29999 0.32158,-125.99999 0.71463,-125.99999 0.39305,0 31.47595,14.93581 69.07313,33.19069 55.38451,26.89132 68.53151,32.91726 69.27006,31.75 0.51309,-0.81093 0.91825,-21.00201 0.92687,-46.19069 l 0.0153,-44.75 22.3,0 c 16.01111,0 22.63842,-0.33842 23.5,-1.2 0.79174,-0.79174 1.2,-5.04444 1.2,-12.5 0,-6.215 0.16043,-11.3 0.3565,-11.3 0.19608,0 4.13358,2.16298 8.75,4.80661 4.61643,2.64364 14.15824,7.93114 21.20404,11.75 l 12.81054,6.94339 -20.73316,0.27081 c -13.23667,0.1729 -21.21309,0.66913 -22.06054,1.37245 C 853.23591,860.41131 853,885.20007 853,998.98465 l 0,138.37755 -93,0 -93,0 0,-126 z m -5.5,-130.09643 c -1.65,-1.07263 -11.1,-6.32723 -21,-11.6769 l -18,-9.72666 20.92262,-0.27081 c 13.3749,-0.17312 21.40146,-0.66822 22.25,-1.37245 C 666.76409,857.31311 667,832.52435 667,718.73977 l 0,-138.37756 93,0 93,0 0,126.50912 0,126.50911 -9.75,-4.8712 c -40.50503,-20.23674 -126.58447,-61.2293 -128.00142,-60.95655 -1.62943,0.31365 -1.76631,3.41902 -2.00877,45.57305 l -0.26019,45.23647 -22.28981,0 c -16.00319,0 -22.62826,0.33845 -23.48981,1.2 -0.79174,0.79174 -1.2,5.04444 -1.2,12.5 0,6.215 -0.3375,11.26711 -0.75,11.2269 -0.4125,-0.0402 -2.1,-0.9507 -3.75,-2.02334 z"
         id="path4679"
         inkscape:connector-curvature="0" />
      <path
         style="fill:#e03951"
         d="m 528.46365,1276.1143 c -0.26137,-0.6886 -0.36012,-188.9021 -0.21943,-418.25209 l 0.25578,-417 67,-0.5 67,-0.5 0.5,-46 0.5,-46 94.5,0 94.5,0 0.5,46 0.5,46 69,0.5 69,0.5 0,418 0,417.99999 -231.28057,0.2521 c -184.49993,0.2012 -231.37669,-10e-4 -231.75578,-1 z M 899.5,858.86221 l 0,-326 -139.5,0 -139.5,0 -0.25471,325 c -0.1401,178.74999 -0.0411,325.56409 0.21995,326.25349 0.37795,0.9981 28.85611,1.2019 139.75472,1 l 139.28004,-0.2535 0,-325.99999 z M 667.67184,1136.7007 C 667.30233,1136.3312 667,1079.8539 667,1011.1955 c 0,-99.20377 0.25664,-124.83182 1.25,-124.82613 0.6875,0.004 31.35602,14.62893 68.15226,32.5 36.79625,17.87106 67.72921,32.49284 68.73991,32.49284 1.75297,0 1.84964,-2.10831 2.09774,-45.75 l 0.26009,-45.75 22.75351,-0.26878 22.75351,-0.26879 -0.25351,138.76879 -0.25351,138.76877 -92.07816,0.2552 c -50.64298,0.1403 -92.38048,-0.047 -92.75,-0.4167 z M 644.78838,871.54822 c -10.84139,-5.8773 -19.72889,-11.02351 -19.75,-11.43601 -0.0211,-0.4125 9.18662,-0.75 20.46162,-0.75 l 20.5,0 0,11.5 c 0,6.325 -0.3375,11.47121 -0.75,11.43601 -0.4125,-0.0352 -9.62023,-4.87269 -20.46162,-10.75 z M 667.24649,719.63099 667.5,580.86221 l 92.5,0 92.5,0 0.25387,125.85847 c 0.20289,100.58411 0.002,125.7533 -1,125.33474 -0.68963,-0.28805 -31.52984,-15.22984 -68.5338,-33.20397 -37.00397,-17.97414 -67.93687,-32.42816 -68.73979,-32.12005 -1.24469,0.47763 -1.4982,7.23474 -1.72007,45.84551 l -0.26021,45.2853 -22.75351,0.26878 -22.75351,0.26879 0.25351,-138.76879 z M 854,846.86221 c 0,-6.325 0.23367,-11.5 0.51927,-11.5 0.82716,0 38.87865,21.02412 39.93073,22.06243 0.59157,0.58383 -6.86009,0.93757 -19.75,0.93757 l -20.7,0 0,-11.5 z"
         id="path4677"
         inkscape:connector-curvature="0" />
      <path
         style="fill:#de243e"
         d="m 529,858.86221 0,-417.5 66.3,0 c 50.23333,0 66.5908,-0.2908 67.5,-1.2 0.89801,-0.89801 1.2,-12.6 1.2,-46.5 l 0,-45.3 94,0 94,0 0,45.3 c 0,33.9 0.30199,45.60199 1.2,46.5 0.90991,0.90991 17.71111,1.2 69.5,1.2 l 68.3,0 0,417.5 0,417.49999 -231,0 -231,0 0,-417.49999 z m 370.87527,326.15029 c 1.60411,-1.9328 1.60409,-650.36777 -3e-5,-652.30061 -1.66973,-2.0119 -278.08078,-2.01188 -279.75051,2e-5 -1.60411,1.93285 -1.60409,650.36779 3e-5,652.30059 1.66973,2.0119 278.08078,2.0119 279.75051,0 z M 668,1011.3875 l 0,-124.9748 7.25,3.36135 c 3.9875,1.84874 34.68858,16.7009 68.22463,33.00481 33.53605,16.30391 61.66105,29.51136 62.5,29.34988 1.33609,-0.25717 1.55764,-5.96893 1.78546,-46.03007 l 0.26009,-45.73646 21.98991,0 21.98991,0 0,138 0,137.99999 -92,0 -92,0 0,-124.9747 z M 645.69802,871.36557 c -9.7911,-5.3757 -18.0786,-10.0506 -18.41667,-10.38868 -0.33808,-0.33807 8.01032,-0.61468 18.55198,-0.61468 l 19.16667,0 0,10.5 c 0,5.775 -0.3375,10.44991 -0.75,10.38868 -0.4125,-0.0612 -8.76089,-4.50962 -18.55198,-9.88532 z M 668,719.36221 l 0,-138 92,0 92,0 0,125 c 0,68.75 -0.14045,125 -0.31211,125 -0.17165,0 -20.75915,-9.93304 -45.75,-22.07343 -24.99084,-12.14039 -55.67495,-27.04585 -68.18691,-33.12326 -18.83561,-9.14897 -23.00723,-10.83553 -24.25,-9.80412 C 712.20714,767.43519 712,773.80045 712,812.48465 l 0,44.87756 -22,0 -22,0 0,-138 z m 187,127.5 c 0,-5.775 0.14373,-10.5 0.31939,-10.5 0.40698,0 37.03851,20.07604 37.59728,20.60532 0.22916,0.21707 -8.20834,0.39468 -18.75,0.39468 l -19.16667,0 0,-10.5 z"
         id="path4675"
         inkscape:connector-curvature="0" />
    </g>
  </g>
</svg>
