<?xml version="1.0" encoding="UTF-8" standalone="no"?>
<!-- Created with Inkscape (http://www.inkscape.org/) -->

<svg
   xmlns:dc="http://purl.org/dc/elements/1.1/"
   xmlns:cc="http://creativecommons.org/ns#"
   xmlns:rdf="http://www.w3.org/1999/02/22-rdf-syntax-ns#"
   xmlns:svg="http://www.w3.org/2000/svg"
   xmlns="http://www.w3.org/2000/svg"
   xmlns:sodipodi="http://sodipodi.sourceforge.net/DTD/sodipodi-0.dtd"
   xmlns:inkscape="http://www.inkscape.org/namespaces/inkscape"
   width="64"
   height="64"
   viewBox="0 0 64.000001 64.000001"
   id="svg5417"
   version="1.1"
   inkscape:version="0.91 r13725"
   sodipodi:docname="battery-060-charging.svg">
  <defs
     id="defs5419" />
  <sodipodi:namedview
     id="base"
     pagecolor="#ffffff"
     bordercolor="#666666"
     borderopacity="1.0"
     inkscape:pageopacity="0.0"
     inkscape:pageshadow="2"
     inkscape:zoom="4.9607959"
     inkscape:cx="86.671959"
     inkscape:cy="1.8881446"
     inkscape:document-units="px"
     inkscape:current-layer="layer1"
     showgrid="false"
     units="px"
     inkscape:window-width="1920"
     inkscape:window-height="1080"
     inkscape:window-x="0"
     inkscape:window-y="0"
     inkscape:window-maximized="1" />
  <metadata
     id="metadata5422">
    <rdf:RDF>
      <cc:Work
         rdf:about="">
        <dc:format>image/svg+xml</dc:format>
        <dc:type
           rdf:resource="http://purl.org/dc/dcmitype/StillImage" />
        <dc:title></dc:title>
      </cc:Work>
    </rdf:RDF>
  </metadata>
  <g
     inkscape:label="Layer 1"
     inkscape:groupmode="layer"
     id="layer1"
     transform="translate(0,-988.36216)">
    <g
       id="g5436"
       transform="matrix(0.0625,0,0,0.0625,-18.535716,969.23242)">
      <path
         style="fill:#fdfdfd"
         d="m 296.57144,818.07648 0,-512 512,0 511.99996,0 0,512 0,512.00002 -511.99996,0 -512,0 0,-512.00002 z"
         id="path5452"
         inkscape:connector-curvature="0" />
      <path
         style="fill:#f6cfd4"
         d="m 574.03508,1285.8286 c -0.26136,-0.6887 -0.3601,-190.4771 -0.21942,-421.75212 l 0.25578,-420.5 67.25,-0.25704 67.25,-0.25704 0.0136,-44.24296 c 0.008,-24.33363 0.28558,-45.25768 0.61793,-46.49789 l 0.60426,-2.25493 97.13208,0.25493 97.13213,0.25493 0.5,46 0.5,46 69.5,0.5 69.49996,0.5 0,421.5 0,421.50002 -234.78054,0.2521 c -187.29998,0.2011 -234.87668,-10e-4 -235.25578,-1 z m 373.53636,-257.2337 0,-161.48156 -23.25,-0.26843 -23.25,-0.26843 -0.27877,-12.60115 -0.27876,-12.60115 -19.22124,-9.33377 c -34.79792,-16.89777 -62.8457,-30.53818 -89.12213,-43.34255 -14.24549,-6.94176 -26.28299,-12.62138 -26.75,-12.62138 -0.467,0 -0.8491,19.57051 -0.8491,43.49001 l 0,43.49002 46.25,0.25998 46.25,0.25999 0.25971,47.77766 c 0.2323,42.73303 0.0932,47.84154 -1.31698,48.38269 -1.46463,0.56203 -9.55279,-3.16522 -57.94273,-26.70164 -8.8,-4.28024 -22.975,-11.14009 -31.5,-15.24411 -38.23683,-18.40758 -66.01902,-32.53232 -85.68462,-43.56288 -5.05154,-2.83345 -9.43904,-5.15172 -9.75,-5.15172 -0.31096,0 -0.56538,72.225 -0.56538,160.50002 l 0,160.5 138.5,0 138.5,0 0,-161.4816 z m -234,-305.51842 0.5,-139.5 95,0 95,0 0.25384,126.90217 c 0.18319,91.57859 0.56446,127.27643 1.36973,128.24673 0.61374,0.7395 6.34951,4.11888 12.74616,7.50972 6.39665,3.39084 15.10216,8.11732 19.34558,10.50327 4.24342,2.38596 8.18092,4.33811 8.75,4.33811 0.70862,0 1.03469,-50.57953 1.03469,-160.5 l 0,-160.5 -138.5,0 -138.5,0 0,161.51989 0,161.51989 21.25,-0.26989 21.25,-0.26989 0.5,-139.5 z"
         id="path5450"
         inkscape:connector-curvature="0" />
      <path
         style="fill:#f3bcc3"
         d="m 574.77144,1285.8765 c -1.5999,-1.5999 -1.76382,-837.878 -0.16482,-840.86576 1.00764,-1.88278 2.81731,-1.93426 68,-1.93426 l 66.96482,0 0,-45.3 c 0,-33.9 0.30199,-45.60199 1.2,-46.5 0.91654,-0.91654 23.70329,-1.2 96.46482,-1.2 93.16207,0 95.28766,0.0427 96.3,1.93426 0.66915,1.25033 1.03518,17.69205 1.03518,46.5 l 0,44.56574 68.96482,0 c 67.16004,0 68.99194,0.0506 70.00004,1.93426 1.599,2.98776 1.435,839.26586 -0.1649,840.86576 -1.747,1.7471 -466.85289,1.7471 -468.59996,0 z m 373.55302,-257.05 c 0.13916,-88.96252 0.13916,-161.84119 0,-161.95261 -0.13916,-0.11143 -10.60302,-0.44893 -23.25302,-0.75 l -23,-0.54741 -0.5,-12.17107 c -0.275,-6.69409 -0.7382,-12.4073 -1.02934,-12.69601 -1.8243,-1.80911 -135.06612,-65.69196 -135.91756,-65.16574 -1.59437,0.98538 -1.45182,85.7341 0.1469,87.33282 0.89801,0.89801 12.6,1.2 46.5,1.2 l 45.3,0 0,47.5 c 0,45.71707 -0.0701,47.5 -1.86828,47.5 -1.02756,0 -16.66506,-7.23647 -34.75,-16.08105 -18.08495,-8.84459 -34.70785,-16.91649 -36.93979,-17.93756 -14.76374,-6.75419 -79.99047,-39.39685 -94.44193,-47.26339 -9.625,-5.23929 -17.8375,-9.31763 -18.25,-9.06298 -0.92864,0.5733 -1.0081,320.7535 -0.0798,321.6818 0.36859,0.3686 63.03109,0.5561 139.25,0.4167 l 138.5798,-0.2535 0.25302,-161.75 z M 713.57144,724.28993 c 0.43922,-122.35621 0.68233,-139.40179 2,-140.23468 2.0255,-1.28031 184.97447,-1.28032 187,-2e-5 1.31619,0.83195 1.56127,16.5451 2,128.23172 l 0.5,127.28358 13.5,7.34381 c 24.74435,13.46057 27.99956,15.16214 29.00609,15.16214 0.66354,0 0.91484,-54.25084 0.74694,-161.25 l -0.25303,-161.25 -139,0 -139,0 -0.25678,161 c -0.14123,88.55 -0.0394,161.57148 0.22627,162.26996 0.37412,0.98356 5.28065,1.20907 21.75678,1 l 21.27373,-0.26996 0.5,-139.28655 z"
         id="path5448"
         inkscape:connector-curvature="0" />
      <path
         style="fill:#ef9da9"
         d="m 574.57144,865.07648 0,-421 66.8,0 c 50.62222,0 67.09062,-0.29062 68,-1.2 0.89802,-0.89802 1.2,-12.60111 1.2,-46.505 l 0,-45.305 96.25,0.255 96.25,0.255 0.5,46 0.5,46 69.75,0.2568 69.74996,0.2568 0,420.9932 0,420.99322 -234.49996,0 -234.5,0 0,-421.00002 z m 373.75301,163.75002 -0.25301,-162.25002 -23,-0.5 -23,-0.5 -0.28076,-12.2471 c -0.2612,-11.39443 -0.43526,-12.34715 -2.5,-13.68421 -1.22058,-0.79041 -24.71924,-12.30659 -52.21924,-25.59151 -27.5,-13.28492 -56.75093,-27.48952 -65.00206,-31.56579 -8.25113,-4.07626 -15.79331,-7.41139 -16.7604,-7.41139 -1.65522,0 -1.74307,2.59509 -1.49794,44.25 l 0.2604,44.25 46,0.5 46,0.5 0.25991,46.77758 c 0.20989,37.77603 0.008,46.87411 -1.04729,47.2792 -0.71895,0.27589 -16.13591,-6.75015 -34.2599,-15.61342 -18.124,-8.86327 -34.75272,-16.93678 -36.95272,-17.94114 -16.11931,-7.35888 -74.77151,-36.66054 -91.70037,-45.81198 -11.38521,-6.15463 -21.17271,-11.19024 -21.75,-11.19024 -0.72851,0 -1.04963,49.4093 -1.04963,161.50002 l 0,161.5 139.50301,0 139.50301,0 -0.25301,-162.25 z m -233.75301,-304.75002 0.5,-139.5 94,0 94,0 0.5,127.46649 0.5,127.46648 7.5,4.08091 c 4.125,2.2445 13.87377,7.54708 21.66393,11.78352 7.79016,4.23643 14.42766,7.7026 14.75,7.7026 0.32234,0 0.58607,-72.9 0.58607,-162 l 0,-162 -139.5,0 -139.5,0 0,161.83333 c 0,89.00834 0.30854,162.14188 0.68565,162.51899 0.37711,0.37711 10.38961,0.56461 22.25,0.41667 l 21.56435,-0.26899 0.5,-139.5 z"
         id="path5446"
         inkscape:connector-curvature="0" />
      <path
         style="fill:#e97889"
         d="m 575.17843,1284.4947 c -0.91232,-2.3775 -0.70037,-837.72296 0.21292,-839.16107 0.61346,-0.96598 15.70258,-1.30013 67.73469,-1.5 l 66.9454,-0.25715 0.5,-46 0.5,-46 94.89139,-0.2551 c 69.28299,-0.18625 95.25805,0.0492 96.25,0.87245 1.10829,0.91979 1.35861,9.48838 1.35861,46.5051 l 0,45.37755 69.39301,0 c 62.35485,0 69.45455,0.16043 70.00005,1.58179 0.7936,2.06823 0.7936,836.76823 0,838.83643 -0.5511,1.4361 -22.0892,1.5818 -233.89306,1.5818 -211.80385,0 -233.34192,-0.1457 -233.89301,-1.5818 z m 373.78602,-94 c 0.33385,-0.87 0.60699,-73.9684 0.60699,-162.441 0,-123.49764 -0.27705,-161.03041 -1.19284,-161.5964 -0.65606,-0.40547 -10.44356,-0.62502 -21.75,-0.4879 -11.30644,0.13713 -21.34466,-0.0558 -22.30716,-0.42878 -1.52216,-0.58983 -1.75,-2.13654 -1.75,-11.88 0,-7.4154 -0.42253,-11.75926 -1.25,-12.85083 -1.85559,-2.44781 -135.45041,-67.06225 -137.23776,-66.37638 -1.31756,0.50559 -1.51224,6.17528 -1.51224,44.04026 0,38.17571 0.19107,43.65102 1.57143,45.03138 1.38182,1.38183 6.97945,1.57143 46.39301,1.57143 39.94893,0 44.88757,0.17196 45.42857,1.58179 0.79274,2.06584 0.79274,87.77058 0,89.83642 -0.33384,0.86999 -1.14677,1.58179 -1.8065,1.58179 -1.05732,0 -32.84501,-15.30868 -116.42509,-56.06932 -13.38622,-6.52824 -33.9706,-17.08677 -45.74307,-23.4634 -11.77247,-6.37663 -21.85761,-11.31384 -22.41142,-10.97156 -1.09686,0.67789 -1.49243,320.0755 -0.39994,322.9225 0.54947,1.4319 13.80487,1.5818 139.89301,1.5818 126.08814,0 139.34354,-0.1499 139.89301,-1.5818 z M 712.98965,864.46949 c 1.43186,-0.54946 1.58179,-13.7526 1.58179,-139.3 0,-106.53901 0.2782,-138.97121 1.2,-139.89301 1.73975,-1.73975 184.86025,-1.73975 186.6,0 0.92071,0.92071 1.2,30.69636 1.2,127.93362 l 0,126.73362 13.25,7.06287 c 7.2875,3.88458 14.375,7.71313 15.75,8.50788 11.20686,6.47762 15.27853,8.5079 16.07509,8.0156 1.02108,-0.63106 1.33578,-321.21931 0.31792,-323.8718 -0.54947,-1.43191 -13.80487,-1.58179 -139.89301,-1.58179 -126.08814,0 -139.34354,0.14988 -139.89301,1.58179 -0.33385,0.86998 -0.60699,73.90498 -0.60699,162.3 0,123.66972 0.27662,160.99483 1.2,161.91821 1.2676,1.2676 40.0727,1.80006 43.21821,0.59301 z"
         id="path5444"
         inkscape:connector-curvature="0" />
      <path
         style="fill:#e45165"
         d="m 575.57144,865.07648 0,-420 66.8,0 c 50.62222,0 67.09062,-0.29062 68,-1.2 0.89801,-0.89801 1.2,-12.6 1.2,-46.5 l 0,-45.3 95.5,0 95.5,0 0,45.89301 c 0,40.92593 0.1712,45.95871 1.58179,46.5 0.86998,0.33385 32.36998,0.60699 70,0.60699 l 68.41817,0 0,420 0,420.00002 -233.49996,0 -233.5,0 0,-420.00002 z m 371.75,327.36972 2.25,-0.603 0,-326.88335 0,-326.88337 -140.5,0 -140.5,0 0,162.94098 c 0,116.25498 0.31149,163.1335 1.08713,163.61287 0.78285,0.48382 0.78285,0.97617 0,1.75902 -0.77391,0.77391 -1.08713,47.82785 -1.08713,163.31385 0,153.6607 0.0924,162.2508 1.75,162.684 2.65423,0.6936 274.41592,0.7515 277,0.059 z m -109.25,-242.44209 c -20.3389,-9.98236 -46.02235,-22.43792 -69,-33.46255 -38.38175,-18.41547 -54.44447,-26.36317 -66,-32.65624 -24.98267,-13.60541 -31.48604,-17.33058 -31.49291,-18.03934 -0.004,-0.40177 9.78041,-0.85177 21.74291,-1 l 21.75,-0.2695 0.5,-139.5 0.5,-139.5 93,0 93,0 0.5,127.39038 0.5,127.39039 8.5,4.66672 c 4.675,2.5667 14.2375,7.77206 21.25,11.56747 7.0125,3.7954 12.75,7.26615 12.75,7.71277 0,0.44663 -9.5625,0.6906 -21.25,0.54216 l -21.25,-0.26989 -0.28142,-12.32988 -0.28142,-12.32988 -28.71858,-14.02946 c -15.79522,-7.7162 -32.31858,-15.73359 -36.71858,-17.81642 -4.4,-2.08283 -22.3778,-10.80863 -39.95066,-19.39066 -17.57286,-8.58204 -32.5399,-15.6037 -33.26009,-15.6037 -1.06394,0 -1.26067,8.57683 -1.04934,45.75 l 0.26009,45.75 46,0.5 46,0.5 0.26032,45.43968 c 0.14318,24.99182 -0.0818,45.75492 -0.5,46.14022 -0.41818,0.3853 -7.96032,-2.83322 -16.76032,-7.15227 z"
         id="path5442"
         inkscape:connector-curvature="0" />
      <path
         style="fill:#df2f48"
         d="m 577.03509,1283.8286 c -0.26137,-0.6887 -0.36011,-189.5771 -0.21943,-419.75212 l 0.25578,-418.5 67,-0.5 67,-0.5 0.5,-46 0.5,-46 94.5,0 94.5,0 0.52527,46 c 0.2889,25.3 0.6264,46.10942 0.75,46.24315 0.1236,0.13374 31.38723,0.35874 69.47473,0.5 l 69.24996,0.25685 0,419.5 0,419.50002 -231.78053,0.2521 c -184.89994,0.2011 -231.87669,-10e-4 -232.25578,-1 z m 373.03635,-418.75212 0,-327.5 -141,0 -141,0 -0.25513,326.5 c -0.14032,179.57502 -0.0413,327.06402 0.21994,327.75342 0.37829,0.9981 29.15666,1.2019 141.25513,1 l 140.78006,-0.2534 0,-327.50002 z M 817.0633,939.24249 c -19.80447,-9.71631 -49.92367,-24.41601 -66.93156,-32.66601 -28.76945,-13.95517 -73.84078,-37.4127 -76.0103,-39.55981 -0.59337,-0.58724 6.74578,-0.94019 19.55,-0.94019 14.61111,0 20.84472,-0.34472 21.7,-1.2 0.92181,-0.92181 1.2,-33.37778 1.2,-140 l 0,-138.8 92.5,0 92.5,0 0,126.10699 c 0,100.4879 -0.25394,126.00453 -1.25,125.60265 -0.6875,-0.27738 -31.5183,-15.22145 -68.5129,-33.20903 -37.69722,-18.32921 -67.91656,-32.45386 -68.75,-32.13403 -1.28587,0.49343 -1.4871,6.70468 -1.4871,45.90204 0,33.92441 0.30196,45.63334 1.2,46.53138 0.89801,0.89801 12.6,1.2 46.5,1.2 l 45.3,0 0,45.5 c 0,25.025 -0.3375,45.4622 -0.75,45.41601 -0.4125,-0.0462 -16.95366,-8.03369 -36.75814,-17.75 z m 86.50814,-86.16601 c 0,-6.05 0.3375,-10.99112 0.75,-10.98026 0.4125,0.0109 6.6,3.21633 13.75,7.12328 7.15,3.90696 15.025,8.13494 17.5,9.39552 10.54659,5.37165 10.49668,5.39472 -11.75,5.42966 l -20.25,0.0318 0,-11 z"
         id="path5440"
         inkscape:connector-curvature="0" />
      <path
         style="fill:#dd243e"
         d="m 576.82026,865.32648 0.25118,-418.75 67.5,-0.5 67.5,-0.5 0.25999,-46.25 0.25998,-46.25 93.99002,0 93.99001,0 0,44.80887 c 0,34.27872 0.29375,45.20619 1.25,46.49957 1.14959,1.5549 6.79252,1.71082 70.25,1.94113 l 68.99996,0.25043 0.2512,418.75 0.2512,418.75002 -232.50236,0 -232.50237,0 0.25119,-418.75002 z m 373.55118,327.55002 c 1.74844,-1.7485 1.74844,-653.85158 0,-655.60002 -1.7439,-1.7439 -280.8561,-1.7439 -282.6,0 -1.74844,1.74844 -1.74844,653.85152 0,655.60002 1.7439,1.7439 280.8561,1.7439 282.6,0 z m -114.8,-245.63329 c -9.625,-4.78737 -26.725,-13.16535 -38,-18.61775 -57.82299,-27.9622 -81.37791,-39.65114 -100.45119,-49.84808 l -20.95119,-11.2009 19.73957,-0.5 c 16.07308,-0.40713 19.91534,-0.77861 20.68588,-2 0.58313,-0.92433 0.95218,-54.74982 0.96162,-140.25 l 0.0153,-138.75 91.5,0 91.5,0 0,125.51116 0,125.51116 -7.75,-3.8684 c -4.2625,-2.12762 -27.1,-13.2246 -50.75,-24.65996 -23.65,-11.43535 -50.68973,-24.54959 -60.08829,-29.14276 -9.39856,-4.59316 -17.78792,-8.3512 -18.64301,-8.3512 -0.8551,0 -1.82787,0.7118 -2.16171,1.58179 -0.33385,0.86998 -0.60699,21.76284 -0.60699,46.42857 0,39.43647 0.18958,45.03636 1.57143,46.41821 1.38194,1.38194 6.98918,1.57143 46.5,1.57143 l 44.92857,0 0,44.5 c 0,24.475 -0.1125,44.47098 -0.25,44.43551 -0.1375,-0.0355 -8.125,-3.98142 -17.75,-8.76878 z m 69,-94.20191 0,-10.03519 2.25,1.17188 c 11.91526,6.20588 33.75,18.16838 33.75,18.49046 0,0.22442 -8.1,0.40803 -18,0.40803 l -18,0 0,-10.03518 z"
         id="path5438"
         inkscape:connector-curvature="0" />
    </g>
  </g>
</svg>
