<?xml version="1.0" encoding="UTF-8" standalone="no"?>
<!-- Created with Inkscape (http://www.inkscape.org/) -->

<svg
   xmlns:dc="http://purl.org/dc/elements/1.1/"
   xmlns:cc="http://creativecommons.org/ns#"
   xmlns:rdf="http://www.w3.org/1999/02/22-rdf-syntax-ns#"
   xmlns:svg="http://www.w3.org/2000/svg"
   xmlns="http://www.w3.org/2000/svg"
   xmlns:sodipodi="http://sodipodi.sourceforge.net/DTD/sodipodi-0.dtd"
   xmlns:inkscape="http://www.inkscape.org/namespaces/inkscape"
   width="64"
   height="64"
   viewBox="0 0 64.000001 64.000001"
   id="svg2"
   version="1.1"
   inkscape:version="0.91 r13725"
   sodipodi:docname="battery-060.svg">
  <defs
     id="defs4" />
  <sodipodi:namedview
     id="base"
     pagecolor="#ffffff"
     bordercolor="#666666"
     borderopacity="1.0"
     inkscape:pageopacity="0.0"
     inkscape:pageshadow="2"
     inkscape:zoom="0.35"
     inkscape:cx="375"
     inkscape:cy="520"
     inkscape:document-units="px"
     inkscape:current-layer="layer1"
     showgrid="false"
     units="px"
     inkscape:window-width="1920"
     inkscape:window-height="1080"
     inkscape:window-x="0"
     inkscape:window-y="0"
     inkscape:window-maximized="1" />
  <metadata
     id="metadata7">
    <rdf:RDF>
      <cc:Work
         rdf:about="">
        <dc:format>image/svg+xml</dc:format>
        <dc:type
           rdf:resource="http://purl.org/dc/dcmitype/StillImage" />
        <dc:title></dc:title>
      </cc:Work>
    </rdf:RDF>
  </metadata>
  <g
     inkscape:label="Layer 1"
     inkscape:groupmode="layer"
     id="layer1"
     transform="translate(0,-988.3622)">
    <g
       id="g3347"
       transform="matrix(0.0625,0,0,0.0625,-13.714284,969.411)">
      <path
         style="fill:#fdfdfd"
         d="m 219.42857,815.21936 0,-512 512,0 512.00003,0 0,512 0,512.00004 -512.00003,0 -512,0 0,-512.00004 z"
         id="path3363"
         inkscape:connector-curvature="0" />
      <path
         style="fill:#fae6e9"
         d="m 497.62857,1282.0194 c -1.7492,-1.7492 -1.7492,-838.85084 0,-840.60004 0.9092,-0.9092 17.26667,-1.2 67.5,-1.2 l 66.3,0 0,-45.3 c 0,-33.9 0.30199,-45.60199 1.2,-46.5 1.74019,-1.74019 191.85981,-1.74019 193.6,0 0.89801,0.89801 1.2,12.6 1.2,46.5 l 0,45.3 68.3,0 c 51.78889,0 68.59009,0.29009 69.5,1.2 1.7492,1.7492 1.7492,838.85084 0,840.60004 -1.74706,1.747 -465.85294,1.747 -467.6,0 z m 370.8,-420.30004 0,-323.5 -137,0 -137,0 0,323.5 0,323.50004 137,0 137,0 0,-323.50004 z m -231.8,1.3 c -1.74387,-1.74387 -1.74387,-279.85613 0,-281.6 1.73994,-1.73994 187.86006,-1.73994 189.6,0 1.74387,1.74387 1.74387,279.85613 0,281.6 -1.73994,1.73994 -187.86006,1.73994 -189.6,0 z"
         id="path3361"
         inkscape:connector-curvature="0" />
      <path
         style="fill:#f4bac2"
         d="m 497.89221,1280.9715 c -0.26136,-0.6887 -0.3601,-189.8021 -0.21942,-420.25214 l 0.25578,-419 67.24002,-0.25703 67.24002,-0.25704 0.25998,-46.24296 0.25998,-46.24297 96.5,0 96.5,0 0.25998,46.24316 0.25999,46.24316 69.24001,0.25684 69.24002,0.25684 0,420 0,420.00004 -233.28057,0.2521 c -186.09996,0.2011 -233.37669,0 -233.75579,-1 z m 371.53636,-419.25214 0,-324.5 -138,0 -138,0 0,324.5 0,324.50004 138,0 138,0 0,-324.50004 z m -232.53645,0.25511 c -0.26268,-0.69031 -0.36194,-64.03011 -0.22058,-140.75511 l 0.25703,-139.5 94.5,0 94.5,0 0,140.5 0,140.5 -94.27943,0.25511 c -74.89553,0.20265 -94.37762,-0.003 -94.75702,-1 z"
         id="path3359"
         inkscape:connector-curvature="0" />
      <path
         style="fill:#f1b1ba"
         d="m 499,1280.6479 c -1.42355,-1.4235 -1.57143,-40.8463 -1.57143,-418.92854 0,-378.08225 0.14788,-417.50502 1.57143,-418.92857 1.39679,-1.39679 8.89827,-1.57143 67.5,-1.57143 l 65.92857,0 0,-44.92857 c 0,-39.51082 0.18949,-45.11806 1.57143,-46.5 1.40625,-1.40625 11.43723,-1.57143 95.42857,-1.57143 83.99134,0 94.02232,0.16518 95.42857,1.57143 1.38194,1.38194 1.57143,6.98918 1.57143,46.5 l 0,44.92857 67.92857,0 c 60.41991,0 68.10227,0.1737 69.5,1.57143 1.42355,1.42355 1.57143,40.84632 1.57143,418.92857 0,378.08224 -0.14788,417.50504 -1.57143,418.92854 -1.41949,1.4195 -23.89177,1.5715 -232.42857,1.5715 -208.5368,0 -231.00908,-0.152 -232.42857,-1.5715 z m 370.42857,-418.92854 0,-324.5 -138,0 -138,0 0,324.5 0,324.50004 138,0 138,0 0,-324.50004 z M 638,861.64796 c -1.41337,-1.4134 -1.57143,-15.43726 -1.57143,-139.4286 0,-123.99134 0.15806,-138.0152 1.57143,-139.42857 1.40576,-1.40576 11.25541,-1.57143 93.42857,-1.57143 82.17316,0 92.02281,0.16567 93.42857,1.57143 1.41337,1.41337 1.57143,15.43723 1.57143,139.42857 0,123.99134 -0.15806,138.0152 -1.57143,139.42857 -1.40576,1.40576 -11.25541,1.57143 -93.42857,1.57143 -82.17316,0 -92.02281,-0.16567 -93.42857,-1.57143 z"
         id="path3357"
         inkscape:connector-curvature="0" />
      <path
         style="fill:#e96f80"
         d="m 498.89222,1279.9715 c -0.26137,-0.6887 -0.36011,-189.3521 -0.21943,-419.25214 l 0.25578,-418 67,-0.5 67,-0.5 0.5,-46 0.5,-46 95.5,0 95.5,0 0.5,46 0.5,46 69,0.5 69,0.5 0,419 0,419.00004 -232.28057,0.2521 c -185.29995,0.2011 -232.37669,0 -232.75578,-1 z m 371.03635,-418.25214 0,-325 -138.5,0 -138.5,0 -0.25597,324 c -0.14078,178.20004 -0.0418,324.56414 0.21997,325.25354 0.37894,0.998 28.65792,1.2018 138.75597,1 l 138.28003,-0.2535 0,-325.00004 z m -232.03645,-0.74484 c -0.26269,-0.69034 -0.36196,-63.58016 -0.22059,-139.75516 l 0.25704,-138.5 93.5,0 93.5,0 0,139.5 0,139.5 -93.27941,0.25516 c -74.09546,0.20268 -93.37763,-0.003 -93.75704,-1 z"
         id="path3355"
         inkscape:connector-curvature="0" />
      <path
         style="fill:#e5596d"
         d="m 499.42857,861.71936 0,-418.5 66.3,0 c 50.23333,0 66.5908,-0.2908 67.5,-1.2 0.89801,-0.89801 1.2,-12.6 1.2,-46.5 l 0,-45.3 95,0 95,0 0,45.3 c 0,33.9 0.30199,45.60199 1.2,46.5 0.90991,0.90991 17.71111,1.2 69.5,1.2 l 68.3,0 0,418.5 0,418.50004 -232,0 -232,0 0,-418.50004 z m 370.8,325.30004 c 1.74842,-1.7485 1.74842,-648.85162 0,-650.60004 -1.74376,-1.74376 -275.85624,-1.74376 -277.6,0 -1.74842,1.74842 -1.74842,648.85154 0,650.60004 1.74376,1.7437 275.85624,1.7437 277.6,0 z m -231.8,-464.80004 0,-139 93,0 93,0 0,139 0,139 -93,0 -93,0 0,-139 z"
         id="path3353"
         inkscape:connector-curvature="0" />
      <path
         style="fill:#e03a51"
         d="m 499.89222,1278.9715 c -0.26137,-0.6887 -0.36012,-188.9021 -0.21943,-418.25214 l 0.25578,-417 67,-0.5 67,-0.5 0.5,-46 0.5,-46 94.5,0 94.5,0 0.5,46 0.5,46 69,0.5 69,0.5 0,418 0,418.00004 -231.28057,0.2521 c -184.49993,0.2011 -231.37669,0 -231.75578,-1 z m 371.03635,-417.25214 0,-326 -139.5,0 -139.5,0 -0.25596,325 c -0.14078,178.75004 -0.0418,325.56404 0.21995,326.25354 0.37894,0.998 28.85789,1.2018 139.75597,1 l 139.28004,-0.2535 0,-326.00004 z m -232.03644,-1.74479 c -0.26272,-0.69036 -0.36199,-63.13021 -0.22061,-138.75521 l 0.25705,-137.5 92.5,0 92.5,0 0,138.5 0,138.5 -92.27938,0.25521 c -73.29539,0.20271 -92.37766,-0.003 -92.75706,-1 z"
         id="path3351"
         inkscape:connector-curvature="0" />
      <path
         style="fill:#de243e"
         d="m 500.42857,861.71936 0,-417.5 66.3,0 c 50.23333,0 66.5908,-0.2908 67.5,-1.2 0.89801,-0.89801 1.2,-12.6 1.2,-46.5 l 0,-45.3 94,0 94,0 0,45.3 c 0,33.9 0.30199,45.60199 1.2,46.5 0.90991,0.90991 17.71111,1.2 69.5,1.2 l 68.3,0 0,417.5 0,417.50004 -231,0 -231,0 0,-417.50004 z m 370.8,326.30004 c 1.74843,-1.7485 1.74843,-650.85161 0,-652.60004 -1.74381,-1.74381 -277.85619,-1.74381 -279.6,0 -1.74843,1.74843 -1.74843,650.85154 0,652.60004 1.74381,1.7438 277.85619,1.7438 279.6,0 z m -231.8,-465.80004 0,-138 92,0 92,0 0,138 0,138 -92,0 -92,0 0,-138 z"
         id="path3349"
         inkscape:connector-curvature="0" />
    </g>
  </g>
</svg>
