<?xml version="1.0" encoding="UTF-8" standalone="no"?>
<!-- Created with Inkscape (http://www.inkscape.org/) -->

<svg
   xmlns:dc="http://purl.org/dc/elements/1.1/"
   xmlns:cc="http://creativecommons.org/ns#"
   xmlns:rdf="http://www.w3.org/1999/02/22-rdf-syntax-ns#"
   xmlns:svg="http://www.w3.org/2000/svg"
   xmlns="http://www.w3.org/2000/svg"
   xmlns:sodipodi="http://sodipodi.sourceforge.net/DTD/sodipodi-0.dtd"
   xmlns:inkscape="http://www.inkscape.org/namespaces/inkscape"
   width="48"
   height="48"
   viewBox="0 0 48.000001 48.000001"
   id="svg5049"
   version="1.1"
   inkscape:version="0.91 r13725"
   sodipodi:docname="battery-050-charging.svg">
  <defs
     id="defs5051" />
  <sodipodi:namedview
     id="base"
     pagecolor="#ffffff"
     bordercolor="#666666"
     borderopacity="1.0"
     inkscape:pageopacity="0.0"
     inkscape:pageshadow="2"
     inkscape:zoom="0.35"
     inkscape:cx="375"
     inkscape:cy="520"
     inkscape:document-units="px"
     inkscape:current-layer="layer1"
     showgrid="false"
     units="px"
     inkscape:window-width="1920"
     inkscape:window-height="1080"
     inkscape:window-x="0"
     inkscape:window-y="0"
     inkscape:window-maximized="1" />
  <metadata
     id="metadata5054">
    <rdf:RDF>
      <cc:Work
         rdf:about="">
        <dc:format>image/svg+xml</dc:format>
        <dc:type
           rdf:resource="http://purl.org/dc/dcmitype/StillImage" />
        <dc:title></dc:title>
      </cc:Work>
    </rdf:RDF>
  </metadata>
  <g
     inkscape:label="Layer 1"
     inkscape:groupmode="layer"
     id="layer1"
     transform="translate(0,-1004.3622)">
    <g
       id="g5068"
       transform="matrix(0.046875,0,0,0.046875,-34.928571,989.61308)">
      <path
         style="fill:#fdfdfd"
         d="m 745.14288,826.64792 0,-512 512.00002,0 512,0 0,512 0,511.99998 -512,0 -512.00002,0 0,-511.99998 z"
         id="path5084"
         inkscape:connector-curvature="0" />
      <path
         style="fill:#fae6e9"
         d="m 1023.3429,1293.4479 c -1.7492,-1.7492 -1.7492,-838.85078 0,-840.59998 0.9092,-0.9092 17.2667,-1.2 67.5,-1.2 l 66.3,0 0,-45.3 c 0,-33.9 0.302,-45.60199 1.2,-46.5 1.7402,-1.74019 191.8598,-1.74019 193.6,0 0.898,0.89801 1.2,12.6 1.2,46.5 l 0,45.3 68.3,0 c 51.7889,0 68.5901,0.29009 69.5,1.2 1.7492,1.7492 1.7492,838.85078 0,840.59998 -1.7471,1.7471 -465.853,1.7471 -467.6,0 z m 370.8,-257.3 0,-160.49998 -44,0 -44,0 0,45.37756 c 0,37.65629 -0.238,45.57508 -1.3988,46.53844 -1.1104,0.92152 -15.6981,-5.76619 -70.75,-32.4353 -38.1432,-18.4779 -77.9012,-38.24087 -88.3512,-43.9177 -10.45,-5.67683 -20.4625,-11.0624 -22.25,-11.96794 l -3.25,-1.64642 0,159.52564 0,159.5257 137,0 137,0 0,-160.5 z m -186,-186.49998 0,-21 -22.3,0 c -16.0111,0 -22.6384,-0.33842 -23.5,-1.2 -1.7423,-1.74225 -1.7423,-232.85775 0,-234.6 1.7399,-1.73994 187.86,-1.73994 189.6,0 1.7422,1.74225 1.7422,232.85775 0,234.6 -0.8323,0.83232 -6.4241,1.22611 -18.25,1.28522 l -17.05,0.0852 18,8.75842 c 9.9,4.81713 27.1214,13.77878 38.2698,19.91478 11.1484,6.13602 20.4858,11.15638 20.75,11.15638 0.2641,0 0.4802,-71.775 0.4802,-159.5 l 0,-159.5 -137,0 -137,0 0,160.5 0,160.5 44,0 44,0 0,-21 z m 87.9167,-25.36981 c -0.8104,-0.7192 -81.5427,-39.63019 -82.2245,-39.63019 -0.3807,0 -0.6922,9 -0.6922,20 l 0,20 41.6667,0 c 22.9166,0 41.4791,-0.16642 41.25,-0.36981 z"
         id="path5082"
         inkscape:connector-curvature="0" />
      <path
         style="fill:#f3bcc4"
         d="m 1023.6065,1292.4 c -0.2613,-0.6886 -0.3601,-189.8021 -0.2194,-420.25208 l 0.2558,-419 67.24,-0.25703 67.24,-0.25704 0.26,-46.24296 0.26,-46.24297 96.5,0 96.5,0 0.26,46.24316 0.26,46.24316 69.24,0.25684 69.24,0.25684 0,420 0,419.99998 -233.2806,0.2521 c -186.0999,0.2012 -233.3767,0 -233.7558,-1 z m 371.5364,-256.2521 0,-161.49998 -45,0 -45,0 0,45.89301 c 0,35.83042 -0.2745,45.99835 -1.252,46.37344 -1.6888,0.64806 -139.2322,-66.23365 -163.7397,-79.61989 -10.7204,-5.85561 -19.8329,-10.64656 -20.25,-10.64656 -0.4171,0 -0.7583,72.225 -0.7583,160.49998 l 0,160.5 138,0 138,0 0,-161.5 z m -186,-186.48155 0,-21.98157 -23.25,-0.26843 -23.25,-0.26843 0,-117 0,-117 94.5,0 94.5,0 0,117 0,117 -19,0.5 -19,0.5 19.5,9.59844 c 10.725,5.27913 28.6214,14.61663 39.7698,20.75 11.1484,6.13336 20.7109,11.15156 21.25,11.15156 0.6362,0 0.9802,-56.32665 0.9802,-160.5 l 0,-160.5 -138,0 -138,0 0,161.5 0,161.5 45,0 45,0 0,-21.98157 z m 89.45,-24.91201 c -1.4381,-1.35269 -83.8928,-41.10642 -85.2603,-41.10642 -0.8818,0 -1.1897,5.43441 -1.1897,21 l 0,21 43.7,0 c 25.7059,0 43.3088,-0.36794 42.75,-0.89358 z"
         id="path5080"
         inkscape:connector-curvature="0" />
      <path
         style="fill:#f1afb9"
         d="m 1024.7143,1292.0765 c -1.4235,-1.4236 -1.5714,-40.8463 -1.5714,-418.92858 0,-378.08225 0.1479,-417.50502 1.5714,-418.92857 1.3968,-1.39679 8.8983,-1.57143 67.5,-1.57143 l 65.9286,0 0,-44.92857 c 0,-39.51082 0.1895,-45.11806 1.5714,-46.5 1.4063,-1.40625 11.4372,-1.57143 95.4286,-1.57143 83.9913,0 94.0223,0.16518 95.4286,1.57143 1.3819,1.38194 1.5714,6.98918 1.5714,46.5 l 0,44.92857 67.9286,0 c 60.4199,0 68.1022,0.1737 69.5,1.57143 1.4235,1.42355 1.5714,40.84632 1.5714,418.92857 0,378.08228 -0.1479,417.50498 -1.5714,418.92858 -1.4195,1.4195 -23.8918,1.5714 -232.4286,1.5714 -208.5368,0 -231.0091,-0.1519 -232.4286,-1.5714 z m 370.4286,-255.9286 0,-161.49998 -45,0 -45,0 0,44.41821 c 0,24.43002 -0.2732,45.13002 -0.607,46 -0.3339,0.86999 -1.0147,1.58179 -1.513,1.58179 -2.2167,0 -140.6597,-67.87627 -160.7594,-78.81767 -12.3087,-6.70028 -22.5462,-12.18233 -22.75,-12.18233 -0.2039,0 -0.3706,72.45 -0.3706,160.99998 l 0,161 138,0 138,0 0,-161.5 z m -186,-186.49998 0,-22 -21.9286,0 c -18.6017,0 -22.167,-0.23841 -23.5,-1.57143 -1.4102,-1.41025 -1.5714,-13.30086 -1.5714,-115.92857 0,-102.62771 0.1612,-114.51832 1.5714,-115.92857 1.4058,-1.40576 11.2554,-1.57143 93.4286,-1.57143 82.1731,0 92.0228,0.16567 93.4286,1.57143 1.4104,1.4104 1.5698,13.27146 1.5561,115.75 -0.01,70.03804 -0.3811,114.75846 -0.9615,115.67857 -0.7668,1.21563 -4.5082,1.59479 -19.7347,2 l -18.7885,0.5 19.5,9.59929 c 10.725,5.2796 29.0334,14.8421 40.6854,21.25 11.652,6.40789 21.4395,11.65071 21.75,11.65071 0.3105,0 0.5646,-72.45 0.5646,-161 l 0,-161 -138,0 -138,0 0,161.5 0,161.5 45,0 45,0 0,-22 z m 90.45,-24.89586 c -1.0656,-1.00489 -85.8012,-42.10414 -86.8075,-42.10414 -0.3534,0 -0.6425,9.675 -0.6425,21.5 l 0,21.5 44.2,0 c 26.0817,0 43.8106,-0.36723 43.25,-0.89586 z"
         id="path5078"
         inkscape:connector-curvature="0" />
      <path
         style="fill:#e96f80"
         d="m 1024.6065,1291.4 c -0.2613,-0.6886 -0.3601,-189.3521 -0.2194,-419.25208 l 0.2558,-418 67,-0.5 67,-0.5 0.5,-46 0.5,-46 95.5,0 95.5,0 0.5,46 0.5,46 69,0.5 69,0.5 0,419 0,418.99998 -232.2806,0.2521 c -185.2999,0.2012 -232.3767,0 -232.7558,-1 z m 371.0364,-255.2521 0,-161.99998 -45.5,0 -45.5,0 -0.2601,45.75 c -0.2175,38.26382 -0.4875,45.75 -1.65,45.75 -1.3239,0 -11.5812,-4.82332 -52.0899,-24.4945 -9.9,-4.80747 -23.85,-11.56167 -31,-15.00932 -42.1936,-20.34533 -58.2203,-28.38972 -77.375,-38.83745 -11.7563,-6.4123 -21.9938,-11.65873 -22.75,-11.65873 -1.161,0 -1.375,25.03729 -1.375,160.83338 0,88.4583 0.3016,161.1349 0.6702,161.5035 0.3686,0.3686 62.8061,0.5561 138.75,0.4166 l 138.0798,-0.2535 0,-162 z m -186,-186.49998 0,-22.5 -23,-0.5 -23,-0.5 0,-116 0,-116 93.5,0 93.5,0 0,116 0,116 -19.25,0.27159 c -12.6349,0.17827 -19.25,0.63328 -19.25,1.32411 0,0.57888 8.7801,5.29156 19.5113,10.47262 10.7313,5.18106 28.9272,14.59771 40.4354,20.92589 11.5083,6.32819 21.6295,11.50579 22.4917,11.50579 1.4181,0 1.5435,-15.38418 1.3146,-161.25 l -0.253,-161.25 -138.5,0 -138.5,0 -0.2568,161 c -0.1412,88.55 -0.041,161.56709 0.2225,162.26021 0.3778,0.99333 10.0678,1.2051 45.7568,1 l 45.2775,-0.26021 0,-22.5 z m 91.5,-24.03773 c 0,-0.90067 -20.0826,-11.02205 -50.5,-25.45137 -4.95,-2.34816 -15.0121,-7.24873 -22.3602,-10.89014 -7.3481,-3.64142 -14.2106,-6.62076 -15.25,-6.62076 -1.794,0 -1.8898,1.08121 -1.8898,21.33333 0,11.73334 0.3,21.63334 0.6667,22 1.1564,1.15648 89.3333,0.79022 89.3333,-0.37106 z"
         id="path5076"
         inkscape:connector-curvature="0" />
      <path
         style="fill:#e5576a"
         d="m 1025.1429,873.14792 0,-418.5 66.3,0 c 50.2333,0 66.5908,-0.2908 67.5,-1.2 0.898,-0.89801 1.2,-12.6 1.2,-46.5 l 0,-45.3 95,0 95,0 0,45.3 c 0,33.9 0.302,45.60199 1.2,46.5 0.9099,0.90991 17.7111,1.2 69.5,1.2 l 68.3,0 0,418.5 0,418.49998 -232,0 -232,0 0,-418.49998 z m 370.8,325.29998 c 1.7449,-1.7449 1.7449,-322.85504 0,-324.59998 -0.9333,-0.93333 -0.9333,-1.46667 0,-2.4 1.7449,-1.74492 1.7449,-321.85508 0,-323.6 -1.7438,-1.74376 -275.8563,-1.74376 -277.6,0 -1.745,1.74494 -1.745,322.85506 0,324.6 0.9333,0.93333 0.9333,1.46667 0,2.4 -1.7449,1.74492 -1.7449,321.85508 0,323.59998 1.7437,1.7438 275.8562,1.7438 277.6,0 z m -162.8,-266.73065 c -38.225,-18.53826 -79.3851,-39.07519 -91.4669,-45.63763 l -21.967,-11.9317 44.3772,-0.26052 c 30.7355,-0.18043 44.789,-0.60232 45.7169,-1.37244 1.045,-0.86726 1.3398,-5.92376 1.3398,-22.9794 l 0,-21.86746 45.75,-0.26009 c 38.1839,-0.21708 45.75,-0.48911 45.75,-1.64493 0,-1.7293 -87.1706,-44.21317 -90,-43.86281 -1.9217,0.23795 -2.0106,1.09913 -2.2695,21.99765 l -0.2695,21.75 -22.9805,0 -22.9805,0 0,-115.5 0,-115.5 93,0 93,0 0,115.47886 0,115.47886 -19.6674,0.27114 c -14.8979,0.20539 -19.7708,0.58155 -20.0934,1.55111 -0.2761,0.82977 6.2018,4.46155 18.4175,10.32559 10.3638,4.9751 29.3228,14.74911 42.1312,21.72004 l 23.2879,12.6744 -44.424,0.26022 c -35.4957,0.20791 -44.6457,0.52748 -45.5275,1.59005 -0.7601,0.91582 -1.1848,15.35421 -1.364,46.37741 l -0.2603,45.04757 -69.5,-33.70592 z"
         id="path5074"
         inkscape:connector-curvature="0" />
      <path
         style="fill:#e03950"
         d="m 1025.6065,1290.4001 c -0.2613,-0.6887 -0.3601,-188.9022 -0.2194,-418.25218 l 0.2558,-417 67,-0.5 67,-0.5 0.5,-46 0.5,-46 94.5,0 94.5,0 0.5,46 0.5,46 69,0.5 69,0.5 0,418 0,417.99998 -231.2806,0.2522 c -184.4999,0.2011 -231.3767,-10e-4 -231.7558,-1 z m 371.0364,-417.25218 0,-326 -139.5,0 -139.5,0 -0.2547,325 c -0.1401,178.74998 -0.041,325.56408 0.2199,326.25348 0.378,0.9981 28.8561,1.2019 139.7547,1 l 139.2801,-0.2535 0,-325.99998 z m -162.8906,58.43371 c -63.0947,-30.63349 -111.4871,-55.43121 -111.573,-57.17331 -0.02,-0.40678 19.8761,-0.85678 44.2136,-1 l 44.25,-0.2604 0.2688,-22.75 0.2687,-22.75 46.5546,0 c 42.7378,0 46.528,-0.13535 46.2312,-1.65098 -0.4022,-2.0536 -90.232,-45.7899 -92.3659,-44.97105 -1.2156,0.46646 -1.4574,4.21812 -1.4574,22.60942 l 0,22.05016 -22.75,-0.26878 -22.75,-0.26877 0,-115 0,-115 92.5,0 92.5,0 0,115 0,115 -20.25,0.27071 c -17.5257,0.23428 -20.25,0.47966 -20.25,1.82396 0,1.03378 7.246,5.06141 21.6662,12.04287 18.9526,9.17586 43.1554,21.93725 57.3338,30.23036 l 4.5,2.6321 -44.5,0.5 -44.5,0.5 -0.2601,45.75 c -0.1431,25.1625 -0.5931,45.72653 -1,45.69783 -0.407,-0.0287 -31.2907,-14.88504 -68.6305,-33.01412 z"
         id="path5072"
         inkscape:connector-curvature="0" />
      <path
         style="fill:#de243e"
         d="m 1026.1429,873.14792 0,-417.5 66.3,0 c 50.2333,0 66.5908,-0.2908 67.5,-1.2 0.898,-0.89801 1.2,-12.6 1.2,-46.5 l 0,-45.3 94,0 94,0 0,45.3 c 0,33.9 0.302,45.60199 1.2,46.5 0.9099,0.90991 17.7111,1.2 69.5,1.2 l 68.3,0 0,417.5 0,417.49998 -231,0 -231,0 0,-417.49998 z m 370.8752,326.15028 c 1.6042,-1.9328 1.6041,-650.36776 0,-652.3006 -1.6697,-2.0119 -278.0808,-2.01188 -279.7505,2e-5 -1.6041,1.93285 -1.6041,650.36778 0,652.30058 1.6698,2.0119 278.0808,2.0119 279.7505,0 z M 1233.1429,930.71841 c -37.125,-18.03788 -76.9341,-37.92037 -88.4645,-44.18331 l -20.9646,-11.38718 42.8752,-0.26086 c 29.6244,-0.18024 43.2891,-0.6044 44.2145,-1.37244 1.0444,-0.86682 1.3394,-5.92679 1.3394,-22.97916 l 0,-21.86757 46.25,-0.25998 c 44.9051,-0.25243 46.25,-0.31601 46.25,-2.18649 0,-2.88853 -91.8034,-47.39655 -94.0004,-45.57318 -1.2472,1.03512 -1.4996,4.84224 -1.4996,22.62212 l 0,21.37756 -22,0 -22,0 0,-114.5 0,-114.5 92,0 92,0 0,114.47929 0,114.4793 -20.237,0.2707 c -18.4842,0.24726 -20.2666,0.42486 -20.5791,2.05048 -0.2732,1.42184 3.4448,3.60821 18.487,10.87131 10.356,5.00034 28.8514,14.54945 41.1009,21.22023 l 22.2719,12.12869 -42.6825,0.26086 c -29.483,0.18019 -43.0967,0.60461 -44.0218,1.37244 -1.0828,0.89862 -1.3394,9.70986 -1.3394,45.98914 0,24.68266 -0.3375,44.84755 -0.75,44.81087 -0.4125,-0.0367 -31.125,-14.82494 -68.25,-32.86282 z"
         id="path5070"
         inkscape:connector-curvature="0" />
    </g>
  </g>
</svg>
