<?xml version="1.0" encoding="UTF-8" standalone="no"?>
<!-- Created with Inkscape (http://www.inkscape.org/) -->
<svg id="svg3438" xmlns:rdf="http://www.w3.org/1999/02/22-rdf-syntax-ns#" xmlns="http://www.w3.org/2000/svg" height="64" width="64" version="1.1" xmlns:cc="http://creativecommons.org/ns#" xmlns:dc="http://purl.org/dc/elements/1.1/" viewBox="0 0 64 64">
	<metadata id="metadata3443">
		<rdf:RDF>
			<cc:Work rdf:about="">
				<dc:format>image/svg+xml</dc:format>
				<dc:type rdf:resource="http://purl.org/dc/dcmitype/StillImage"/>
				<dc:title/>
			</cc:Work>
		</rdf:RDF>
	</metadata>
	<g id="layer1" transform="translate(0 -988.36)">
		<g id="g3486" transform="matrix(.085998 0 0 .085998 -.00033357 988.36)">
			<path id="path3502" fill="#eaeef0" d="m.0038788 372.1v-372.1h372.1 372.1v372.1 372.1h-372.1-372.1v-372.1z"/>
			<path id="path3500" fill="#e7ecee" d="m.0038788 372.1v-372.1h372.1 372.1v372.1 372.1h-372.1-372.1v-372.1zm384.57 137.34c48.597-4.8077 89.814-33.238 111.14-76.656 26.048-53.045 15.556-116.27-26.228-158.05-49.54-49.54-127.12-54.02-182.76-10.553-6.5419 5.1104-18.697 17.397-23.723 23.978-23.876 31.27-33.204 69.773-26.409 109.01 3.1271 18.06 10.119 35.177 21.076 51.6 27.955 41.9 77.45 65.56 126.91 60.667zm-28.085-32.242c-24.368-4.0263-44.6-14.59-61.202-31.957-11.01-11.517-19.222-25.225-24.157-40.327-3.83-11.72-4.7347-17.99-4.7347-32.814s.90468-21.094 4.7347-32.814c5.3534-16.382 13.472-29.486 26.078-42.092 15.402-15.402 31.849-24.345 53.697-29.199 9.5082-2.1124 31.365-2.2898 41.028-.33305 21.665 4.3874 39.508 13.953 55.088 29.533 15.583 15.583 25.166 33.462 29.527 55.088 1.8008 8.9295 1.8008 30.708 0 39.638-4.3613 21.626-13.944 39.505-29.527 55.088-15.303 15.303-32.298 24.571-53.467 29.158-8.5187 1.8459-28.737 2.4098-37.065 1.0337z"/>
			<path id="path3498" fill="#d7e4ea" d="m.0038788 372.1v-372.1h372.1 372.1v372.1 372.1h-372.1-372.1v-372.1zm395.56 136.64c63.085-10.997 110.41-63.609 114.57-127.36 4.5508-69.785-42.75-131.37-111.53-145.22-11.096-2.2334-31.387-2.7384-43.912-1.093-38.773 5.0939-72.697 25.484-95.596 57.458-5.6098 7.833-13.886 23.696-17.008 32.601-7.6453 21.803-9.7424 43.353-6.5847 67.662 2.9289 22.548 11.278 42.95 25.454 62.201 5.8122 7.8927 20.383 22.463 28.275 28.275 20.249 14.912 43.782 24.07 69.075 26.881 9.1437 1.0162 27.304.33268 37.257-1.4024zm-35.44-31.71c-13.348-1.9872-24.754-5.4769-35.283-10.796-28.964-14.63-48.885-40.517-56.105-72.906-2.2823-10.239-2.2823-32.224 0-42.463 2.1276-9.5449 4.7475-17.003 8.9328-25.43 14.545-29.287 40.632-49.464 73.362-56.743 9.4056-2.0918 31.304-2.2511 40.955-.29785 42.039 8.5083 74.076 40.147 83.511 82.471 2.2658 10.165 2.2816 32.231.0305 42.317-9.3354 41.824-40.735 73.332-81.971 82.254-6.3591 1.3759-27.972 2.4058-33.431 1.5931z"/>
			<path id="path3496" fill="#c8dae4" d="m.0038788 372.1v-372.1h372.1 372.1v372.1 372.1h-372.1-372.1v-372.1zm384.57 138.79c30.416-3.013 58.227-15.176 80.941-35.399 7.8446-6.9844 18.301-19.79 24.969-30.578 21.563-34.888 26.43-78.781 13.061-117.81-20.699-60.428-80.121-99.114-143.06-93.138-35.02 3.3252-64.171 17.289-88.302 42.299-19.99 20.717-32.812 46.544-37.176 74.879-1.6722 10.858-1.6784 29.669-.0142 42.961 3.1137 24.868 14.849 49.949 33.059 70.656 28.548 32.461 73.772 50.365 116.52 46.131zm-24.451-34.587c-14.008-2.0854-25.117-5.5897-36.548-11.529-27.526-14.302-47.179-40.252-54.108-71.446-2.1228-9.5567-2.297-31.373-.32829-41.101 3.9922-19.725 13.441-37.812 27.292-52.243 15.112-15.745 33.011-25.765 54.599-30.566 9.4056-2.0918 31.304-2.2511 40.955-.29785 32.081 6.4929 59.508 27.534 74.073 56.826 3.9735 7.9912 6.6347 15.604 8.711 24.918 2.2658 10.165 2.2816 32.231.0305 42.317-7.1989 32.252-27.506 58.423-56.534 72.857-14.637 7.2781-26.034 9.9799-43.606 10.337-6.7952.1382-13.336.1052-14.535-.0733z"/>
			<path id="path3494" fill="#a8cee3" d="m.0038788 372.1v-372.1h372.1 372.1v372.1 372.1h-372.1-372.1v-372.1zm394.28 138.52c46.257-7.8526 82.934-35.601 103.57-78.355 30.329-62.845 9.1613-138.47-49.531-176.95-13.787-9.04-31.315-16.337-48.041-19.999-6.6567-1.4576-9.4628-1.6315-26.346-1.6323-20.938-.00073-25.457.55369-40.93 5.0236-50.318 14.536-88.222 56.795-97.908 109.16-1.6376 8.8524-2.2159 30.685-1.0664 40.264.50093 4.1745 1.0069 9.5523 1.1243 11.951.50599 10.333 9.2943 32.54 18.839 47.603 6.56 10.353 18.575 23.87 28.732 32.325 20.77 17.288 46.308 28.174 74.13 31.597 7.5679.93128 29.551.35311 37.431-.98443zm-35.614-35.371c-44.582-6.0639-79.897-39.47-88.782-83.982-1.791-8.9729-1.791-29.362 0-38.335 8.3749-41.958 39.557-73.713 81.182-82.673 10.871-2.3399 31.134-2.3591 41.894-.0398 41.889 9.0294 72.977 40.627 81.377 82.713 1.791 8.9729 1.791 29.362 0 38.335-1.9094 9.5658-4.5137 17.312-8.8278 26.255-14.08 29.189-41.696 50.395-73.83 56.693-7.2826 1.4274-25.847 2.009-33.014 1.0341z"/>
			<path id="path3492" fill="#b0cad9" d="m.0038788 372.1v-372.1h372.1 372.1v372.1 372.1h-372.1-372.1v-372.1zm394.28 138.52c46.257-7.8526 82.934-35.601 103.57-78.355 30.329-62.845 9.1613-138.47-49.531-176.95-13.787-9.04-31.315-16.337-48.041-19.999-6.6567-1.4576-9.4628-1.6315-26.346-1.6323-20.938-.00073-25.457.55369-40.93 5.0236-50.318 14.536-88.222 56.795-97.908 109.16-1.6376 8.8524-2.2159 30.685-1.0664 40.264.50093 4.1745 1.0069 9.5523 1.1243 11.951.50599 10.333 9.2943 32.54 18.839 47.603 6.56 10.353 18.575 23.87 28.732 32.325 20.77 17.288 46.308 28.174 74.13 31.597 7.5679.93128 29.551.35311 37.431-.98443z"/>
			<path id="path3490" fill="#92b5cb" d="m360.73 743.3c.22557-.49965 2.9968-7.2858 6.1584-15.08 3.1615-7.7945 6.6286-16.134 7.7045-18.532 2.6311-5.8649 9.1796-22.064 9.8751-24.428.30717-1.0441 21.222-50.78 46.478-110.52 40.923-96.804 46.313-109.13 49.536-113.29 21.399-27.627 31.887-56.887 31.887-88.961 0-65.024-43.475-120.62-106.9-136.69-12.615-3.1975-34.938-4.1334-50.59-2.1209-63.692 8.1896-113.02 57.52-121.21 121.21-1.6481 12.818-1.3728 27.673.7468 40.298.27861 1.6594.11656 2.3546-.54483 2.3371-.51776-.0137-26.451-44.235-57.629-98.269-61.7-106.94-60.35-104.65-121.01-205.15-55.374-91.749-53.783-89.081-53.783-90.168.0004-.5235-.3266-1.1538-.72636-1.4009-.39972-.2470-.72676-.9204-.72676-1.4964 0-.91047 48.603-1.0473 372.1-1.0473h372.1v372.1 372.1h-191.94c-153.29 0-191.86-.18293-191.53-.90846z"/>
			<path id="path3488" fill="#6694b0" d="m199.32 336.68c-70.36-121.84-83.54-144.59-84.99-146.67-.83-1.18-26.439-43.68-56.919-94.443-30.48-50.765-55.866-92.815-56.413-93.446-.54668-.6315-.99412-1.3674-.99412-1.6357 0-.26832 167.45-.48785 372.1-.48785h372.1v116.33 116.33l-194.23-.0985c-176.22-.0894-194.83.0108-200.77 1.08-23.786 4.2856-43.79 12.974-62.502 27.146-10.946 8.2906-24.663 23.277-33.047 36.104-16.517 25.272-24.72 60.657-21.033 90.723.43291 3.5298.64599 6.559.4735 6.7315-.17249.17249-15.378-25.772-33.789-57.655z"/>
		</g>
	</g>
</svg>
