<?xml version="1.0" encoding="UTF-8" standalone="no"?>
<!-- Created with Inkscape (http://www.inkscape.org/) -->

<svg
   xmlns:dc="http://purl.org/dc/elements/1.1/"
   xmlns:cc="http://creativecommons.org/ns#"
   xmlns:rdf="http://www.w3.org/1999/02/22-rdf-syntax-ns#"
   xmlns:svg="http://www.w3.org/2000/svg"
   xmlns="http://www.w3.org/2000/svg"
   xmlns:sodipodi="http://sodipodi.sourceforge.net/DTD/sodipodi-0.dtd"
   xmlns:inkscape="http://www.inkscape.org/namespaces/inkscape"
   width="64"
   height="64"
   viewBox="0 0 64.000001 64.000001"
   id="svg4481"
   version="1.1"
   inkscape:version="0.91 r13725"
   sodipodi:docname="steam.svg">
  <defs
     id="defs4483" />
  <sodipodi:namedview
     id="base"
     pagecolor="#ffffff"
     bordercolor="#666666"
     borderopacity="1.0"
     inkscape:pageopacity="0.0"
     inkscape:pageshadow="2"
     inkscape:zoom="11.2"
     inkscape:cx="34.50282"
     inkscape:cy="36.010756"
     inkscape:document-units="px"
     inkscape:current-layer="layer1"
     showgrid="false"
     units="px"
     inkscape:window-width="1920"
     inkscape:window-height="1080"
     inkscape:window-x="0"
     inkscape:window-y="0"
     inkscape:window-maximized="1" />
  <metadata
     id="metadata4486">
    <rdf:RDF>
      <cc:Work
         rdf:about="">
        <dc:format>image/svg+xml</dc:format>
        <dc:type
           rdf:resource="http://purl.org/dc/dcmitype/StillImage" />
        <dc:title></dc:title>
      </cc:Work>
    </rdf:RDF>
  </metadata>
  <g
     inkscape:label="Layer 1"
     inkscape:groupmode="layer"
     id="layer1"
     transform="translate(0,-988.36216)">
    <g
       id="g4500"
       transform="matrix(0.1,0,0,0.1,0,947.12594)">
      <path
         style="fill:#fdfdfd"
         d="m 0,732.36215 0,-320 320,0 320,0 0,320 0,320.00005 -320,0 -320,0 0,-320.00005 z"
         id="path4516"
         inkscape:connector-curvature="0" />
      <path
         style="fill:#d2d1cf"
         d="m 0,732.36215 0,-320 320,0 320,0 0,320 0,320.00005 -320,0 -320,0 0,-320.00005 z m 289.59705,186.14238 c 37.60691,-5.22155 64.78649,-33.14224 69.11006,-70.99449 0.8236,-7.2105 1.69474,-9.83255 3.98592,-11.99726 C 364.30561,833.9892 387,817.55502 413.125,798.99239 l 47.5,-33.75024 10.18549,-0.83366 c 50.21418,-4.10989 89.87237,-39.0204 100.00912,-88.03653 1.45956,-7.05766 1.83015,-13.91831 1.39742,-25.86984 -0.50863,-14.04741 -1.13433,-17.88401 -4.58919,-28.13997 -6.23723,-18.51554 -12.67525,-28.79741 -27.00284,-43.125 -14.24897,-14.24898 -24.4137,-20.63864 -43.125,-27.10885 -11.63414,-4.02299 -12.30603,-4.1056 -33.125,-4.0725 -19.93134,0.0317 -21.90933,0.25296 -31.875,3.56579 -18.64416,6.19777 -31.75908,14.05285 -44.64369,26.73897 -18.48633,18.20154 -29.64645,42.77309 -32.32273,71.16591 -0.83759,8.88603 -1.05354,9.33118 -12.73417,26.25 -6.53516,9.46588 -20.90245,30.42943 -31.9273,46.58568 -27.64476,40.51174 -26.14817,38.75 -32.91788,38.75 -8.72932,0 -22.69679,3.57395 -32.90318,8.41916 -11.06074,5.25079 -3.67325,7.21716 -58.80654,-15.65294 -21.65322,-8.98208 -56.9849,-23.63413 -78.5148,-32.56012 -24.463669,-10.14228 -39.312629,-15.68561 -39.591455,-14.78009 -0.907512,2.9473 -1.573801,91.81024 -0.699001,93.2257 0.966832,1.56436 1.523656,1.80266 78.185746,33.46032 27.5,11.35613 51.46051,21.40266 53.24558,22.32559 2.3962,1.23893 4.15678,4.17648 6.72746,11.22483 11.12844,30.51224 36.8333,49.21612 72.74901,52.93512 0.80962,0.0839 5.87212,-0.4585 11.25,-1.2052 z m -23.01873,-16.78502 c -4.28817,-0.93165 -11.31942,-3.54893 -15.625,-5.81621 -12.9119,-6.79927 -28.43903,-24.05544 -24.86292,-27.63155 0.90419,-0.90419 6.00731,0.66108 16.66886,5.11278 22.58911,9.43201 25.389,10.23758 35.2104,10.13075 15.16125,-0.16494 27.93919,-6.6314 35.86376,-18.14938 5.90047,-8.57604 7.29952,-13.44432 7.36172,-25.6166 0.0488,-9.55191 -0.37024,-11.58854 -3.7941,-18.44031 -6.51958,-13.04681 -11.22558,-16.26223 -43.45928,-29.69399 -11.36101,-4.73412 -15.51775,-8.17686 -12.96039,-10.73422 3.75319,-3.75319 24.75648,-4.64773 35.35425,-1.50574 25.4637,7.54939 42.5018,27.16261 46.19057,53.17179 4.4585,31.4365 -17.90074,62.49026 -49.87369,69.26738 -10.08561,2.13779 -15.89556,2.11669 -26.07418,-0.0947 z M 444.375,727.52512 c -25.75809,-7.41462 -45.96778,-28.59088 -52.63756,-55.15504 -3.19254,-12.71514 -1.93253,-30.37122 3.07815,-43.13293 7.35912,-18.74297 20.4705,-32.54956 39.07245,-41.1442 21.39584,-9.88549 43.42498,-9.08568 66.14006,2.40133 9.32516,4.71573 24.85475,20.43663 29.62787,29.99287 7.06069,14.13616 8.45377,20.02504 8.42746,35.625 -0.0208,12.30409 -0.49206,15.66727 -3.27148,23.34519 -11.26155,31.10907 -38.65386,50.55381 -70.88113,50.31576 -7.43661,-0.055 -14.92946,-0.91625 -19.55582,-2.24798 z m 39.42928,-21.32499 c 25.16376,-9.48215 39.84854,-37.73657 33.17876,-63.83798 -10.43996,-40.85559 -61.05819,-54.83492 -90.81308,-25.08004 -29.29851,29.29851 -16.1064,79.4872 23.83004,90.66009 8.9963,2.51686 24.64154,1.7106 33.80428,-1.74207 z"
         id="path4514"
         inkscape:connector-curvature="0" />
      <path
         style="fill:#b1afad"
         d="m 0,732.36215 0,-320 320,0 320,0 0,320 0,320.00005 -320,0 -320,0 0,-320.00005 z M 305,916.3454 c 30.15435,-9.89827 51.24122,-36.30418 54.95506,-68.81709 0.57854,-5.06485 1.8097,-9.91354 2.73591,-10.77485 0.92622,-0.86131 23.34028,-17.01581 49.80903,-35.89888 l 48.125,-34.33285 10.18549,-0.84845 c 21.77263,-1.81364 44.4044,-10.58284 61.17182,-23.70245 36.80585,-28.7986 51.26249,-78.70068 35.74515,-123.38678 -10.45216,-30.09962 -36.20532,-55.64799 -67.10246,-66.56882 -20.63873,-7.29493 -48.11861,-7.92493 -68.125,-1.56185 -29.95684,9.52783 -54.0132,30.18375 -67.02157,57.54783 -6.37995,13.4207 -8.81263,22.1719 -10.59413,38.11094 -1.08494,9.70695 -1.98172,12.83376 -4.91195,17.12639 -1.97158,2.88826 -17.72084,25.81013 -34.99837,50.9375 l -31.41371,45.68611 -5.59588,0 c -8.63604,0 -22.66255,3.55311 -32.55423,8.24644 -4.93066,2.33946 -9.52445,4.25356 -10.20842,4.25356 -1.14528,0 -20.40217,-7.90033 -128.29538,-52.63441 -21.295255,-8.82931 -39.108,-15.64544 -39.58388,-15.14695 -0.475879,0.4985 -1.050665,22.12247 -1.2773,48.05327 -0.355089,40.62803 -0.153374,47.38379 1.458877,48.86003 1.029019,0.94221 26.902193,11.99121 57.495943,24.55332 84.76011,34.80338 75.76167,30.43288 78.23814,37.99993 8.69862,26.57937 28.31591,45.28816 56.13686,53.5371 10.58944,3.13977 34.24211,2.49744 45.625,-1.23904 z m -38.42168,-15.87589 c -10.92614,-2.3738 -22.18817,-8.7283 -30.63186,-17.28377 -6.29482,-6.37816 -9.83045,-12.35627 -8.24535,-13.94137 0.27575,-0.27575 5.26518,1.48922 11.08763,3.92213 23.46016,9.80287 29.69482,11.69565 38.52457,11.69565 17.88761,0 33.14929,-9.26756 41.74151,-25.34725 2.43612,-4.55901 2.82018,-7.15026 2.82018,-19.02775 0,-13.42441 -0.10587,-13.94239 -4.47277,-21.875 -5.73814,-10.42359 -13.56867,-15.91976 -35.52723,-24.93625 -8.9375,-3.66986 -17.25189,-7.53854 -18.47641,-8.59706 -4.09805,-3.54249 0.0358,-5.48317 13.13961,-6.16858 13.39566,-0.70067 21.8892,1.18139 33.76485,7.48189 21.39362,11.35016 34.72237,38.60626 30.93142,63.252 -3.77237,24.52499 -23.90546,45.69149 -48.39721,50.8814 -10.27039,2.17634 -16.04037,2.16402 -26.25894,-0.056 z M 444.375,726.27891 c -31.31178,-8.99749 -53.125,-38.06471 -53.125,-70.79176 0,-20.00824 6.70873,-36.00602 21.356,-50.92608 15.5601,-15.84986 35.01004,-23.35598 56.57649,-21.83402 36.92757,2.60601 65.78406,31.92034 67.93228,69.0101 0.82117,14.17751 -1.55415,24.88801 -8.46581,38.17311 -12.68647,24.385 -36.85062,38.81705 -64.65099,38.61284 -7.4867,-0.055 -14.99126,-0.91326 -19.62297,-2.24419 z m 30.67544,-16.42632 c 14.95379,-2.83593 30.72122,-14.2016 37.83565,-27.27315 12.34423,-22.68042 8.16407,-49.29668 -10.54484,-67.14194 -21.60599,-20.60864 -54.4242,-20.51545 -76.1592,0.21622 -22.92291,21.86477 -22.929,57.79629 -0.0135,79.65398 13.86867,13.22849 30.19986,18.08785 48.88187,14.54489 z"
         id="path4512"
         inkscape:connector-curvature="0" />
      <path
         style="fill:#93908c"
         d="m 0,732.36215 0,-320 320,0 320,0 0,320 0,320.00005 -320,0 -320,0 0,-320.00005 z m 296.83914,186.8607 c 17.14792,-3.63239 36.43372,-15.40306 46.42485,-28.3344 9.88707,-12.79669 15.04335,-25.40965 17.26326,-42.22839 l 1.40872,-10.67291 42.46952,-30.4134 c 61.2114,-43.83489 56.59792,-41.05085 69.63918,-42.02416 45.22603,-3.37534 82.84789,-34.59598 96.78417,-80.3167 2.99786,-9.83509 3.35165,-12.97488 3.35165,-29.74574 0,-16.77086 -0.35379,-19.91065 -3.35165,-29.74574 -6.16463,-20.22427 -15.47057,-35.45162 -30.37697,-49.70595 -14.41177,-13.78133 -27.52185,-21.37837 -46.33113,-26.848 -65.75453,-19.12103 -134.9214,28.79019 -139.92504,96.92469 l -0.78027,10.625 -24.42019,35.625 c -13.4311,19.59375 -29.10088,42.45355 -34.82173,50.79955 -5.72085,8.346 -11.29624,15.51787 -12.38976,15.9375 -1.09353,0.41962 -4.44578,0.76295 -7.44946,0.76295 -8.38574,0 -17.79122,2.36112 -27.94783,7.01594 -5.0812,2.32873 -10.18065,4.23406 -11.33212,4.23406 -1.84164,0 -19.35469,-6.96072 -51.92934,-20.6398 C 122.64907,725.07668 69.331821,703.55746 67.675666,703.8762 c -1.852006,0.35641 -2.08236,5.08352 -2.377827,48.79555 -0.304673,45.07405 -0.175795,48.49479 1.875,49.76672 1.211188,0.7512 31.68554,13.57405 67.720781,28.49522 l 65.51862,27.12937 2.11291,6.21205 c 5.32261,15.64865 15.73931,30.75009 27.04527,39.20842 20.19155,15.10591 43.98145,20.6722 67.26872,15.73932 z M 265.625,899.35559 c -9.07065,-2.24073 -16.64244,-5.93658 -23.75,-11.59251 -6.46486,-5.14452 -13.70595,-14.36604 -12.93805,-16.47661 0.24092,-0.66218 8.57249,2.09582 18.51459,6.12889 20.3359,8.2494 27.88885,9.69285 39.13805,7.47971 9.48633,-1.86632 14.8326,-4.52509 22.2515,-11.066 16.0817,-14.17847 19.59496,-38.59441 8.27591,-57.51476 -5.52298,-9.23194 -12.84909,-14.15433 -34.72695,-23.33296 -10.36356,-4.34793 -19.18159,-8.24406 -19.59561,-8.65809 -4.12518,-4.12518 22.11136,-6.10766 34.30473,-2.59212 42.93942,12.3801 58.21159,66.71835 28.00147,99.6289 -14.69403,16.0075 -38.43945,23.19215 -59.47564,17.99555 z M 453.0337,727.3588 c -21.75694,-2.99989 -42.72031,-18.31594 -53.03394,-38.74711 -5.6177,-11.12863 -7.72703,-20.17097 -7.72703,-33.12454 0,-20.77416 6.29836,-35.75119 21.33482,-50.7326 14.73373,-14.6798 29.98485,-21.09948 50.19233,-21.12756 20.86358,-0.029 36.65292,6.47276 51.30772,21.12756 14.6548,14.6548 21.15656,30.44414 21.12756,51.30772 -0.0176,12.68729 -2.09618,21.24023 -8.13111,33.45835 -12.97312,26.26499 -44.34049,42.07528 -75.07035,37.83818 z M 472.5,711.07627 c 11.69575,-1.8238 24.45035,-8.4447 32.34149,-16.78841 26.24699,-27.75232 18.29696,-72.23572 -15.93336,-89.15326 -9.27918,-4.58601 -9.6026,-4.64745 -24.4683,-4.64745 -14.35679,0 -15.46189,0.18809 -23.51299,4.00181 -11.7341,5.55834 -21.14869,14.81919 -26.90439,26.46506 -4.58601,9.27918 -4.64745,9.6026 -4.64745,24.4683 0,14.35679 0.18809,15.46189 4.00181,23.51299 7.56288,15.96586 22.40725,27.8312 39.45152,31.5342 9.80273,2.12973 9.88827,2.13237 19.67167,0.60676 z"
         id="path4510"
         inkscape:connector-curvature="0" />
      <path
         style="fill:#84817d"
         d="m 0,732.36215 0,-320 320,0 320,0 0,320 0,320.00005 -320,0 -320,0 0,-320.00005 z m 298.125,187.3358 c 3.4375,-0.72979 11.51385,-3.84597 17.94745,-6.92486 15.43614,-7.38718 28.50005,-19.98416 36.07531,-34.78594 5.80084,-11.33459 7.41585,-16.60363 9.03041,-29.46206 0.74843,-5.96057 1.90952,-9.77575 3.41538,-11.22254 1.2548,-1.20558 23.3752,-17.25959 49.15645,-35.67558 l 46.875,-33.48362 13.12574,-1.5074 c 16.19742,-1.86016 34.13977,-7.64249 46.90971,-15.11772 11.12044,-6.50965 26.12465,-20.32954 33.8968,-31.22123 23.12595,-32.40811 27.18502,-75.63411 10.45479,-111.33549 -18.63609,-39.76837 -57.01049,-64.30667 -100.53204,-64.28466 -23.44536,0.0113 -42.50879,5.69982 -61.33479,18.3005 -29.35064,19.64506 -46.63057,49.17709 -50.06902,85.56974 l -0.87962,9.30995 -27.55742,40.06505 c -15.15658,22.03579 -30.72476,44.56506 -34.59596,50.06506 l -7.03857,10 -8.68981,0.79349 c -11.51159,1.05115 -18.00497,2.85025 -29.48397,8.16897 l -9.54417,4.42224 -83.50585,-34.54744 C 105.8526,717.82331 67.538096,702.55973 66.637481,702.90532 65.348236,703.40006 65,710.14581 65,734.62527 c 0,17.10038 -0.339489,38.63367 -0.75442,47.85174 -0.589575,13.09795 -0.384726,17.2319 0.9375,18.9192 0.930556,1.18748 31.22317,14.32368 67.31692,29.19155 36.09375,14.86788 66.23709,27.53025 66.98519,28.1386 0.74811,0.60835 2.06855,3.5034 2.93431,6.43344 6.86011,23.21692 28.22052,44.41971 53.17159,52.77924 12.98627,4.35087 27.49829,4.95098 42.53391,1.75891 z m -30.5515,-20.53042 c -4.42834,-0.96023 -11.03758,-3.20682 -14.6872,-4.99242 -7.68255,-3.75871 -19.63475,-14.23377 -22.44773,-19.67346 -2.39245,-4.6265 -3.35302,-4.85374 20.01003,4.73359 l 17.32359,7.10896 11.42641,-0.42853 c 9.56412,-0.35868 12.63765,-1.02323 18.85831,-4.07753 9.64534,-4.7358 17.42338,-12.6246 22.01329,-22.32679 3.18477,-6.73197 3.67796,-9.21944 3.67881,-18.55454 10e-4,-12.15271 -1.8769,-18.84736 -7.68978,-27.41211 -5.01408,-7.38778 -14.21368,-13.16835 -33.55923,-21.08699 -19.07494,-7.80786 -19.84536,-8.2502 -17.848,-10.24756 2.13674,-2.13674 19.77645,-2.90441 27.88936,-1.21374 27.63221,5.75837 47.59974,30.67284 47.67841,59.49074 0.0786,28.7838 -19.55943,52.63075 -48.36657,58.73276 -10.50856,2.22595 -13.80543,2.21884 -24.2797,-0.0524 z M 446.25,725.38849 c -25.05166,-6.59228 -45.90479,-28.03413 -51.86999,-53.33438 -5.65045,-23.96527 1.68834,-49.59651 19.22038,-67.12855 43.58593,-43.58595 117.45705,-15.60984 122.25419,46.2995 2.59486,33.48795 -20.83915,65.57759 -54.2429,74.27815 -8.92425,2.32448 -26.30664,2.26808 -35.36168,-0.11475 z m 31.63337,-14.89093 c 32.0889,-8.35809 50.31908,-40.34006 40.72253,-71.44123 -8.84611,-28.66914 -37.04919,-45.26094 -66.35688,-39.0376 -20.97828,4.45462 -38.88782,22.36416 -43.34245,43.34244 -8.72432,41.08571 28.79375,77.60276 68.9768,67.13639 z"
         id="path4508"
         inkscape:connector-curvature="0" />
      <path
         style="fill:#817d79"
         d="m 0,732.36215 0,-320 320,0 320,0 0,320 0,320.00005 -320,0 -320,0 0,-320.00005 z m 303.20924,186.17379 c 32.05486,-9.75015 53.78557,-35.62301 58.01554,-69.074 0.67984,-5.37636 1.5216,-10.23717 1.87053,-10.80177 0.34895,-0.5646 22.71713,-16.75941 49.70706,-35.98846 l 49.07263,-34.96192 10.18549,-0.81748 c 49.67207,-3.98662 89.32392,-38.43889 101.26211,-87.98352 2.82883,-11.7399 2.80596,-34.44049 -0.0472,-46.9348 -4.78842,-20.96862 -13.67157,-37.36212 -28.7736,-53.10057 -22.32905,-23.27002 -48.9161,-34.60907 -80.75175,-34.43963 -44.03208,0.23435 -82.29109,24.78847 -100.63316,64.58505 -5.6132,12.17887 -7.94414,20.76285 -9.81027,36.12748 l -1.57903,13.0009 -22.35069,32.41997 c -12.29289,17.83097 -27.77245,40.29496 -34.39903,49.91996 l -12.04832,17.5 -9.27725,0.78336 c -11.90904,1.00559 -18.41102,2.78273 -29.46374,8.0531 l -8.93648,4.26126 -81.68852,-33.90162 C 108.63483,718.53736 70.414689,703.0236 68.629864,702.70825 l -3.245135,-0.57339 -0.698106,48.4472 c -0.383958,26.64595 -0.402358,49.21789 -0.04089,50.15987 0.9517,2.4801 1.495195,2.72117 67.854267,30.09888 33.34375,13.75661 62.15395,25.71498 64.02265,26.57416 2.47606,1.13843 3.95541,3.29269 5.45395,7.94217 5.09865,15.8195 18.50794,33.35532 32.7194,42.78835 8.24156,5.47044 22.4306,11.22696 31.81019,12.90547 9.54925,1.70888 26.67444,0.5354 36.70305,-2.51502 z m -39.59365,-20.48562 c -3.16768,-0.87356 -8.79268,-3.20736 -12.5,-5.18622 C 243.84937,888.98559 230,875.94802 230,872.98624 c 0,-2.07091 -0.9082,-2.36048 19.2684,6.1434 17.58752,7.41266 26.45817,8.89626 38.35731,6.41522 14.93134,-3.11327 26.32131,-12.30611 33.16114,-26.76432 2.80429,-5.92778 3.19966,-8.3383 3.08299,-18.79659 -0.11938,-10.70297 -0.54758,-12.84264 -3.97017,-19.83976 -6.60103,-13.49513 -12.56167,-17.63636 -44.58717,-30.97748 -6.35938,-2.64917 -11.5625,-5.20377 -11.5625,-5.67688 0,-2.88965 18.04594,-4.472 27.82823,-2.4401 17.04343,3.54013 34.10097,16.0805 41.34337,30.39483 17.87789,35.33502 0.13334,76.75732 -37.13209,86.67993 -7.88739,2.10017 -24.42765,2.06204 -32.17392,-0.0741 z m 183.4406,-172.66816 c -18.65634,-4.51623 -37.64137,-19.54097 -46.12875,-36.50625 -24.38587,-48.74446 9.46111,-104.48164 63.44756,-104.48164 19.96847,0 35.84835,6.66594 50.3022,21.1155 10.35006,10.34699 16.65379,21.96044 19.6835,36.26324 2.35821,11.1327 2.3453,15.95729 -0.0745,27.82934 -5.64611,27.70129 -25.91895,48.82671 -53.61135,55.86601 -9.13355,2.32172 -23.82739,2.28404 -33.61869,-0.0862 z m 32.36868,-14.96001 c 24.4601,-6.36938 41.82513,-29.12942 41.82513,-54.81949 0,-15.44043 -4.58303,-27.22971 -15.02835,-38.65855 -29.97136,-32.79346 -85.64376,-19.27932 -96.78165,23.49316 -11.1862,42.95801 27.02688,81.17108 69.98488,69.98488 z"
         id="path4506"
         inkscape:connector-curvature="0" />
      <path
         style="fill:#73706b"
         d="m 0,732.36215 0,-320 320,0 320,0 0,320 0,320.00005 -320,0 -320,0 0,-320.00005 z m 293.75,188.66344 c 36.08944,-5.8528 64.48265,-36.64516 68.19929,-73.96192 l 0.83895,-8.42347 21.41838,-15.25156 c 11.7801,-8.38837 32.10588,-22.93048 45.16838,-32.31582 33.88149,-24.34366 31.9692,-23.29867 44.375,-24.24903 46.63967,-3.57292 86.29804,-37.17988 98.93259,-83.83664 3.86676,-14.27913 3.8633,-40.74491 -0.008,-55 -8.70456,-32.0591 -29.9493,-58.04056 -59.25498,-72.46644 -17.89601,-8.80941 -28.06645,-11.07189 -49.67043,-11.0495 -15.98945,0.0166 -19.41839,0.40963 -29.1023,3.33593 -35.01295,10.58025 -61.0103,33.89882 -74.16569,66.52361 -4.24024,10.51642 -7.98169,27.91131 -7.98169,37.11029 0,4.37461 -2.06634,7.99631 -16.48796,28.89876 -9.06839,13.14354 -24.33393,35.4286 -33.92342,49.52235 -9.58948,14.09375 -18.30866,26.32812 -19.37593,27.1875 -1.06729,0.85937 -4.80858,1.5625 -8.31398,1.5625 -8.12506,0 -19.09932,2.83426 -29.22655,7.54819 -4.37406,2.036 -8.94842,3.70181 -10.16525,3.70181 -1.21682,0 -38.86592,-15.1875 -83.66466,-33.75 -70.522183,-29.2211 -85.661819,-35.07329 -86.502938,-33.4375 -0.08838,0.17187 -0.33062,22.33875 -0.538316,49.25971 -0.343827,44.56592 -0.189584,49.11402 1.723188,50.8107 1.155448,1.02493 16.725816,7.89617 34.600816,15.26943 17.875,7.37326 42.34375,17.46523 54.375,22.42661 50.07329,20.64892 44.8536,17.9852 46.38466,23.67112 3.6693,13.62678 15.72229,31.17364 27.4891,40.0189 20.37175,15.31372 41.19183,20.73549 64.87624,16.89447 z m -29.71231,-23.10144 c -8.20179,-2.20813 -12.98924,-4.61366 -20.70425,-10.40324 -5.84414,-4.38561 -13.87707,-13.7818 -12.74774,-14.91113 0.30446,-0.30447 8.59411,2.71574 18.42144,6.71158 16.94629,6.89043 18.41587,7.26456 28.49286,7.25397 13.66204,-0.0144 22.41634,-3.28599 31.84069,-11.89931 17.19516,-15.71541 20.64217,-40.34885 8.31497,-59.42141 -6.03503,-9.33739 -13.93731,-14.68469 -33.90566,-22.94327 -8.59375,-3.55424 -16.73745,-7.0539 -18.09713,-7.77703 -2.46282,-1.30982 -2.46282,-1.3184 0,-2.28061 1.35968,-0.53121 7.86844,-1.00537 14.46394,-1.05369 24.10255,-0.17659 42.90291,11.10424 53.19289,31.91744 17.01729,34.42032 -1.16683,75.30549 -37.7284,84.82856 -9.03764,2.35401 -22.75409,2.3445 -31.54361,-0.0219 z M 452.20424,726.07114 c -21.43929,-3.61003 -41.4411,-18.49812 -51.27384,-38.165 -5.6587,-11.31822 -7.66226,-20.0187 -7.60942,-33.04399 0.079,-19.47118 6.87817,-35.53423 20.91558,-49.413 14.61525,-14.45009 29.65739,-20.59985 50.31887,-20.57216 6.08827,0.009 14.13782,0.83136 17.88789,1.82933 24.38189,6.48858 44.22393,26.33062 50.7125,50.7125 2.37432,8.92192 2.34078,27.5115 -0.0662,36.75295 -9.20123,35.32593 -44.56292,58.01547 -80.88527,51.89937 z M 488.934,707.07691 c 12.19214,-6.02567 21.00906,-14.84667 27.04299,-27.0555 4.59,-9.28723 4.64801,-9.59342 4.64801,-24.53426 0,-14.93544 -0.0595,-15.25015 -4.63878,-24.51557 -5.85618,-11.8492 -16.24788,-22.08901 -28.12672,-27.7156 -8.08685,-3.83048 -9.18752,-4.01883 -23.4845,-4.01883 -14.29698,0 -15.39765,0.18835 -23.4845,4.01883 -11.87884,5.62659 -22.27054,15.86639 -28.12673,27.7156 -4.5759,9.25869 -4.63877,9.59009 -4.63877,24.45074 0,14.35679 0.18809,15.46189 4.00181,23.51299 4.55346,9.61274 14.52934,20.84438 22.83935,25.71436 10.80064,6.32961 17.00531,7.79589 31.37339,7.41414 12.37969,-0.32892 13.80716,-0.64399 22.59445,-4.9869 z"
         id="path4504"
         inkscape:connector-curvature="0" />
      <path
         style="fill:#58544e"
         d="m 0,732.36215 0,-320 320,0 320,0 0,320 0,320.00005 -320,0 -320,0 0,-320.00005 z m 301.16684,187.94032 c 16.90591,-4.38161 35.03686,-16.69692 45.73528,-31.06532 9.00159,-12.0895 13.85693,-25.40746 16.2356,-44.53356 l 0.71929,-5.78358 49.25094,-35.15392 c 44.41749,-31.70395 49.73249,-35.15394 54.15776,-35.15394 8.07865,0 25.4129,-3.46033 34.67616,-6.92218 37.6368,-14.06556 64.17708,-44.61893 72.58338,-83.55853 2.77545,-12.85643 2.44274,-36.32598 -0.68843,-48.56095 -11.00245,-42.99192 -44.27515,-75.26439 -86.94117,-84.32763 -11.34676,-2.41031 -33.8575,-2.42006 -45.0413,-0.0195 -29.34928,6.2997 -55.50405,24.08936 -71.54623,48.66351 -10.97416,16.81073 -16.47043,32.96127 -18.51635,54.40947 l -0.86415,9.05918 -23.4649,34.06582 c -12.90568,18.7362 -28.34106,41.15733 -34.30083,49.82475 l -10.83594,15.75893 -9.68026,0.74649 c -9.70247,0.7482 -24.13092,5.09353 -32.76218,9.86679 l -4.49149,2.48387 -43.63351,-18.11847 C 95.202224,711.88945 68.745708,701.11215 66.877145,701.11215 c -1.075584,0 -2.174926,0.70312 -2.442984,1.5625 -0.268056,0.85937 -0.760137,23.08097 -1.093513,49.38132 -0.547833,43.21912 -0.407,48.06264 1.464107,50.35348 1.239066,1.51702 28.577275,13.46646 68.092245,29.76289 l 66.022,27.22822 2.89527,8.28578 c 10.09794,28.89851 35.65827,49.81655 66.77264,54.64531 8.54008,1.32537 23.14705,0.41561 32.57993,-2.02917 z M 270.05334,898.439 c -8.33864,-1.38236 -18.29904,-5.82615 -26.41888,-11.78666 -5.95549,-4.37173 -11.9892,-11.35211 -10.82172,-12.5196 0.32201,-0.322 5.30525,1.44175 11.07387,3.91945 18.46559,7.93125 23.40983,9.30996 33.38671,9.30996 16.74459,0 29.22803,-6.17099 39.25455,-19.40488 7.02839,-9.27666 8.85453,-16.0281 8.22354,-30.40328 -0.44066,-10.03917 -1.10161,-13.1768 -3.93336,-18.67228 -6.4903,-12.59555 -14.59224,-18.16125 -44.24493,-30.39451 -5.66603,-2.33752 -10.30666,-4.60161 -10.3125,-5.0313 -0.037,-2.72281 18.06411,-3.034 27.87276,-0.47916 20.5508,5.3528 35.71471,19.47545 42.04279,39.15582 3.12019,9.70378 3.69422,23.92663 1.32134,32.73882 -6.08611,22.60211 -25.50273,40.00216 -48.74751,43.6847 -9.1297,1.44636 -9.27121,1.44547 -18.69666,-0.11713 z M 445.625,723.77512 c -30.20852,-8.69571 -51.875,-36.98247 -51.875,-67.72564 0,-10.11664 3.75491,-25.38442 8.38472,-34.09298 5.18813,-9.75871 20.55719,-24.50355 30.63171,-29.38757 15.31689,-7.42547 30.42603,-9.27461 46.36181,-5.67402 25.82745,5.83555 46.21457,25.31083 53.48438,51.09224 2.87359,10.19077 2.27255,28.34785 -1.30133,39.31216 -7.63315,23.41781 -26.9388,41.40855 -50.36095,46.93088 -10.31972,2.43311 -25.99335,2.23121 -35.32534,-0.45507 z m 41.14159,-14.59483 c 10.2617,-4.15308 23.41252,-15.78391 28.57835,-25.27524 9.09193,-16.70489 9.38386,-38.67309 0.73906,-55.6183 -3.6719,-7.19751 -16.09449,-19.85265 -23.38051,-23.8182 -16.60024,-9.03499 -38.62303,-9.31513 -55.49838,-0.70596 -7.21072,3.67864 -19.0452,15.26685 -23.44531,22.95742 -7.26069,12.69036 -9.37164,29.21884 -5.5873,43.74789 5.0961,19.56521 22.69574,36.81557 42.7006,41.85317 8.93678,2.25045 26.33381,0.72815 35.89349,-3.14078 z"
         id="path4502"
         inkscape:connector-curvature="0" />
    </g>
  </g>
</svg>
