<?xml version="1.0" encoding="UTF-8" standalone="no"?>
<!-- Created with Inkscape (http://www.inkscape.org/) -->

<svg
   xmlns:dc="http://purl.org/dc/elements/1.1/"
   xmlns:cc="http://creativecommons.org/ns#"
   xmlns:rdf="http://www.w3.org/1999/02/22-rdf-syntax-ns#"
   xmlns:svg="http://www.w3.org/2000/svg"
   xmlns="http://www.w3.org/2000/svg"
   xmlns:sodipodi="http://sodipodi.sourceforge.net/DTD/sodipodi-0.dtd"
   xmlns:inkscape="http://www.inkscape.org/namespaces/inkscape"
   width="32"
   height="32"
   viewBox="0 0 32 32"
   id="svg4307"
   version="1.1"
   inkscape:version="0.91 r13725"
   sodipodi:docname="tor-browser.svg">
  <defs
     id="defs4309" />
  <sodipodi:namedview
     id="base"
     pagecolor="#ffffff"
     bordercolor="#666666"
     borderopacity="1.0"
     inkscape:pageopacity="0.0"
     inkscape:pageshadow="2"
     inkscape:zoom="15.839192"
     inkscape:cx="45.930709"
     inkscape:cy="22.393747"
     inkscape:document-units="px"
     inkscape:current-layer="layer1"
     showgrid="false"
     units="px"
     inkscape:window-width="1920"
     inkscape:window-height="1080"
     inkscape:window-x="0"
     inkscape:window-y="0"
     inkscape:window-maximized="1" />
  <metadata
     id="metadata4312">
    <rdf:RDF>
      <cc:Work
         rdf:about="">
        <dc:format>image/svg+xml</dc:format>
        <dc:type
           rdf:resource="http://purl.org/dc/dcmitype/StillImage" />
        <dc:title></dc:title>
      </cc:Work>
    </rdf:RDF>
  </metadata>
  <g
     inkscape:label="Layer 1"
     inkscape:groupmode="layer"
     id="layer1"
     transform="translate(0,-1020.3622)">
    <g
       id="g4326"
       transform="matrix(0.03125,0,0,0.03125,0,1019.4758)">
      <path
         style="fill:#c8f2ea"
         d="m 0,540.36216 0,-511.999998 512,0 512,0 0,511.999998 0,512.00004 -512,0 -512,0 0,-512.00004 z"
         id="path4342"
         inkscape:connector-curvature="0" />
      <path
         style="fill:#b6eee3"
         d="m 481,973.77213 c -1.925,-0.21484 -8.45,-0.89033 -14.5,-1.50109 -9.66948,-0.97616 -16.75959,-2.04274 -39.5,-5.94206 -11.5961,-1.9884 -39.0177,-9.34612 -53.5,-14.35504 C 329.23312,936.66359 294.07522,918.41453 257,891.50345 223.71083,867.34048 188.1991,832.18162 163.48472,798.91739 143.11965,771.5071 127.80336,745.2028 114.0479,714.01423 c -7.17257,-16.26279 -9.87738,-23.6785 -19.569087,-53.65207 -4.58042,-14.16588 -10.353615,-43.04214 -14.094982,-70.5 -2.07896,-15.25747 -2.958841,-64.33129 -1.48086,-82.59234 4.03057,-49.79934 15.700393,-96.472 35.144929,-140.55973 22.56695,-51.16738 50.85138,-92.296 91.40889,-132.91842 40.04384,-40.10795 81.5797,-68.70588 132.56105,-91.26987 15.86837,-7.02323 23.9632,-9.97444 53.98216,-19.68082 14.732,-4.76347 48.14792,-11.29629 75,-14.66252 16.52691,-2.07184 76.74251,-1.76946 94.5,0.47454 86.74856,10.96238 161.65866,43.20127 228,98.12385 15.39804,12.7477 43.33761,40.68727 56.08531,56.08531 35.90123,43.36532 61.35257,88.99067 78.37559,140.5 2.09031,6.325 4.35643,13.525 5.03581,16 0.67938,2.475 1.62879,5.625 2.1098,7 3.35659,9.5951 9.18354,39.48539 12.47645,64 2.44774,18.2226 3.00245,67.55268 0.99517,88.5 -2.48958,25.98043 -9.09113,62.978 -13.47162,75.5 -0.48101,1.375 -1.43042,4.525 -2.1098,7 -11.92465,43.44161 -35.43399,91.65103 -64.31222,131.88182 -25.92613,36.11817 -63.75211,73.94692 -99.79535,99.80267 -36.54181,26.2134 -74.69364,45.69387 -116.38914,59.42875 -18.82066,6.1997 -20.39408,6.66781 -31,9.22284 -39.77924,9.58308 -57.6032,11.74893 -100,12.15131 -18.15,0.17227 -34.575,0.13743 -36.5,-0.0774 z m 56.5,-132.41031 c 61.15492,-5.55213 116.07404,-27.37296 163.5,-64.96291 14.55638,-11.53743 38.7392,-36.1998 49.5,-50.48161 4.95,-6.56967 12.69046,-15.56967 17.20102,-20 9.30655,-9.141 12.70356,-15.29326 14.17282,-25.66814 0.51396,-3.62917 2.25508,-9.19044 3.90378,-12.46897 11.31762,-22.50567 21.49708,-57.2707 25.91482,-88.50462 2.71473,-19.19346 2.42547,-62.45322 -0.54772,-81.91341 -7.05712,-46.19043 -22.59515,-86.92257 -47.30208,-124 C 751.86239,355.38353 743.62932,345.10593 729.5,330.49116 682.37926,281.75148 623.66845,251.71466 555,241.21588 c -12.26079,-1.87457 -18.82399,-2.22622 -42.5,-2.27712 -31.51981,-0.0678 -46.50132,1.57839 -72.5,7.96624 -42.68674,10.48808 -83.63855,30.63784 -118,58.06023 -10.94399,8.73393 -36.663,34.45294 -45.39693,45.39693 -28.22152,35.36279 -48.41814,77.09188 -59.04724,122 -5.50652,23.26516 -6.92885,37.19002 -6.94571,68 -0.0169,30.81492 1.37896,44.48038 6.94571,68 10.63188,44.91986 30.88318,86.75389 59.05858,122 9.62341,12.03844 34.00376,36.23943 46.38559,46.04435 46.65286,36.94343 103.19689,59.68176 161.28802,64.85953 13.43551,1.19753 40.53918,1.24632 53.21198,0.0958 z M 489,813.25735 c -54.59413,-4.76846 -106.10857,-25.34733 -149,-59.52216 -10.92228,-8.70261 -32.67042,-30.45075 -41.37303,-41.37303 -73.13953,-91.79442 -80.5327,-218.39869 -18.55933,-317.81908 12.23085,-19.62128 31.75285,-42.86306 48.10916,-57.27603 4.3833,-3.86251 8.49919,-6.83913 9.14642,-6.6147 0.77582,0.26901 1.05872,2.37414 0.83028,6.17842 -0.49711,8.27838 1.46007,14.19876 6.28723,19.0186 9.63413,9.61952 25.84721,8.22189 33.49033,-2.88701 3.7168,-5.40218 3.76608,-5.40911 21.76772,-3.0606 23.90706,3.11893 45.54383,8.60494 67.04546,16.99939 24.78949,9.67806 59.27036,29.03469 59.24591,33.25905 -0.006,1.11851 -3.16831,3.39177 -9.22327,6.63125 -30.56812,16.35432 -59.54391,41.39941 -79.99152,69.1403 l -8.27536,11.22703 -13.43187,4.65227 c -14.37778,4.9799 -31.59822,12.79782 -44.199,20.06595 -8.71415,5.02632 -9.943,5.26269 -13.71476,2.63811 C 342.3172,504.19065 322,514.50521 322,532.36216 c 0,12.04574 9.95426,22 22,22 14.69802,0 25.2237,-14.2728 21.10821,-28.62268 -0.49048,-1.71021 -0.58768,-3.60151 -0.21601,-4.20289 1.06009,-1.71527 10.34164,-5.50057 26.09011,-10.64034 C 407.13882,505.6233 416,504.10133 416,506.5993 c 0,0.83433 -2.44711,6.63478 -5.43802,12.88991 -17.07358,35.70727 -25.07112,78.07227 -22.48706,119.11957 0.52814,8.38936 1.1994,16.01485 1.49169,16.94553 0.36699,1.16851 -1.61267,3.73268 -6.39718,8.28601 -9.82997,9.35502 -12.66943,15.7473 -12.66943,28.52184 0,8.3075 0.35128,10.25316 2.79847,15.5 3.67299,7.87502 11.37485,15.60984 19.09695,19.1787 5.34162,2.46869 7.2919,2.8213 15.60458,2.8213 8.3075,0 10.25316,-0.35128 15.5,-2.79847 7.87502,-3.67299 15.60984,-11.37485 19.1787,-19.09695 2.46869,-5.34162 2.8213,-7.2919 2.8213,-15.60458 0,-8.31268 -0.35261,-10.26296 -2.8213,-15.60458 -3.56886,-7.7221 -11.30368,-15.42396 -19.1787,-19.09695 -5.41386,-2.52509 -7.05074,-2.79659 -16.75587,-2.77927 -12.70991,0.0227 -12.23357,0.54456 -11.24972,-12.32506 2.97995,-38.98051 13.63768,-76.57669 31.37948,-110.69414 7.15669,-13.76232 16.65522,-29.07657 19.46389,-31.38118 3.97936,-3.2652 47.02027,-3.04425 69.55345,0.35706 38.58463,5.82422 76.245,19.63324 108.36323,39.73381 l 9.75446,6.10464 2.111,7.08833 c 5.27283,17.7052 9.18977,42.9511 10.34541,66.6795 0.74932,15.38533 0.16587,17.35004 -5.67017,19.09401 -2.50592,0.74883 -5.96984,2.95819 -8.31532,5.30367 -8.62849,8.62848 -8.62849,22.41184 0,31.04032 14.03229,14.0323 37.56081,3.91082 37.51039,-16.13618 -0.0109,-4.34188 -3.68434,-12.97633 -6.63503,-15.59579 -1.06055,-0.94149 -4.07607,-2.66188 -6.70116,-3.82308 -2.6251,-1.1612 -5.0053,-2.71689 -5.28934,-3.45709 -0.28404,-0.7402 0.16151,-6.89482 0.9901,-13.67692 2.02961,-16.61242 2.70701,-33.22288 1.85222,-45.41772 -0.81831,-11.67429 -0.62592,-13.41338 1.48383,-13.41338 3.96684,0 30.53773,27.31398 44.20007,45.43618 C 708.9008,621.74935 721,641.16116 721,643.66548 c 0,1.0941 -2.05647,4.18781 -4.56994,6.87491 -2.51347,2.6871 -5.77597,7.45877 -7.25,10.6037 -2.3174,4.94432 -2.68006,7.00358 -2.68006,15.21807 0,12.67296 2.97901,19.51279 12.16442,27.92955 3.48457,3.19297 6.33558,6.4276 6.33558,7.18807 0,2.23683 -18.16459,22.07118 -29.25783,31.94732 C 675.66644,761.30022 656.96058,774.02996 634,785.44399 589.16201,807.7336 538.03617,817.54037 489,813.25735 Z M 758,641.12858 c -6.40575,-2.93962 -16.52711,-3.46196 -24.62231,-1.27069 -7.70988,2.08697 -7.80119,2.03065 -11.34261,-6.99573 -12.97501,-33.07081 -37.91034,-68.434 -64.7896,-91.88439 l -9.87148,-8.61221 -2.33812,-8.2517 c -7.89529,-27.86409 -25.62675,-63.05747 -41.88797,-83.1392 -5.54489,-6.84765 -3.66884,-8.43038 4.86618,-4.10536 14.70488,7.45153 34.32958,7.15138 49.39284,-0.75544 7.80555,-4.09719 18.24758,-14.53922 22.34477,-22.34477 16.22132,-30.90319 -1.25109,-69.94855 -34.84477,-77.86715 -18.82339,-4.43699 -37.29861,0.7985 -50.93363,14.43352 -7.63088,7.63088 -12.34814,16.01309 -14.58433,25.91522 l -1.60112,7.08997 -7.14392,2.06553 c -3.92916,1.13603 -9.13659,2.71587 -11.57207,3.51075 -2.43548,0.79488 -5.46035,1.44523 -6.72194,1.44523 -1.2616,0 -6.46893,-2.75088 -11.57186,-6.11307 C 527.65793,375.60459 501.86521,363.2401 486,357.98965 c -26.85979,-8.88901 -47.26568,-11.9651 -80,-12.05963 l -23.5,-0.0679 -0.57922,-6 c -1.23455,-12.78843 -7.50985,-19.51995 -19.90914,-21.35656 -7.17865,-1.06331 -6.39756,-3.08609 3.68759,-9.54962 32.88141,-21.07357 73.36201,-35.44318 114.80077,-40.75145 16.53312,-2.11788 53.19673,-1.5706 70.39318,1.05075 16.69567,2.54502 40.47606,8.42934 54.13337,13.39499 84.56472,30.74684 148.82605,100.78395 171.4198,186.82698 14.16863,53.95793 12.12485,109.00488 -5.9733,160.88495 -5.04124,14.45118 -4.83378,14.2721 -12.47305,10.76642 z M 602.97139,504.53015 C 580.55534,493.48171 560.84317,487.05182 534.5,482.19556 c -10.41175,-1.91936 -15.83828,-2.23473 -41,-2.38272 -25.65621,-0.15091 -29.03627,-0.35441 -29.31453,-1.76497 -0.41387,-2.09793 22.36317,-24.80699 35.20329,-35.09823 10.88614,-8.72515 27.76765,-20.26589 38.08139,-26.03366 l 6.66735,-3.7286 3.68125,2.45849 c 5.3868,3.59753 24.40408,22.74798 34.00904,34.24719 10.37762,12.42425 21.86153,29.32515 30.55585,44.9691 6.20246,11.16029 7.57721,15.48351 5.11636,16.08966 -0.55,0.13548 -7.08787,-2.75428 -14.52861,-6.42167 z m -28.3418,-94.42529 c -6.77557,-6.06376 -7.11503,-8.35696 -1.52337,-10.29108 1.98343,-0.68605 4.07756,-0.95583 4.65363,-0.5995 0.88984,0.55042 4.13021,8.39913 5.94422,14.39788 1.03244,3.4142 -3.14429,1.79989 -9.07448,-3.5073 z"
         id="path4340"
         inkscape:connector-curvature="0" />
      <path
         style="fill:#90e7d5"
         d="m 479.5,972.71987 c -23.76546,-1.9118 -62.29414,-8.58071 -80.5,-13.93369 -16.10151,-4.73426 -29.38899,-8.93995 -35,-11.07805 C 300.65533,923.57036 252.17164,892.61768 206.91702,847.42411 166.31028,806.87215 137.63915,765.2367 115.0479,714.01423 c -7.17257,-16.26279 -9.87738,-23.6785 -19.569087,-53.65207 -4.657939,-14.40562 -10.318962,-42.71518 -14.09779,-70.5 -2.076039,-15.26463 -2.95447,-64.3506 -1.478052,-82.59234 4.03057,-49.79934 15.700393,-96.472 35.144929,-140.55973 22.46348,-50.93277 50.87089,-92.30981 90.91085,-132.41692 39.51497,-39.58124 81.31389,-68.3119 132.05909,-90.77137 15.86837,-7.02323 23.9632,-9.97444 53.98216,-19.68082 8.9992,-2.90982 33.8633,-8.41653 49,-10.85215 29.4771,-4.7431 34.9329,-5.12847 72,-5.08579 30.72188,0.0354 37.72082,0.3364 52,2.23655 85.4204,11.36698 158.90754,43.32776 224.5,97.6388 15.39082,12.74371 42.34006,39.69295 55.08377,55.08377 35.89435,43.35029 61.35342,88.98858 78.37713,140.5 2.09031,6.325 4.35643,13.525 5.03581,16 0.67938,2.475 1.62879,5.625 2.1098,7 3.35869,9.60109 9.19109,39.52428 12.47439,64 2.4986,18.62605 3.02512,66.62961 0.97043,88.4752 -3.47173,36.91166 -10.85477,71.28899 -22.38269,104.2195 -13.48888,38.53219 -33.27914,76.46667 -57.48415,110.18712 -25.85382,36.01743 -62.8528,73.01915 -98.79535,98.80267 -51.61669,37.02742 -111.51098,62.775 -172.82434,74.29436 -26.61288,4.99994 -40.21295,6.18335 -74.5648,6.48821 -18.15,0.16108 -35.25,0.11188 -38,-0.10935 z m 62.76064,-130.8395 c 86.09586,-9.1371 160.81318,-51.0978 211.91662,-119.01082 5.02531,-6.6783 11.52761,-14.0038 14.67349,-16.53118 6.87644,-5.52448 12.86706,-16.33509 13.8404,-24.97621 0.34073,-3.025 2.16821,-8.875 4.06106,-13 12.74432,-27.77309 21.55702,-58.04432 25.93529,-89.08659 1.31812,-9.34556 1.75073,-19.08618 1.75047,-39.41341 -3.9e-4,-30.49399 -1.74786,-46.1134 -8.01909,-71.67694 C 785.08985,381.24124 727.79947,309.3569 648.08959,269.52364 626.58917,258.77928 609.8169,252.50338 587.5,246.85203 c -28.40255,-7.19243 -43.26702,-8.95561 -75.5,-8.95561 -32.26659,0 -47.17051,1.77102 -75.5,8.97161 -22.44217,5.70419 -39.21274,11.97673 -60.5,22.62822 -59.15967,29.60168 -105.35353,75.77424 -134.83852,134.77632 -10.74436,21.50042 -17.02026,38.27269 -22.67161,60.58959 -7.19243,28.40255 -8.95561,43.26702 -8.95561,75.5 0,32.23298 1.76318,47.09745 8.95561,75.5 5.65334,22.32474 11.93632,39.11365 22.64114,60.5 29.61164,59.15879 75.72694,105.27304 134.86899,134.86591 9.625,4.81606 23.35,10.89813 30.5,13.51571 23.52029,8.61069 53.45306,15.35324 77.78802,17.52226 15.21155,1.35583 43.32535,1.1688 57.97262,-0.38567 z M 489,812.33013 c -34.85886,-3.31175 -68.06429,-12.5659 -97.39834,-27.1443 -14.79577,-7.35319 -18.5328,-9.50328 -31.31757,-18.01845 -55.61078,-37.03902 -95.84871,-93.76271 -112.3261,-158.34688 -23.05116,-90.35048 0.36297,-184.29989 63.09225,-253.15821 9.60802,-10.54678 23.83671,-23.50522 25.27761,-23.02097 0.74974,0.25196 1.05307,2.19863 0.84171,5.4018 -0.51725,7.83919 1.34046,12.92698 6.65074,18.21463 10.10363,10.06058 22.87197,9.63957 33.31998,-1.09864 6.44397,-6.62296 5.61909,-6.46728 22.5585,-4.25735 34.12615,4.45212 62.27413,13.22863 93.30122,29.09122 14.54317,7.43518 31.10326,17.87316 31.74984,20.01221 0.19003,0.62866 -3.61344,3.29132 -8.45216,5.91702 -30.77524,16.69995 -60.06923,41.96404 -80.51638,69.43995 l -8.55813,11.5 -13.17488,4.40418 c -13.13863,4.39206 -34.33721,14.08918 -45.12265,20.64099 -6.52016,3.96079 -8.09186,4.17357 -11.77127,1.59364 -13.90846,-9.75235 -34.10594,-0.77724 -35.81655,15.91572 -0.82816,8.08153 0.99317,13.37515 6.48248,18.84106 9.55228,9.51158 22.75358,9.5643 32.23069,0.12872 5.72244,-5.69737 7.47958,-11.24561 6.48949,-20.49088 l -0.69996,-6.53614 4.82974,-2.08001 c 7.48136,-3.22198 29.19555,-10.52003 35.49553,-11.9299 9.37245,-2.09746 9.45206,-1.7864 3.12342,12.20384 -10.41584,23.02548 -17.46093,47.50113 -20.8248,72.34829 -1.81551,13.41022 -2.18289,46.51254 -0.64326,57.96049 l 0.94143,7 -6.33404,6 c -4.55349,4.31334 -7.26093,7.96777 -9.63129,13 -3.00705,6.38391 -3.29725,7.83612 -3.29725,16.5 0,8.57482 0.30562,10.14503 3.13821,16.12338 4.38196,9.2484 9.2137,14.19995 18.181,18.63183 7.16361,3.54045 8.1011,3.74479 17.18079,3.74479 9.07969,0 10.01718,-0.20434 17.18079,-3.74479 8.9673,-4.43188 13.79904,-9.38343 18.181,-18.63183 2.83631,-5.9862 3.13821,-7.54229 3.13821,-16.17524 0,-9.01977 -0.20861,-9.97395 -3.74479,-17.12893 -4.43188,-8.9673 -9.38343,-13.79904 -18.63183,-18.181 -6.06563,-2.87395 -7.50757,-3.14436 -17.12338,-3.21128 l -10.5,-0.0731 0.22871,-8.92694 c 0.60974,-23.79884 7.92005,-58.03647 17.88686,-83.77259 5.55689,-14.34892 17.60048,-38.13286 25.20349,-49.77241 l 6.93578,-10.61808 4.87258,-0.7425 c 7.13894,-1.08786 41.35608,-0.79858 52.37258,0.44277 44.73407,5.04068 88.80118,20.47594 122.46697,42.89613 6.61047,4.40233 7.05749,4.94677 8.73593,10.63975 4.98707,16.91523 8.44661,38.24313 9.89464,61 1.31637,20.68758 1.0592,22.07634 -4.38757,23.69418 -5.48579,1.62942 -13.1747,9.21516 -14.6213,14.4251 -2.57766,9.28353 -0.70776,16.8645 5.74443,23.28911 9.53871,9.49795 22.7669,9.54696 32.19458,0.11929 11.64553,-11.64553 8.11142,-30.28246 -7.04105,-37.13052 -2.92321,-1.32112 -4.98329,-2.90405 -4.97856,-3.82542 0.004,-0.86446 0.7277,-6.74674 1.60725,-13.07174 1.08487,-7.80156 1.59635,-18.81647 1.59039,-34.25 -0.006,-14.3784 0.35613,-22.75 0.98288,-22.75 1.63551,0 25.45338,23.79872 34.02735,34 C 702.13555,613.54408 720,639.91915 720,643.33535 c 0,0.67095 -1.86284,3.31396 -4.13964,5.87336 -2.27681,2.5594 -5.53931,7.57845 -7.25,11.15345 -2.80607,5.86409 -3.11036,7.4294 -3.11036,16 0,8.63613 0.29439,10.12157 3.23741,16.33538 2.24702,4.74427 5.12011,8.63242 9.39154,12.70952 l 6.15411,5.87414 -1.79948,2.79048 c -2.88126,4.46798 -32.27333,33.42566 -40.48358,39.88526 -39.06352,30.73411 -85.45332,50.36033 -134.53951,56.91989 -14.42458,1.92761 -45.37053,2.69691 -58.46049,1.4533 z M 757,639.74404 c -7.63572,-2.73575 -16.41989,-3.06816 -23.59107,-0.8927 -2.69991,0.81904 -5.38845,1.49404 -5.97452,1.5 -0.58608,0.006 -3.23567,-5.05168 -5.888,-11.23918 -15.53936,-36.2512 -38.33326,-67.1715 -69.13235,-93.77918 -3.38331,-2.92288 -4.46101,-4.81263 -6.27318,-11 -8.31997,-28.40719 -21.40421,-55.27409 -38.3651,-78.77805 -3.29706,-4.56898 -5.70323,-8.59865 -5.34705,-8.95483 0.35618,-0.35618 2.09293,-0.0492 3.85944,0.68225 14.57536,6.03488 26.21625,7.46032 38.09855,4.66518 19.94654,-4.69214 36.4537,-21.08581 41.10771,-40.8251 8.09634,-34.33946 -18.27642,-67.73071 -53.49443,-67.73071 -24.98582,0 -47.81591,17.93531 -53.42252,41.96873 -0.80731,3.46064 -1.83001,6.6197 -2.27266,7.02015 -1.02114,0.92376 -21.74878,6.98156 -23.88843,6.98156 -0.87928,0 -6.17018,-2.84989 -11.75754,-6.33308 -27.16609,-16.9355 -51.88843,-27.0879 -80.5537,-33.07995 -18.98952,-3.96947 -29.37838,-4.94163 -53.60515,-5.01619 l -23,-0.0708 -0.63559,-5.5 c -0.72852,-6.3042 -1.43081,-8.40449 -4.09686,-12.25229 -3.05296,-4.40621 -8.46145,-7.96516 -14.00029,-9.21261 -2.82785,-0.63689 -5.3149,-1.67801 -5.52676,-2.31361 -1.23761,-3.71283 41.5275,-25.57893 65.7595,-33.62329 31.94839,-10.60598 53.47964,-14.02057 88,-13.95569 27.27306,0.0513 42.35141,1.90994 67.45834,8.31548 94.83774,24.196 170.25344,98.95839 195.03846,193.34888 12.16695,46.33622 12.35542,93.26678 0.55808,138.96687 -3.43601,13.31028 -9.49443,30.63884 -11.28402,32.27506 -0.97413,0.89064 -2.78851,0.61818 -7.77086,-1.16692 z M 601.58404,502.82871 c -21.47913,-10.60363 -44.12555,-17.74108 -70.25666,-22.14273 -8.64129,-1.45558 -16.32929,-1.82382 -38.07752,-1.82382 -23.92903,0 -27.25012,-0.18863 -27.25,-1.5477 2e-4,-2.19636 24.59552,-26.14787 36.50753,-35.55189 10.33109,-8.15596 28.29528,-20.19346 36.89627,-24.72357 3.97403,-2.0931 5.29577,-2.37288 6.97203,-1.47578 3.90705,2.09099 30.3743,29.30517 38.42168,39.50598 12.56111,15.92238 30.17953,44.00851 32.64653,52.04296 1.07615,3.50473 -1.48498,2.81302 -15.85986,-4.28345 z M 574.75,409.01324 c -5.25964,-4.71629 -5.73044,-6.056 -2.69842,-7.67869 3.93796,-2.10753 5.98829,-0.83389 8.03178,4.98922 1.05415,3.00389 1.91664,5.81639 1.91664,6.25 0,1.80808 -2.79207,0.43687 -7.25,-3.56053 z"
         id="path4338"
         inkscape:connector-curvature="0" />
      <path
         style="fill:#72e1ca"
         d="m 481,971.77213 c -1.925,-0.21484 -8.45,-0.88111 -14.5,-1.4806 C 417.5578,965.44187 363.31237,949.58717 318.12525,926.92497 235.7078,885.59107 166.77109,816.65436 125.43719,734.23691 106.51334,696.50384 92.128143,652.16136 85.57524,611.36216 c -4.659539,-29.01088 -5.076638,-34.96604 -5.042879,-72 0.02851,-31.2762 0.305029,-37.52267 2.324066,-52.5 C 89.73792,435.81484 103.66648,389.89696 125.43719,346.48741 159.12332,279.31918 211.60959,220.38979 274.5163,179.1076 332.68288,140.93609 393.26507,119.23401 467,110.15503 c 16.6715,-2.05276 76.89653,-1.72911 94.5,0.50785 100.3635,12.75367 186.40714,54.46201 256.0722,124.12708 69.65807,69.65806 110.74297,154.33542 124.00197,255.5722 2.52837,19.3049 3.06097,67.05215 0.99036,88.78542 -9.8003,102.86488 -52.85631,194.76135 -124.98641,266.76437 C 748.73337,914.6354 664.32929,956.0759 566,969.43112 c -12.52409,1.70104 -21.83581,2.16537 -48.5,2.41843 -18.15,0.17227 -34.575,0.13743 -36.5,-0.0774 z m 70,-129.91148 c 83.11884,-11.33926 155.28352,-53.52317 204.73744,-119.6794 4.53059,-6.06073 10.17784,-12.50112 12.54945,-14.31198 8.26014,-6.30708 13.25049,-14.94911 15.26672,-26.43809 0.74745,-4.25919 3.04649,-11.28596 5.2575,-16.06902 11.84398,-25.62195 20.43285,-55.72685 24.82091,-87 2.44672,-17.43746 2.46633,-58.49376 0.0363,-76 -4.83936,-34.86333 -13.2959,-63.65955 -27.2958,-92.94772 C 756.11291,346.11053 706.25163,296.24925 642.94772,265.98964 613.50196,251.91441 585.07091,243.56538 550,238.69473 c -17.45255,-2.42382 -58.54745,-2.42382 -76,0 -44.74467,6.21414 -81.88964,19.10169 -119.17579,41.34835 -71.30927,42.54643 -123.98068,116.7577 -140.30792,197.68654 -4.82666,23.92414 -5.91973,35.48918 -5.91973,62.63254 0,27.14336 1.09307,38.7084 5.91973,62.63254 12.15161,60.23161 45.81162,119.51126 91.48371,161.11468 50.4196,45.92801 111.23001,72.69138 180,79.22009 13.30897,1.2635 51.2575,0.40596 65,-1.46882 z m -60,-30.12799 c -11.55022,-1.07758 -28.52702,-3.69575 -38.84902,-5.9913 C 352.05582,783.48073 272.41149,705.53053 247.9277,605.86216 c -5.76247,-23.45779 -7.3078,-37.30866 -7.3078,-65.5 0,-21.25374 0.36301,-27.83128 2.17998,-39.5 7.81159,-50.16649 26.58635,-93.07215 57.54209,-131.5 8.78259,-10.90253 34.23981,-36.75156 35.22461,-35.76675 0.30923,0.30923 0.6771,3.42075 0.81749,6.91449 0.55868,13.90295 10.07895,23.28843 23.61593,23.28158 8.03526,-0.004 13.30971,-2.52627 18.65461,-8.92048 4.4001,-5.26394 4.42713,-5.26758 22.04417,-2.96924 28.50707,3.71905 53.37223,10.76856 79.60732,22.56942 15.67148,7.04922 43.71263,23.53209 43.68459,25.67824 -0.005,0.39201 -4.12785,2.96274 -9.16162,5.71274 -31.34834,17.12592 -59.63536,41.7815 -80.51467,70.17833 l -7.48381,10.17832 -7.13478,2.16713 c -15.34262,4.66017 -35.04641,13.44102 -51.11612,22.77952 l -6.92032,4.02156 -5.57968,-3.16243 c -12.25584,-6.94631 -26.74767,-2.67591 -33.38428,9.83757 -2.93169,5.52775 -2.93169,15.47225 0,21 4.53792,8.55636 11.74716,12.93261 21.30459,12.93261 9.57213,0 16.82917,-4.41314 21.26659,-12.93261 2.19465,-4.21354 2.88528,-12.66544 1.45383,-17.79195 -0.74245,-2.65898 -0.50434,-2.91466 5,-5.36874 C 385.14571,513.71588 414,505.46034 414,507.6048 c 0,0.27517 -2.20923,5.17064 -4.90941,10.87883 -9.6769,20.45706 -16.98844,44.18072 -20.6117,66.87853 -2.12953,13.34037 -3.0551,49.20093 -1.60023,62 l 1.07986,9.5 -5.9522,5.30578 c -4.40024,3.92236 -6.93702,7.29841 -9.72926,12.94813 -3.5724,7.22827 -3.77706,8.15993 -3.77706,17.19423 0,8.66755 0.29562,10.17592 3.19313,16.29261 12.15652,25.66259 44.55882,31.60254 64.3625,11.79886 11.92104,-11.92104 15.10361,-29.55437 8.05336,-44.62041 -4.15377,-8.87639 -9.93656,-14.73066 -18.95024,-19.18448 -7.27603,-3.59521 -7.94784,-3.73424 -17.98518,-3.72177 l -10.42683,0.0129 0.66785,-10.01294 c 3.07832,-46.15302 18.77947,-93.64115 43.6593,-132.04753 5.43455,-8.38918 6.48977,-9.48499 9.75974,-10.13516 6.98568,-1.38896 45.09066,-0.70659 58.57145,1.04888 36.37458,4.7367 71.12277,16.07943 101.90488,33.26446 17.13742,9.56748 21.47868,12.85344 22.61815,17.11997 6.59654,24.69946 9.95039,47.0319 10.318,68.70485 l 0.25389,14.96842 -5,2.36851 c -10.2191,4.84081 -14.92602,11.8399 -14.92602,22.19465 0,13.7534 9.68151,23.43628 23.42602,23.42932 13.75648,-0.007 23.43628,-9.68677 23.42932,-23.42932 -0.005,-10.08732 -4.56388,-17.08909 -14.3084,-21.97616 l -4.37909,-2.1962 0.63609,-5.16382 c 2.30414,-18.70513 2.742,-26.57465 2.45017,-44.03559 -0.2735,-16.36375 -0.0939,-19.6301 1.07924,-19.62925 1.99844,0.001 23.71614,21.65639 33.42155,33.32496 C 702.28778,615.064 719,639.95186 719,643.38318 c 0,0.64465 -1.84687,3.26613 -4.10416,5.82553 -15.14863,17.1761 -14.23314,40.41366 2.21656,56.26174 l 6.11675,5.89304 -1.73247,2.64408 c -3.08133,4.7027 -25.72618,27.38494 -35.49668,35.55528 -37.49477,31.35408 -84.43605,52.36621 -133.63107,59.81673 -13.46506,2.03926 -49.79958,3.43244 -61.36893,2.35308 z M 760.61201,640.20484 c -3.0851,-1.79176 -11.79572,-3.81808 -16.46767,-3.83081 -2.39561,-0.007 -7.02434,0.67966 -10.28607,1.52485 -3.26172,0.8452 -6.3088,1.30287 -6.77128,1.01704 -0.46248,-0.28583 -1.86711,-3.11485 -3.12139,-6.28672 -4.14888,-10.49179 -15.76649,-32.60493 -22.73127,-43.26704 -10.49054,-16.05958 -21.80398,-29.45772 -37.92175,-44.90951 l -14.6714,-14.06519 -2.34361,-8.11779 c -7.58953,-26.28851 -21.72938,-55.03336 -38.4507,-78.16628 -2.28946,-3.16733 -3.95728,-5.96415 -3.70628,-6.21516 0.25101,-0.25101 3.23515,0.66602 6.63143,2.03784 8.49734,3.43222 16.45205,4.75723 24.72798,4.1189 46.78968,-3.60892 69.14431,-58.7876 37.64231,-92.91377 -11.58563,-12.55074 -24.17128,-18.20001 -40.64231,-18.24296 -12.07423,-0.0315 -21.0531,2.44649 -30.13561,8.3168 -13.55915,8.7637 -20.8291,19.34368 -25.3396,36.87675 -0.98561,3.83125 -1.47391,4.31948 -5.30516,5.30442 -2.3208,0.59664 -7.64415,2.20128 -11.82967,3.56588 l -7.61005,2.4811 -10.88995,-6.90655 C 498.2528,355.16854 448.23366,341.69047 398.4048,343.99812 l -14.09519,0.65277 -0.57094,-5.53184 C 382.53372,327.44424 374.8799,318.93106 363.70349,316.83436 361.66657,316.45223 360,315.76691 360,315.31143 c 0,-1.29936 16.54193,-11.20295 29.88083,-17.88953 27.64816,-13.8596 53.78354,-22.01604 85.61917,-26.72038 18.23387,-2.69441 57.18767,-2.45545 76,0.46622 72.76904,11.30149 134.37696,47.89014 177.99842,105.71241 33.99942,45.06781 52.26516,97.33126 54.16522,154.98201 1.09606,33.25594 -3.31817,63.05999 -14.21841,96 -4.57535,13.82652 -5.07535,14.52517 -8.83322,12.34268 z M 605.5,503.67324 c -12.69877,-6.47311 -28.00467,-12.46342 -42.53021,-16.64513 -25.94401,-7.46896 -47.87118,-10.17154 -76.66111,-9.44868 C 471.8813,477.94168 467,477.76637 467,476.886 c 0,-1.71938 25.07522,-25.96496 35,-33.84198 9.28745,-7.3712 27.12672,-19.42316 36.33729,-24.54896 5.68994,-3.16652 5.90451,-3.20526 8.5,-1.53437 4.84633,3.11989 28.69689,27.72982 36.87659,38.0507 4.42402,5.58207 10.98505,14.58207 14.58008,20 6.43647,9.70016 18.70604,31.06839 18.70604,32.57776 0,1.50546 -2.60404,0.61875 -11.5,-3.91591 z m -30.75,-95.8516 c -4.38892,-4.08041 -4.54662,-4.77549 -1.40791,-6.20558 3.11467,-1.41914 4.0408,-0.63988 5.93776,4.9961 1.96389,5.83486 0.78407,6.14987 -4.52985,1.20948 z"
         id="path4336"
         inkscape:connector-curvature="0" />
      <path
         style="fill:#58dcc1"
         d="m 480,970.7711 c -1.925,-0.21427 -8.45,-0.88008 -14.5,-1.47957 C 408.96182,963.68919 347.52642,944.02563 298.39981,915.80796 247.54138,886.59557 200.12003,844.53465 165.48472,797.91739 119.03922,735.40425 92.915027,668.56926 82.792865,586.36216 c -0.848265,-6.88918 -1.282365,-23.0519 -1.262331,-47 0.02705,-32.3389 0.292002,-38.43804 2.324065,-53.5 C 91.763498,427.24023 109.32119,374.22568 136.54642,326.76197 170.14437,268.18821 219.20527,216.06141 275.5163,179.1076 332.82962,141.49604 392.51854,120.2028 466,111.15503 c 16.7427,-2.06153 78.8748,-1.73562 96.5,0.50619 100.42307,12.77314 184.59649,53.64974 254.57384,123.6271 69.97358,69.97357 110.1997,152.72711 123.50416,254.07384 2.53139,19.2828 3.06985,68.89194 0.98541,90.78542 -7.49144,78.68453 -33.70036,149.15732 -78.87892,212.0964 -25.85382,36.01743 -62.8528,73.01915 -98.79535,98.80267 C 705.03689,933.26453 641.26086,958.3319 567,968.43455 c -12.64862,1.72076 -21.75463,2.16546 -49.5,2.41741 -18.7,0.16981 -35.575,0.13342 -37.5,-0.0809 z m 48.84789,-126.42109 c 65.17153,-3.9637 123.64248,-26.24191 173.48638,-66.1006 20.02205,-16.01103 43.9418,-41.20694 57.58655,-60.65886 2.30114,-3.2805 6.14768,-7.37483 8.54787,-9.09852 8.10733,-5.82225 13.55475,-15.07519 15.54792,-26.40957 0.60162,-3.42116 3.58457,-11.99434 6.62877,-19.05149 11.96799,-27.74454 20.26138,-58.30047 23.93047,-88.16881 2.02602,-16.49294 2.2898,-49.62978 0.5214,-65.5 C 808.76561,452.54002 788.99663,401.86163 756,357.8645 704.60716,289.33818 629.68297,246.9168 543,237.26589 c -13.61928,-1.51631 -48.58278,-1.52371 -62,-0.0131 -57.02588,6.4203 -107.50354,26.11502 -151.49766,59.10939 -68.51138,51.38163 -110.94086,126.31952 -120.59959,213 -1.50623,13.51739 -1.50623,48.48261 0,62 7.45486,66.90226 33.46926,125.11539 77.83665,174.17719 52.37371,57.91525 126.92499,93.74707 205.44953,98.74587 18.03019,1.14779 18.82897,1.1492 36.65896,0.0648 z M 487.5,810.7682 c -1.65,-0.22524 -8.4,-1.13513 -15,-2.02197 -55.81812,-7.50024 -111.57676,-35.41639 -152.52222,-76.36185 -21.00768,-21.00767 -38.15936,-45.15202 -51.5184,-72.52222 -9.38566,-19.22948 -15.09042,-34.84512 -19.91014,-54.5 -5.95133,-24.26956 -7.0408,-34.3275 -7.0408,-65 0,-30.6725 1.08947,-40.73044 7.0408,-65 9.34252,-38.09893 27.68236,-75.1157 52.51322,-105.99167 9.22991,-11.47694 31.35581,-34.00833 33.39629,-34.00833 0.87178,0 1.29342,1.69535 1.3261,5.33199 0.12168,13.54166 10.59822,23.86801 24.21515,23.86801 7.65293,0 13.70792,-2.87044 18.92173,-8.97008 3.83123,-4.48216 4.05697,-4.58861 9.25265,-4.36319 19.49603,0.84582 47.19969,6.90586 72.32562,15.82088 18.91718,6.71207 62.53392,29.76357 62.48922,33.02563 -0.006,0.43272 -3.45553,2.58676 -7.66578,4.78676 -10.53831,5.50663 -28.03481,17.21561 -38.8482,25.99794 -12.5895,10.22484 -31.46438,29.92242 -41.36968,43.17286 l -8.35066,11.1708 -10.62745,3.65626 c -18.19137,6.25854 -32.67455,12.99498 -51.67183,24.03368 -2.9963,1.74105 -3.10738,1.72729 -7.0338,-0.87109 -17.86847,-11.8248 -41.2384,3.88098 -37.28253,25.05575 1.47981,7.92101 7.72066,15.35446 15.36514,18.30134 8.52594,3.28667 20.40788,0.26318 26.57672,-6.76274 5.51744,-6.28402 6.79282,-11.7604 5.64768,-24.2507 -0.21324,-2.32589 0.62944,-2.81746 12.37186,-7.21694 12.60933,-4.72428 30.82365,-9.94748 32.05189,-9.19131 0.35892,0.22097 -1.75587,5.72913 -4.69953,12.24035 -9.81728,21.71528 -16.52231,44.69266 -20.03681,68.6638 -2.18369,14.89422 -2.88294,40.94918 -1.48466,55.3203 l 1.19874,12.32031 -6.40909,6.2533 c -3.87738,3.78313 -7.43924,8.43085 -9.01693,11.76582 -7.51142,15.87784 -4.44304,34.05805 7.81744,46.31853 15.88148,15.88148 41.07504,15.88148 56.95652,0 21.07259,-21.07259 12.96468,-56.62791 -15.20348,-66.6712 -4.21268,-1.50202 -8.14168,-2.04745 -14.52478,-2.01635 l -8.75,0.0426 0,-6.36545 c 0,-6.54012 2.20794,-25.7011 4.087,-35.46788 4.05474,-21.07529 11.8163,-45.34375 20.82622,-65.11836 5.58921,-12.26697 18.72076,-35.3813 23.52065,-41.40139 l 2.3762,-2.98025 25.34496,0.01 c 39.89033,0.0157 68.29111,5.24679 103.84497,19.12691 13.58017,5.30166 37.62418,17.53292 47.5,24.1634 l 7,4.69969 3.25191,13 c 4.52284,18.08073 7.18212,37.09542 7.92254,56.64859 l 0.63044,16.64858 -5.58432,2.64181 c -9.76676,4.62042 -15.02778,12.62786 -14.96569,22.77825 0.0835,13.64876 10.61024,23.98277 24.43004,23.98277 13.65385,0 24.01508,-10.52079 24.01508,-24.38492 0,-9.66859 -5.99095,-18.74065 -14.80889,-22.42502 -1.78989,-0.74787 -3.45949,-1.70408 -3.71021,-2.12491 -0.25073,-0.42083 0.23861,-5.04015 1.08742,-10.26515 1.05391,-6.4875 1.57316,-17.03103 1.63749,-33.24934 0.0621,-15.65726 0.44723,-23.74956 1.13032,-23.75 1.4881,-9.5e-4 22.97278,21.49397 31.22557,31.24045 8.2433,9.73528 18.4079,23.95082 25.38511,35.50195 l 4.99595,8.27104 -4.60449,5.24295 c -5.84965,6.66077 -9.28311,13.88247 -10.42006,21.91684 -1.87217,13.22995 2.28802,25.30075 12.02351,34.88626 3.22205,3.17242 5.85828,6.1538 5.85828,6.62529 0,1.27415 -16.35974,18.73861 -25.98771,27.74259 -38.93394,36.4106 -89.19409,60.53889 -144.01229,69.13568 -9.97208,1.56386 -56.75181,2.90004 -64.5,1.84233 z M 759.1481,638.82621 c -5.83581,-2.53008 -14.57231,-3.45346 -21.3981,-2.26162 -11.44586,1.99855 -10.30306,2.76288 -16.13952,-10.79456 -14.49337,-33.66646 -39.39627,-67.14571 -67.32845,-90.51583 -3.97686,-3.32733 -4.5286,-4.478 -9.65172,-20.1291 -8.06112,-24.62668 -19.97612,-48.43301 -34.04027,-68.01294 -3.06173,-4.2625 -5.13149,-7.75 -4.59947,-7.75 0.53203,0 4.45025,1.16918 8.70716,2.59818 20.22679,6.78991 42.94949,0.9994 57.78318,-14.72509 10.55592,-11.18983 15.70954,-23.6973 15.7579,-38.24325 0.0531,-15.96384 -5.29582,-28.90836 -16.62806,-40.24059 C 660.28947,337.43012 647.64903,332.12406 632,332.12406 c -15.21996,0 -28.0746,5.26071 -39.2738,16.07263 -7.5859,7.32356 -13.63053,17.91043 -15.82512,27.71688 -0.69553,3.10797 -1.74531,5.78705 -2.33284,5.9535 -0.58753,0.16646 -5.85871,1.7566 -11.71374,3.53365 l -10.64549,3.231 -11.35451,-7.19206 C 513.34575,364.01535 483.72063,352.54116 451,346.63787 c -13.06266,-2.3567 -17.05245,-2.62393 -40.24925,-2.69587 -14.16209,-0.0439 -25.78424,-0.30484 -25.82702,-0.57984 -0.0428,-0.275 -0.29289,-2.525 -0.55583,-5 -1.07939,-10.16008 -8.31453,-18.76578 -18.19103,-21.63696 -2.95725,-0.8597 -4.99433,-1.92769 -4.52685,-2.37333 2.51778,-2.40008 21.53925,-13.15841 32.84998,-18.57957 23.86417,-11.43796 51.34401,-19.87999 78.5,-24.11583 16.66436,-2.59934 61.55824,-2.55398 78.5,0.0793 28.71116,4.46262 54.50867,12.55147 80,25.08413 24.69998,12.1436 43.7289,24.96943 63.5,42.80015 38.97658,35.15133 68.464,85.22262 80.82307,137.2421 4.87971,20.53877 6.30961,32.18396 6.89192,56.12848 0.61712,25.37572 -0.44197,38.89563 -4.72922,60.37152 -3.86893,19.38047 -12.11904,45.93437 -14.48619,46.62543 -0.54977,0.1605 -2.50794,-0.36213 -4.35148,-1.16138 z M 606.05211,503.29635 C 583.84475,491.66822 555.33035,482.73601 527.5,478.6897 c -8.77368,-1.27562 -18.38543,-1.74322 -35.75,-1.73919 -13.0625,0.003 -23.75,-0.27534 -23.75,-0.61861 0,-1.21807 26.62541,-26.62932 34.5,-32.92675 9.44328,-7.55194 32.29125,-22.74435 38.23576,-25.4243 l 4.17302,-1.8813 4.79561,4.02518 c 14.48898,12.16129 36.28081,37.25745 48.67815,56.05929 8.55638,12.97663 18.20123,31.20363 16.45406,31.09515 -0.73513,-0.0456 -4.68815,-1.83791 -8.78449,-3.98282 z M 575.25,407.44563 c -3.58943,-3.01415 -4.05992,-4.5587 -1.66821,-5.47648 2.71793,-1.04297 3.23018,-0.70676 4.42109,2.90173 1.65835,5.02487 0.95181,5.68569 -2.75288,2.57475 z"
         id="path4334"
         inkscape:connector-curvature="0" />
      <path
         style="fill:#48d9bb"
         d="m 482,970.77318 c -1.925,-0.21542 -8.45,-0.88216 -14.5,-1.48165 C 396.18529,962.22499 321.82039,934.20065 262.57039,892.064 225.29346,865.55388 186.83353,827.10477 160.36862,789.89099 123.06711,737.43927 96.671431,673.22232 86.57524,610.36216 c -4.641169,-28.8965 -5.0767,-35.03079 -5.040958,-71 0.03002,-30.21275 0.318829,-36.61256 2.324065,-51.5 C 93.04352,419.66885 115.39723,358.92115 151.73928,303.39118 182.24173,256.784 228.42184,210.60389 275.02902,180.10144 332.71828,142.34622 394.78703,120.16974 468,111.15503 c 16.59658,-2.04354 74.91968,-1.72223 92.5,0.50959 85.92755,10.90851 161.8717,43.28566 226.15053,96.41441 16.47044,13.61341 44.01919,41.16216 57.6326,57.6326 53.10926,64.25525 84.94997,138.8746 96.28701,225.65053 2.5251,19.32766 3.05155,65.22033 0.99554,86.78542 -8.49982,89.15283 -42.40382,171.24073 -98.3391,238.09731 C 772.66919,900.57852 676.18697,953.35176 565,968.42752 c -12.39022,1.67998 -21.92019,2.16541 -47.5,2.41949 -17.6,0.17481 -33.575,0.14159 -35.5,-0.0738 z m 61.56737,-126.93484 c 85.72688,-9.0026 163.09159,-53.17505 214.20645,-122.30416 3.12003,-4.21961 9.33702,-11.27202 13.81553,-15.67202 8.69597,-8.54352 11.84628,-14.43574 13.04021,-24.38989 0.30412,-2.53556 3.04892,-10.23511 6.09957,-17.11011 10.85564,-24.46453 19.08978,-53.11413 23.41474,-81.4685 2.89759,-18.99651 3.56566,-53.33545 1.43057,-73.5315 C 804.91161,408.50112 747.46511,321.82191 658.58891,272.4916 581.93088,229.94294 484.58511,223.52909 402,255.58565 360.44734,271.71489 325.36466,294.9052 293.93163,327.02085 237.38476,384.79574 207,459.36382 207,540.36216 c 0,69.7577 22.80988,135.46123 65.96112,190 10.53644,13.31699 35.42784,38.1968 48.9108,48.88802 45.40397,36.00279 99.68761,58.29707 157.12808,64.53249 17.23468,1.87091 47.03719,1.8966 64.56737,0.0557 z M 494,810.65552 C 421.67198,806.22809 351.46173,770.70831 304.67034,714.87254 271.39095,675.16053 250.53917,627.7167 243.35489,575.36216 c -2.35404,-17.15474 -2.35404,-52.84526 0,-70 6.91278,-50.37597 26.6846,-96.50999 58.28602,-136 7.6004,-9.49768 30.58343,-33 32.27085,-33 0.63329,0 1.08824,2.00823 1.08824,4.80366 0,3.15804 0.88307,6.57575 2.57775,9.97653 8.44812,16.95316 30.63257,19.1055 42.49875,4.12322 l 3.26552,-4.12305 6.07899,0.6315 c 37.54252,3.89997 67.38002,12.35927 99.07899,28.0901 14.82441,7.35672 33.5,18.64735 33.5,20.25296 0,0.45565 -2.49798,2.05357 -5.55106,3.55094 -8.34775,4.09412 -23.58832,13.92693 -34.88288,22.50551 -13.76619,10.45585 -36.34422,33.24826 -46.80115,47.24552 l -8.6338,11.55689 -9.44475,3.11999 c -16.71757,5.52251 -39.13844,15.87421 -51.87869,23.95237 -2.61878,1.66047 -2.86167,1.61978 -8.89047,-1.48951 -13.30766,-6.8633 -27.73392,-2.23237 -34.33945,11.02318 -10.42863,20.92754 12.2749,43.63107 33.20244,33.20244 5.89946,-2.93983 9.66558,-6.96285 12.50867,-13.36194 1.61826,-3.64227 1.86328,-5.73229 1.36419,-11.63647 l -0.60835,-7.19678 4.72765,-2.02262 c 11.77935,-5.03951 37.74485,-13.02057 38.83014,-11.93528 0.22585,0.22584 -1.55609,4.64517 -3.95986,9.82073 -10.13335,21.81814 -16.94318,44.84872 -20.71417,70.05453 -2.34455,15.67131 -2.96681,47.92758 -1.18097,61.21829 0.89219,6.63994 0.83856,6.94019 -1.65246,9.25 -1.41603,1.31301 -2.91762,2.38729 -3.33688,2.38729 -1.90447,0 -9.90527,12.73651 -11.74746,18.70083 -9.76468,31.61433 19.68322,61.05036 51.30428,51.28361 12.28653,-3.79493 22.87454,-14.38294 26.66947,-26.66947 C 455.41565,677.38002 434.64964,650.44591 406,651.51915 l -7.5,0.28096 0.30698,-8.46898 c 0.42971,-11.85506 3.63761,-33.28006 7.10738,-47.46897 7.3439,-30.03131 20.13471,-59.7698 36.63604,-85.17836 5.12856,-7.89692 5.47022,-8.20219 9.9279,-8.87066 2.5391,-0.38076 15.73271,-0.4619 29.31912,-0.18032 37.45823,0.77634 62.19885,5.68598 96.85697,19.22073 20.08364,7.8431 50.8315,24.73225 53.14776,29.19294 1.6057,3.09229 7.02889,27.24913 8.70118,38.75817 1.89809,13.06306 3.61285,39.72659 2.81229,43.72941 -0.4265,2.13251 -1.60382,3.3065 -4.69248,4.67925 -6.08776,2.70568 -10.14889,6.55614 -13.04539,12.36865 -10.42863,20.92754 12.2749,43.63107 33.20244,33.20244 13.24261,-6.59908 18.11426,-22.39479 10.77129,-34.92461 -2.76891,-4.72479 -9.17879,-10.11501 -13.24082,-11.13452 -2.75077,-0.6904 -2.72646,-0.20307 -0.69531,-13.93905 1.06335,-7.19111 1.64279,-18.1856 1.69565,-32.17407 0.0442,-11.6875 0.46971,-21.25 0.94565,-21.25 1.64519,0 25.27354,24.56253 33.68089,35.01251 8.85548,11.00698 22.88741,31.73645 25.10245,37.08404 1.17416,2.83467 1.10149,3.29641 -0.75088,4.77093 -4.17402,3.3226 -9.29212,11.40245 -11.26136,17.7781 -5.00024,16.18891 -0.2411,32.20323 13.18128,44.35442 l 3.86615,3.5 -9.41155,10.5 C 697.96564,738.75998 679.84653,754.24898 660.5,766.95391 611.78071,798.948 553.33736,814.28776 494,810.65552 Z m 262,-173.3239 c -6.83824,-2.29675 -15.9948,-2.45714 -22.91713,-0.40143 -2.90408,0.86242 -5.42165,1.42492 -5.5946,1.25 -0.17296,-0.17492 -1.73476,-3.91803 -3.47068,-8.31803 -12.70388,-32.20021 -39.7423,-69.88817 -66.09348,-92.1255 -6.45051,-5.44349 -8.13149,-7.45916 -8.99386,-10.78463 -6.4646,-24.92857 -22.82185,-59.63856 -37.50348,-79.58214 -2.51115,-3.41116 -4.34051,-6.42732 -4.06525,-6.70258 0.27526,-0.27527 3.11903,0.48297 6.31948,1.68496 8.08405,3.03613 21.6425,3.73615 30.75439,1.58784 21.26093,-5.01269 38.07691,-21.67831 43.01545,-42.63084 8.0465,-34.13851 -16.94172,-67.63722 -51.95084,-69.64425 -17.29448,-0.99148 -31.15969,4.32316 -43.51684,16.6803 -8.28375,8.28376 -13.22505,16.89909 -15.26186,26.60963 -0.85383,4.07069 -1.75471,5.88524 -3.20452,6.45451 -3.97539,1.56095 -19.33968,5.9527 -20.82519,5.9527 -0.8336,0 -6.16773,-2.96706 -11.85362,-6.59347 C 499.58875,354.46028 448.33029,340.65389 399.75,342.76685 l -14.75,0.64154 0,-4.32677 c 0,-9.20614 -7.51956,-19.00992 -17.25,-22.49004 -2.6125,-0.93437 -4.75,-1.95618 -4.75,-2.27069 0,-0.9926 24.10943,-14.69427 33.5,-19.03844 26.89287,-12.4409 55.19468,-20.45284 85,-24.06262 15.48569,-1.87549 49.87735,-1.60463 65.5,0.51586 51.16373,6.94457 96.79669,26.59253 137,58.98744 9.64291,7.77003 29.869,27.99612 37.63903,37.63903 54.57552,67.7303 73.8434,154.77016 52.79638,238.5 -3.83029,15.23777 -9.80505,31.96589 -11.48444,32.15412 -0.79804,0.0894 -3.92597,-0.66866 -6.95097,-1.68466 z M 611.57536,505.4841 C 610.47303,503.70048 585.05096,492.94202 571,488.31285 c -27.39696,-9.02607 -50.23349,-12.3197 -81.75102,-11.79063 -11.13806,0.18697 -20.25056,-0.0387 -20.25,-0.50147 0.002,-1.56639 21.68132,-22.26018 32.12329,-30.66282 10.64164,-8.56331 29.72931,-21.58334 38.05331,-25.95681 4.2115,-2.21274 4.93274,-2.31895 7.26634,-1.07004 4.73245,2.53273 31.98762,31.35181 40.8696,43.2147 14.19819,18.96331 29.3478,44.81638 26.26189,44.81638 -0.80046,0 -1.69958,-0.39513 -1.99805,-0.87806 z m -36.38569,-98.70164 c -2.68967,-1.88392 -2.86071,-4.4203 -0.29808,-4.4203 1.20645,0 2.12959,0.94826 2.54867,2.618 0.84362,3.36124 0.4384,3.68574 -2.25059,1.8023 z"
         id="path4332"
         inkscape:connector-curvature="0" />
      <path
         style="fill:#38d6b4"
         d="m 481,969.77213 c -1.925,-0.21484 -8.45,-0.88111 -14.5,-1.4806 C 409.96182,962.68919 348.52642,943.02563 299.39981,914.80796 248.54138,885.59557 201.12003,843.53465 166.48472,796.91739 120.03922,734.40425 93.915027,667.56926 83.792865,585.36216 c -0.842821,-6.84497 -1.2816,-22.85748 -1.260504,-46 0.02851,-31.2762 0.305029,-37.52267 2.324066,-52.5 7.899506,-58.599 25.463393,-111.63409 52.689993,-159.10019 C 171.14437,269.18821 220.20527,217.06141 276.5163,180.1076 333.82962,142.49604 393.51854,121.2028 467,112.15503 c 16.6715,-2.05276 76.89653,-1.72911 94.5,0.50785 100.39229,12.75733 184.59698,53.64858 254.57384,123.62544 69.97139,69.97139 110.23785,152.81047 123.50033,254.07384 2.52837,19.3049 3.06097,67.05215 0.99036,88.78542 -7.49798,78.6995 -33.70194,149.15796 -78.88004,212.0964 -25.85382,36.01743 -62.8528,73.01915 -98.79535,98.80267 C 704.03509,932.26582 640.20822,957.35206 566,967.43112 c -12.52409,1.70104 -21.83581,2.16537 -48.5,2.41843 -18.15,0.17227 -34.575,0.13743 -36.5,-0.0774 z M 549.63082,843.9097 C 606.1733,836.714 658.39538,814.74856 703,779.40017 c 14.54796,-11.52901 39.72605,-37.18265 50.50215,-51.45601 4.94882,-6.5549 12.6665,-15.5549 17.15041,-20 9.42252,-9.34096 12.57858,-14.95125 14.71479,-26.15734 0.83087,-4.35856 3.2916,-11.74966 5.4683,-16.42466 8.30573,-17.83866 16.31113,-42.39895 20.53478,-63 4.68183,-22.83579 5.96994,-35.82585 6.04885,-61 0.0955,-30.45903 -2.18418,-49.44367 -9.3061,-77.5 C 782.48751,362.91143 705.07708,280.84455 605.5,249.06126 512.03526,219.22891 409.89434,235.83246 331,293.68268 c -30.96232,22.7035 -59.13617,53.19149 -79.29333,85.80633 -62.64231,101.35695 -60.50181,230.89895 5.45069,329.87315 13.37018,20.06448 20.77335,29.04691 38.78454,47.0581 18.01119,18.01119 26.99362,25.41436 47.0581,38.78454 40.58646,27.04521 88.28488,44.31866 135.5,49.06981 6.05,0.60879 12.575,1.28853 14.5,1.51053 7.35283,0.84794 45.0375,-0.40006 56.63082,-1.87544 z M 489.5,809.68015 c -82.65415,-7.14559 -156.25504,-50.51932 -202.47071,-119.31799 -27.90917,-41.54681 -43.19413,-89.73851 -44.72098,-141 -1.76294,-59.18819 12.93322,-111.03556 45.21036,-159.5 10.37188,-15.57349 19.07985,-26.13203 33.40164,-40.5 l 12.45982,-12.5 0.80647,5.28303 c 2.21726,14.52507 12.08552,23.54634 25.8134,23.59788 5.33438,0.02 7.47415,-0.50508 11.93233,-2.92825 3.02261,-1.6429 6.57131,-4.59928 8,-6.66471 2.31354,-3.34465 3.01305,-3.71399 7.06767,-3.73168 2.475,-0.0108 9.225,0.64682 15,1.46137 31.15008,4.39364 56.44985,12.01938 84.31685,25.41442 10.29143,4.94686 31.04442,17.011 33.53434,19.49421 1.13393,1.13087 -0.23282,2.23896 -8.5,6.89137 -29.5175,16.61119 -56.74416,40.47366 -77.62766,68.03581 l -8.22353,10.85345 -11,3.73679 c -16.99485,5.77328 -33.45719,13.27172 -46.85188,21.34058 l -5.75387,3.46609 -5.67126,-3.07169 c -17.37402,-9.41017 -37.65308,2.61351 -37.64701,22.32133 0.005,14.66468 10.72708,25.36043 25.42402,25.36043 10.18254,0 18.09002,-4.70004 22.47798,-13.36043 2.96309,-5.84817 3.86139,-11.53443 2.66403,-16.86348 l -0.96266,-4.28447 4.66033,-2.00325 c 12.22945,-5.25683 36.62059,-12.72186 37.77977,-11.56268 0.28133,0.28132 -0.92011,3.3475 -2.66985,6.81372 -7.27989,14.42138 -14.61594,36.25658 -18.88347,56.20523 -4.69693,21.95592 -6.43175,54.13257 -4.04276,74.98367 l 1.00695,8.78873 -5.99746,5.55259 c -10.43787,9.66362 -15.58554,23.91904 -13.22356,36.61994 4.23783,22.78784 25.83353,38.6596 47.4407,34.86653 17.9268,-3.14698 31.58929,-16.84524 34.97856,-35.07011 2.88524,-15.51459 -6.53468,-34.45249 -21.07292,-42.36519 -7.19401,-3.91547 -16.51443,-6.03316 -23.39028,-5.31449 L 399,651.3315 l 0,-4.2408 c 0,-13.78137 5.52695,-45.96772 11.02039,-64.1776 7.39914,-24.52693 20.69922,-53.56334 32.7738,-71.55094 l 5.70581,-8.5 8.5,-0.80146 c 11.14941,-1.05127 39.63632,-0.12573 53.5,1.73822 39.71297,5.33934 76.0581,18.02937 109,38.05774 6.05,3.67834 11.17662,6.86098 11.39249,7.07252 0.93608,0.91732 6.20968,23.3207 8.03269,34.12458 2.32103,13.75535 4.05141,32.42305 4.06075,43.8084 l 0.007,8 -4.57687,1.8824 c -10.17155,4.18341 -15.83765,12.63288 -15.83765,23.6176 0,14.66366 10.72605,25.3629 25.42202,25.35847 14.72658,-0.004 25.32817,-10.61805 25.3861,-25.4149 0.0418,-10.67172 -4.49281,-17.25463 -16.84873,-24.45946 -1.65197,-0.96328 -1.65533,-1.79193 -0.065,-16 1.1252,-10.05245 1.57032,-20.66196 1.35242,-32.23542 -0.17865,-9.48822 -0.0621,-17.25072 0.2589,-17.25 1.34426,0.003 17.24163,15.61513 25.14787,24.69662 C 697.40116,611.33335 717,639.36441 717,643.35443 c 0,0.70624 -1.84032,3.28058 -4.08959,5.72075 -8.03172,8.71339 -12.25619,22.96069 -10.0562,33.91523 1.77624,8.84458 5.54823,15.92256 12.14834,22.79589 l 6.06255,6.31352 -8.87955,9.88117 c -44.6499,49.68645 -106.46072,80.53207 -175.0415,87.35142 -9.54911,0.94952 -38.25929,1.15906 -47.64405,0.34774 z M 758,637.28501 c -8.41667,-3.31089 -16.97814,-3.41311 -27.75627,-0.33142 -1.98758,0.56829 -2.51897,0.006 -4.46232,-4.72316 -4.09558,-9.96628 -14.5606,-30.53759 -19.82998,-38.98018 -12.15862,-19.48054 -29.66036,-40.27154 -45.64295,-54.22103 l -9.80848,-8.56077 -2.29442,-8.21541 c -6.12576,-21.93392 -18.49408,-48.63655 -31.65875,-68.3498 -4.67939,-7.00708 -7.82504,-12.47808 -6.99032,-12.15777 7.32425,2.81058 14.01105,4.00333 22.44349,4.00333 16.39232,0 28.79124,-5.16754 40.50517,-16.88147 11.72999,-11.72998 16.89484,-24.13605 16.86298,-40.50517 -0.0102,-5.225 -0.5832,-11.525 -1.2734,-14 -5.54271,-19.8758 -21.09243,-35.81235 -40.59475,-41.60461 -8.05537,-2.39248 -22.94463,-2.39248 -31,0 -19.84222,5.89322 -36.31347,23.0066 -40.6064,42.18947 -0.69142,3.08957 -1.73783,5.7504 -2.32536,5.91294 -0.58753,0.16255 -5.64665,1.69754 -11.24248,3.4111 l -10.17424,3.11557 -9.32576,-6.09086 c -19.04104,-12.43611 -47.3983,-24.95455 -71.10707,-31.39054 -20.38882,-5.53475 -32.17454,-6.90845 -59.87098,-6.97834 l -25.65229,-0.0647 -0.65034,-4.8871 c -0.75292,-5.65794 -4.3106,-13.16986 -7.69609,-16.25005 -2.82254,-2.56802 -10.16382,-6.36288 -12.30915,-6.36288 -3.0943,0 -1.32721,-1.6113 7.47724,-6.81803 23.41151,-13.84499 54.10575,-26.10948 79.17773,-31.63702 23.17722,-5.10982 31.46448,-5.9256 60.30519,-5.93631 23.08145,-0.009 28.93187,0.30749 40.31115,2.17769 59.5666,9.78987 108.88146,34.78474 150.24962,76.1529 41.39357,41.39357 66.93678,91.89943 76.14572,150.56077 2.8828,18.36353 3.1543,60.65487 0.49949,77.80519 -2.45112,15.83448 -6.37705,32.5622 -10.87804,46.34946 -5.07034,15.53127 -5.07146,15.53264 -10.82794,13.2682 z M 600.5,499.3391 c -13.51395,-6.58771 -33.8458,-13.74513 -49.5,-17.4255 -20.46927,-4.81241 -31.8227,-6.01091 -57.14008,-6.03187 l -23.64008,-0.0196 1.93739,-2.7208 c 2.67542,-3.75729 20.50854,-20.21218 31.15408,-28.74634 9.82464,-7.87607 22.47698,-16.54244 33.49407,-22.94215 l 7.30537,-4.24361 3.19463,2.43705 c 6.102,4.65499 25.93227,25.18684 33.97096,35.17283 12.21387,15.17258 34.80733,50.74847 32.04371,50.45634 C 612.86902,505.22775 607.1,502.5564 600.5,499.33907 Z m -25.88264,-93.84725 c -1.47117,-1.62563 -1.50007,-1.96072 -0.21172,-2.45511 0.93647,-0.35935 1.7312,0.18119 2.13447,1.45181 0.89371,2.81583 0.0948,3.23269 -1.92275,1.0033 z"
         id="path4330"
         inkscape:connector-curvature="0" />
      <path
         style="fill:#35d6b6"
         d="M 491.5,809.32343 C 437.04387,804.87082 385.54136,784.54646 343,750.72109 c -10.86821,-8.6415 -32.62299,-30.38194 -41.38621,-41.35893 -53.25825,-66.71239 -71.89116,-154.3944 -50.47006,-237.5 11.67286,-45.28623 36.31052,-88.09096 70.22107,-122 l 12.00053,-12 0.79737,5.87808 c 2.31802,17.08801 18.47465,26.7129 35.24752,20.99781 4.60213,-1.5681 11.21517,-6.90881 13.27961,-10.72465 0.96453,-1.78281 1.47846,-1.79052 14.40519,-0.2162 40.51478,4.93422 75.99534,17.13797 111.12379,38.22169 5.89534,3.53832 10.95431,6.81437 11.24215,7.2801 0.28784,0.46573 -3.63563,3.20574 -8.71881,6.08891 -32.42498,18.39135 -62.47147,45.48358 -81.74215,73.70502 -2.86782,4.19986 -4.3128,5.35307 -8,6.3847 -13.45966,3.76585 -36.43964,13.747 -51.37062,22.31237 l -7.87062,4.5151 -4.41918,-2.58981 c -5.19627,-3.04522 -14.67392,-4.16232 -20.93546,-2.4676 -5.77735,1.56367 -11.81334,6.25024 -14.9556,11.61212 -3.14243,5.36215 -4.28234,14.74572 -2.563,21.09824 2.71417,10.02815 11.67624,17.28203 22.40428,18.13399 11.27863,0.89569 20.09387,-3.42203 25.39334,-12.43771 2.48964,-4.23547 2.82713,-5.82343 2.90531,-13.66968 l 0.0884,-8.87752 5.86125,-2.38462 c 8.54143,-3.475 30.04881,-10.36034 32.36214,-10.36034 1.81807,0 1.61384,0.83805 -2.42325,9.94338 -16.97859,38.29389 -24.45249,80.05874 -21.50926,120.19584 l 1.14682,15.63922 -5.53481,5.23459 C 370.27337,670.17677 366,679.92797 366,692.36216 c 0,11.76886 3.60336,20.63782 11.90269,29.29618 8.1798,8.53366 18.05957,12.70382 30.09731,12.70382 12.03774,0 21.91751,-4.17016 30.09731,-12.70382 C 446.39664,712.99998 450,704.13102 450,692.36216 c 0,-12.03774 -4.17016,-21.91751 -12.70382,-30.09731 -9.15716,-8.77745 -18.3517,-12.27859 -30.807,-11.73083 l -7.46141,0.32814 0.55945,-7 c 3.84695,-48.1342 17.4044,-89.84754 42.13386,-129.63683 6.5533,-10.54414 6.64988,-10.64217 11.08448,-11.25 8.44192,-1.15709 40.71149,-0.61261 53.69339,0.90597 41.00652,4.79679 80.63831,18.5425 114.62838,39.7572 l 9.63906,6.01616 2.06509,7.60375 C 638.41515,577.81777 642,603.51498 642,622.98103 l 0,12.13113 -2.75,0.55105 c -8.34852,1.67289 -16.17097,11.80288 -16.97987,21.98875 -0.88835,11.18624 3.42877,20.10528 12.22751,25.26168 5.36215,3.14243 14.74572,4.28234 21.09824,2.563 10.02815,-2.71417 17.28203,-11.67624 18.13399,-22.40428 0.92066,-11.59311 -3.78985,-20.71311 -13.22987,-25.61426 -2.75,-1.42777 -5.11209,-2.63303 -5.24909,-2.67836 -0.137,-0.0453 0.48354,-4.99533 1.37897,-11 1.0509,-7.04726 1.67096,-18.23449 1.74909,-31.55747 l 0.12103,-20.63989 2.5,1.79668 c 3.17689,2.28313 17.86726,17.48683 25.10585,25.9831 9.90342,11.62412 20.45086,26.36299 27.83696,38.89904 l 3.18105,5.39905 -3.90804,4.10095 C 705.62014,655.73184 702,664.96338 702,676.36216 c 0,12.17013 3.58671,20.66116 12.70975,30.08857 l 5.40815,5.58856 -8.3828,9.41144 c -36.65392,41.15164 -88.00838,70.71048 -143.80567,82.77234 -21.6431,4.67865 -54.64902,6.88123 -76.42943,5.10036 z M 757,636.26681 c -6.65664,-2.15731 -18.01895,-2.4052 -24.25274,-0.5291 l -4.5706,1.37555 -1.75225,-4.62555 c -12.50586,-33.01273 -39.08305,-70.93995 -66.26064,-94.55782 -8.36095,-7.26584 -9.25721,-8.40004 -10.66785,-13.5 -5.97766,-21.61132 -18.95467,-50.32531 -31.21448,-69.06773 -3.77754,-5.775 -7.15778,-10.97349 -7.51163,-11.55221 -0.36926,-0.60393 2.20544,-0.30896 6.04342,0.69236 37.15068,9.69251 73.15721,-17.93855 73.15721,-56.14015 0,-15.77353 -5.83663,-29.88666 -16.96021,-41.01023 -27.90587,-27.90588 -75.26077,-20.37676 -92.77597,14.75077 -2.25988,4.5323 -4.41848,10.30514 -4.79689,12.82854 -0.78042,5.20421 -0.35856,4.93554 -14.12996,8.99872 l -9.19259,2.71222 -9.80741,-6.36285 c -40.83747,-26.49451 -92.16266,-40.51595 -141.4258,-38.63586 l -14.6184,0.5579 -0.56422,-5.46676 c -0.33507,-3.24654 -1.63407,-7.29233 -3.19847,-9.96177 -2.89792,-4.94493 -9.46523,-10.25094 -13.75052,-11.10963 -1.5125,-0.30308 -2.75,-0.92739 -2.75,-1.38736 0,-0.45997 3.86615,-3.11987 8.59144,-5.91089 62.72108,-37.04652 136.15222,-47.12982 207.25442,-28.45942 34.63775,9.09536 70.53362,27.22189 99.15414,50.07041 10.92215,8.71944 32.66677,30.46406 41.38621,41.38621 22.93375,28.7273 41.49908,65.69605 50.47006,100.5 11.52557,44.71473 11.61141,91.64049 0.24797,135.55463 -3.0062,11.6175 -8.74758,28.95624 -9.9468,30.03893 -0.36159,0.32646 -3.13244,-0.20855 -6.15744,-1.18891 z M 608.5,502.4426 c -14.3183,-7.90093 -40.14816,-17.20159 -59.93006,-21.57926 -19.12787,-4.23293 -33.14341,-5.66682 -55.81994,-5.71076 -11.4125,-0.0221 -20.75,-0.39303 -20.75,-0.82424 0,-1.2573 20.66592,-20.50981 30.62852,-28.53373 10.62542,-8.55776 25.00809,-18.45647 34.64531,-23.84426 8.24285,-4.60824 6.86183,-5.26833 23.35254,11.16178 13.96667,13.91533 25.06204,27.40696 35.65348,43.35353 7.48448,11.26869 16.29116,26.70443 15.58498,27.31627 -0.20066,0.17385 -1.71483,-0.42885 -3.36483,-1.33933 z m -34,-98.08044 c -0.33992,-0.55 -0.14148,-1 0.44098,-1 0.58246,0 1.05902,0.45 1.05902,1 0,0.55 -0.19844,1 -0.44098,1 -0.24254,0 -0.7191,-0.45 -1.05902,-1 z"
         id="path4328"
         inkscape:connector-curvature="0" />
    </g>
  </g>
</svg>
