<?xml version="1.0" encoding="UTF-8" standalone="no"?>
<!-- Created with Inkscape (http://www.inkscape.org/) -->

<svg
   xmlns:dc="http://purl.org/dc/elements/1.1/"
   xmlns:cc="http://creativecommons.org/ns#"
   xmlns:rdf="http://www.w3.org/1999/02/22-rdf-syntax-ns#"
   xmlns:svg="http://www.w3.org/2000/svg"
   xmlns="http://www.w3.org/2000/svg"
   xmlns:sodipodi="http://sodipodi.sourceforge.net/DTD/sodipodi-0.dtd"
   xmlns:inkscape="http://www.inkscape.org/namespaces/inkscape"
   width="16"
   height="16"
   viewBox="0 0 16.000001 16.000001"
   id="svg4470"
   version="1.1"
   inkscape:version="0.91 r13725"
   sodipodi:docname="battery-090.svg">
  <defs
     id="defs4472" />
  <sodipodi:namedview
     id="base"
     pagecolor="#ffffff"
     bordercolor="#666666"
     borderopacity="1.0"
     inkscape:pageopacity="0.0"
     inkscape:pageshadow="2"
     inkscape:zoom="109.8125"
     inkscape:cx="8"
     inkscape:cy="8.0091057"
     inkscape:document-units="px"
     inkscape:current-layer="layer1"
     showgrid="false"
     units="px"
     inkscape:window-width="1920"
     inkscape:window-height="1080"
     inkscape:window-x="0"
     inkscape:window-y="0"
     inkscape:window-maximized="1" />
  <metadata
     id="metadata4475">
    <rdf:RDF>
      <cc:Work
         rdf:about="">
        <dc:format>image/svg+xml</dc:format>
        <dc:type
           rdf:resource="http://purl.org/dc/dcmitype/StillImage" />
        <dc:title></dc:title>
      </cc:Work>
    </rdf:RDF>
  </metadata>
  <g
     inkscape:label="Layer 1"
     inkscape:groupmode="layer"
     id="layer1"
     transform="translate(0,-1036.3622)">
    <g
       id="g4489"
       transform="matrix(0.015625,0,0,0.015625,-4.723215,1031.1333)">
      <path
         style="fill:#fdfdfd"
         d="m 302.28571,846.64792 0,-512 512,0 511.99999,0 0,512 0,511.99998 -511.99999,0 -512,0 0,-511.99998 z"
         id="path4505"
         inkscape:connector-curvature="0" />
      <path
         style="fill:#fae6e9"
         d="m 580.48571,1313.4479 c -1.7492,-1.7492 -1.7492,-838.85078 0,-840.59998 0.9092,-0.9092 17.26667,-1.2 67.5,-1.2 l 66.3,0 0,-45.3 c 0,-33.9 0.30199,-45.60199 1.2,-46.5 1.74019,-1.74019 191.85981,-1.74019 193.6,0 0.89801,0.89801 1.2,12.6 1.2,46.5 l 0,45.3 68.3,0 c 51.78889,0 68.59009,0.29009 69.49999,1.2 1.7492,1.7492 1.7492,838.85078 0,840.59998 -1.747,1.7471 -465.85293,1.7471 -467.59999,0 z m 370.8,-420.29998 0,-323.5 -137,0 -137,0 0,323.5 0,323.49998 137,0 137,0 0,-323.49998 z M 719.85714,1127.0765 c -1.42038,-1.4204 -1.57143,-26.1528 -1.57143,-257.30001 0,-197.56667 0.27292,-256.00149 1.2,-256.92857 1.73994,-1.73994 187.86006,-1.73994 189.6,0 0.92708,0.92708 1.2,59.3619 1.2,256.92857 0,231.14721 -0.15105,255.87961 -1.57143,257.30001 -1.40601,1.406 -11.34632,1.5714 -94.42857,1.5714 -83.08225,0 -93.02256,-0.1654 -94.42857,-1.5714 z"
         id="path4503"
         inkscape:connector-curvature="0" />
      <path
         style="fill:#f4bac2"
         d="m 580.74935,1312.4 c -0.26136,-0.6886 -0.3601,-189.8021 -0.21942,-420.25208 l 0.25578,-419 67.24002,-0.25703 67.24002,-0.25704 0.25998,-46.24296 0.25998,-46.24297 96.5,0 96.5,0 0.25998,46.24316 0.25999,46.24316 69.24001,0.25684 69.24001,0.25684 0,420 0,419.99998 -233.28056,0.2521 c -186.09996,0.2012 -233.37669,0 -233.75579,-1 z m 371.53636,-419.25208 0,-324.5 -138,0 -138,0 0,324.5 0,324.49998 138,0 138,0 0,-324.49998 z M 720.40622,1126.2931 c -0.82749,-0.997 -1.05785,-68.9215 -0.87244,-257.24997 l 0.25193,-255.89521 94.5,0 94.5,0 0.25193,255.89521 c 0.18541,188.32847 -0.0449,256.25297 -0.87244,257.24997 -0.9311,1.1219 -17.06905,1.3548 -93.87949,1.3548 -76.81044,0 -92.94839,-0.2329 -93.87949,-1.3548 z"
         id="path4501"
         inkscape:connector-curvature="0" />
      <path
         style="fill:#f1b1ba"
         d="m 581.85714,1312.0765 c -1.42355,-1.4236 -1.57143,-40.8463 -1.57143,-418.92858 0,-378.08225 0.14788,-417.50502 1.57143,-418.92857 1.39679,-1.39679 8.89827,-1.57143 67.5,-1.57143 l 65.92857,0 0,-44.92857 c 0,-39.51082 0.18949,-45.11806 1.57143,-46.5 1.40625,-1.40625 11.43723,-1.57143 95.42857,-1.57143 83.99134,0 94.02232,0.16518 95.42857,1.57143 1.38194,1.38194 1.57143,6.98918 1.57143,46.5 l 0,44.92857 67.92857,0 c 60.41992,0 68.10232,0.1737 69.50002,1.57143 1.4235,1.42355 1.5714,40.84632 1.5714,418.92857 0,378.08228 -0.1479,417.50498 -1.5714,418.92858 -1.4195,1.4195 -23.8918,1.5714 -232.42859,1.5714 -208.5368,0 -231.00908,-0.1519 -232.42857,-1.5714 z m 370.42857,-418.92858 0,-324.5 -138,0 -138,0 0,324.5 0,324.49998 138,0 138,0 0,-324.49998 z M 722.13834,1126.9861 c -0.90606,-0.2449 -1.91242,-1.4337 -2.23635,-2.6417 -0.32393,-1.2081 -0.59512,-116.1268 -0.60263,-255.37505 -0.0123,-228.84066 0.13741,-253.32963 1.55778,-254.75 1.40576,-1.40576 11.25541,-1.57143 93.42857,-1.57143 82.3153,0 92.02098,0.16383 93.43432,1.57718 1.42934,1.42934 1.55321,25.46609 1.32143,256.4167 -0.14066,140.1617 -0.63065,255.2145 -1.08886,255.6728 -0.84075,0.841 -182.75552,1.4984 -185.81426,0.6715 z"
         id="path4499"
         inkscape:connector-curvature="0" />
      <path
         style="fill:#e96f80"
         d="m 581.74936,1311.4 c -0.26137,-0.6886 -0.36011,-189.3521 -0.21943,-419.25208 l 0.25578,-418 67,-0.5 67,-0.5 0.5,-46 0.5,-46 95.5,0 95.5,0 0.5,46 0.5,46 69,0.5 68.99999,0.5 0,419 0,418.99998 -232.28056,0.2521 c -185.29995,0.2012 -232.37669,0 -232.75578,-1 z m 371.03635,-418.25208 0,-325 -138.5,0 -138.5,0 -0.25597,324 c -0.14078,178.19998 -0.0418,324.56408 0.21997,325.25348 0.37894,0.9981 28.65792,1.2019 138.75597,1 l 138.28003,-0.2535 0,-324.99998 z M 720.75012,1125.4031 c -0.26223,-0.6904 -0.3615,-116.0052 -0.22059,-256.25518 l 0.25618,-255 93.5,0 93.5,0 0,256 0,255.99998 -93.27941,0.2552 c -74.09582,0.2027 -93.37745,0 -93.75618,-1 z"
         id="path4497"
         inkscape:connector-curvature="0" />
      <path
         style="fill:#e55a6d"
         d="m 582.28571,893.14792 0,-418.5 66.3,0 c 50.23333,0 66.5908,-0.2908 67.5,-1.2 0.89801,-0.89801 1.2,-12.6 1.2,-46.5 l 0,-45.3 95,0 95,0 0,45.3 c 0,33.9 0.30199,45.60199 1.2,46.5 0.90991,0.90991 17.71111,1.2 69.5,1.2 l 68.29999,0 0,418.5 0,418.49998 -231.99999,0 -232,0 0,-418.49998 z m 370.8,325.29998 c 1.74842,-1.7484 1.74842,-648.85156 0,-650.59998 -1.74376,-1.74376 -275.85624,-1.74376 -277.6,0 -1.74842,1.74842 -1.74842,648.85158 0,650.59998 1.74376,1.7438 275.85624,1.7438 277.6,0 z m -231.8,-348.29998 0,-255.5 93,0 93,0 0,255.5 0,255.49998 -93,0 -93,0 0,-255.49998 z"
         id="path4495"
         inkscape:connector-curvature="0" />
      <path
         style="fill:#e03a51"
         d="m 582.74936,1310.4001 c -0.26137,-0.6887 -0.36012,-188.9022 -0.21943,-418.25218 l 0.25578,-417 67,-0.5 67,-0.5 0.5,-46 0.5,-46 94.5,0 94.5,0 0.5,46 0.5,46 69,0.5 68.99999,0.5 0,418 0,417.99998 -231.28056,0.2522 c -184.49993,0.2011 -231.37669,-10e-4 -231.75578,-1 z m 371.03635,-417.25218 0,-326 -139.5,0 -139.5,0 -0.25596,325 c -0.14078,178.74998 -0.0418,325.56408 0.21995,326.25348 0.37894,0.9981 28.85789,1.2019 139.75597,1 l 139.28004,-0.2535 0,-325.99998 z M 721.75014,1124.4031 c -0.26225,-0.6903 -0.36152,-115.5552 -0.22062,-255.25518 l 0.25619,-254 92.5,0 92.5,0 0,255 0,254.99998 -92.27938,0.2552 c -73.29575,0.2027 -92.37748,0 -92.75619,-1 z"
         id="path4493"
         inkscape:connector-curvature="0" />
      <path
         style="fill:#de243e"
         d="m 583.28571,893.14792 0,-417.5 66.3,0 c 50.23333,0 66.5908,-0.2908 67.5,-1.2 0.89801,-0.89801 1.2,-12.6 1.2,-46.5 l 0,-45.3 94,0 94,0 0,45.3 c 0,33.9 0.30199,45.60199 1.2,46.5 0.90991,0.90991 17.71111,1.2 69.5,1.2 l 68.29999,0 0,417.5 0,417.49998 -230.99999,0 -231,0 0,-417.49998 z m 370.8,326.29998 c 1.74843,-1.7484 1.74843,-650.85155 0,-652.59998 -1.74381,-1.74381 -277.85619,-1.74381 -279.6,0 -1.74843,1.74843 -1.74843,650.85158 0,652.59998 1.74381,1.7438 277.85619,1.7438 279.6,0 z m -231.8,-349.29998 0,-254.5 92,0 92,0 0,254.5 0,254.49998 -92,0 -92,0 0,-254.49998 z"
         id="path4491"
         inkscape:connector-curvature="0" />
    </g>
  </g>
</svg>
