<?xml version="1.0" encoding="UTF-8" standalone="no"?>
<!-- Created with Inkscape (http://www.inkscape.org/) -->

<svg
   xmlns:dc="http://purl.org/dc/elements/1.1/"
   xmlns:cc="http://creativecommons.org/ns#"
   xmlns:rdf="http://www.w3.org/1999/02/22-rdf-syntax-ns#"
   xmlns:svg="http://www.w3.org/2000/svg"
   xmlns="http://www.w3.org/2000/svg"
   xmlns:sodipodi="http://sodipodi.sourceforge.net/DTD/sodipodi-0.dtd"
   xmlns:inkscape="http://www.inkscape.org/namespaces/inkscape"
   width="32"
   height="32"
   viewBox="0 0 32.000001 32.000001"
   id="svg4068"
   version="1.1"
   inkscape:version="0.91 r13725"
   sodipodi:docname="battery-020.svg">
  <defs
     id="defs4070" />
  <sodipodi:namedview
     id="base"
     pagecolor="#ffffff"
     bordercolor="#666666"
     borderopacity="1.0"
     inkscape:pageopacity="0.0"
     inkscape:pageshadow="2"
     inkscape:zoom="0.35"
     inkscape:cx="375"
     inkscape:cy="520"
     inkscape:document-units="px"
     inkscape:current-layer="layer1"
     showgrid="false"
     units="px"
     inkscape:window-width="1920"
     inkscape:window-height="1080"
     inkscape:window-x="0"
     inkscape:window-y="0"
     inkscape:window-maximized="1" />
  <metadata
     id="metadata4073">
    <rdf:RDF>
      <cc:Work
         rdf:about="">
        <dc:format>image/svg+xml</dc:format>
        <dc:type
           rdf:resource="http://purl.org/dc/dcmitype/StillImage" />
        <dc:title></dc:title>
      </cc:Work>
    </rdf:RDF>
  </metadata>
  <g
     inkscape:label="Layer 1"
     inkscape:groupmode="layer"
     id="layer1"
     transform="translate(0,-1020.3622)">
    <g
       id="g4087"
       transform="matrix(0.03125,0,0,0.03125,-9,1010.1723)">
      <path
         style="fill:#fdfdfd"
         d="m 288,838.07648 0,-512 512,0 512,0 0,512 0,512.00002 -512,0 -512,0 0,-512.00002 z"
         id="path4103"
         inkscape:connector-curvature="0" />
      <path
         style="fill:#fae6e9"
         d="m 566.2,1304.8765 c -1.7492,-1.7492 -1.7492,-838.85082 0,-840.60002 0.9092,-0.9092 17.26667,-1.2 67.5,-1.2 l 66.3,0 0,-45.3 c 0,-33.9 0.30199,-45.60199 1.2,-46.5 1.74019,-1.74019 191.85981,-1.74019 193.6,0 0.89801,0.89801 1.2,12.6 1.2,46.5 l 0,45.3 68.3,0 c 51.7889,0 68.5901,0.29009 69.5,1.2 1.7492,1.7492 1.7492,838.85082 0,840.60002 -1.7471,1.747 -465.85294,1.747 -467.6,0 z M 937,884.57648 l 0,-323.5 -137,0 -137,0 0,323.5 0,323.50002 137,0 137,0 0,-323.50002 z m -231.8,-184.7 c -1.7279,-1.7279 -1.7279,-93.8721 0,-95.6 1.73994,-1.73994 187.86006,-1.73994 189.6,0 1.7279,1.7279 1.7279,93.8721 0,95.6 -1.73994,1.73994 -187.86006,1.73994 -189.6,0 z"
         id="path4101"
         inkscape:connector-curvature="0" />
      <path
         style="fill:#f4bac2"
         d="m 566.46364,1303.8286 c -0.26136,-0.6887 -0.3601,-189.8021 -0.21942,-420.25212 l 0.25578,-419 67.24002,-0.25703 67.24002,-0.25704 0.25998,-46.24296 0.25998,-46.24297 96.5,0 96.5,0 0.25998,46.24316 0.25999,46.24316 69.24001,0.25684 69.24002,0.25684 0,420 0,420.00002 -233.28057,0.2521 c -186.09996,0.2011 -233.37669,-10e-4 -233.75579,-1 z M 938,884.57648 l 0,-324.5 -138,0 -138,0 0,324.5 0,324.50002 138,0 138,0 0,-324.50002 z M 705.46,698.83159 c -0.26463,-0.69031 -0.36389,-22.18011 -0.22057,-47.75511 l 0.26057,-46.5 94.5,0 94.5,0 0,47.5 0,47.5 -94.27943,0.25511 c -74.89404,0.20265 -94.37835,-0.003 -94.76057,-1 z"
         id="path4099"
         inkscape:connector-curvature="0" />
      <path
         style="fill:#f1b1ba"
         d="M 567.57143,1303.5051 C 566.14788,1302.0815 566,1262.6587 566,884.57648 c 0,-378.08225 0.14788,-417.50502 1.57143,-418.92857 1.39679,-1.39679 8.89827,-1.57143 67.5,-1.57143 l 65.92857,0 0,-44.92857 c 0,-39.51082 0.18949,-45.11806 1.57143,-46.5 1.40625,-1.40625 11.43723,-1.57143 95.42857,-1.57143 83.99134,0 94.02232,0.16518 95.42857,1.57143 1.38194,1.38194 1.57143,6.98918 1.57143,46.5 l 0,44.92857 67.92857,0 c 60.41993,0 68.10223,0.1737 69.50003,1.57143 1.4235,1.42355 1.5714,40.84632 1.5714,418.92857 0,378.08222 -0.1479,417.50502 -1.5714,418.92862 -1.4195,1.4195 -23.8918,1.5714 -232.4286,1.5714 -208.5368,0 -231.00908,-0.1519 -232.42857,-1.5714 z M 938,884.57648 l 0,-324.5 -138,0 -138,0 0,324.5 0,324.50002 138,0 138,0 0,-324.50002 z M 706.57143,698.50505 C 705.18957,697.12319 705,691.52237 705,652.07648 c 0,-39.44589 0.18957,-45.04671 1.57143,-46.42857 1.40576,-1.40576 11.25541,-1.57143 93.42857,-1.57143 82.17316,0 92.02281,0.16567 93.42857,1.57143 1.38186,1.38186 1.57143,6.98268 1.57143,46.42857 0,39.44589 -0.18957,45.04671 -1.57143,46.42857 -1.40576,1.40576 -11.25541,1.57143 -93.42857,1.57143 -82.17316,0 -92.02281,-0.16567 -93.42857,-1.57143 z"
         id="path4097"
         inkscape:connector-curvature="0" />
      <path
         style="fill:#e96f80"
         d="m 567.46365,1302.8286 c -0.26137,-0.6887 -0.36011,-189.3521 -0.21943,-419.25212 l 0.25578,-418 67,-0.5 67,-0.5 0.5,-46 0.5,-46 95.5,0 95.5,0 0.5,46 0.5,46 69,0.5 69,0.5 0,419 0,419.00002 -232.28057,0.2521 c -185.29995,0.2011 -232.37669,-10e-4 -232.75578,-1 z M 938.5,884.57648 l 0,-325 -138.5,0 -138.5,0 -0.25597,324 c -0.14078,178.20002 -0.0418,324.56412 0.21997,325.25352 0.37894,0.9981 28.65792,1.2019 138.75597,1 l 138.28003,-0.2535 0,-325.00002 z M 706.45991,697.83164 c -0.2647,-0.69034 -0.36397,-21.73016 -0.22059,-46.75516 l 0.26068,-45.5 93.5,0 93.5,0 0,46.5 0,46.5 -93.27941,0.25516 c -74.09392,0.20268 -93.37839,-0.003 -93.76068,-1 z"
         id="path4095"
         inkscape:connector-curvature="0" />
      <path
         style="fill:#e5596d"
         d="m 568,884.57648 0,-418.5 66.3,0 c 50.23333,0 66.5908,-0.2908 67.5,-1.2 0.89801,-0.89801 1.2,-12.6 1.2,-46.5 l 0,-45.3 95,0 95,0 0,45.3 c 0,33.9 0.30199,45.60199 1.2,46.5 0.90991,0.90991 17.71111,1.2 69.5,1.2 l 68.3,0 0,418.5 0,418.50002 -232,0 -232,0 0,-418.50002 z m 370.8,325.30002 c 1.74842,-1.7484 1.74842,-648.8516 0,-650.60002 -1.74376,-1.74376 -275.85624,-1.74376 -277.6,0 -1.74842,1.74842 -1.74842,648.85162 0,650.60002 1.74376,1.7437 275.85624,1.7437 277.6,0 z M 707,652.07648 l 0,-46 93,0 93,0 0,46 0,46 -93,0 -93,0 0,-46 z"
         id="path4093"
         inkscape:connector-curvature="0" />
      <path
         style="fill:#e03a51"
         d="m 568.46365,1301.8286 c -0.26137,-0.6887 -0.36012,-188.9021 -0.21943,-418.25212 l 0.25578,-417 67,-0.5 67,-0.5 0.5,-46 0.5,-46 94.5,0 94.5,0 0.5,46 0.5,46 69,0.5 69,0.5 0,418 0,418.00002 -231.28057,0.2521 c -184.49993,0.2011 -231.37669,-10e-4 -231.75578,-1 z M 939.5,884.57648 l 0,-326 -139.5,0 -139.5,0 -0.25596,325 c -0.14078,178.75002 -0.0418,325.56412 0.21995,326.25352 0.37894,0.998 28.85789,1.2018 139.75597,1 l 139.28004,-0.2535 0,-326.00002 z M 707.45981,696.83169 c -0.26478,-0.69036 -0.36405,-21.28021 -0.22061,-45.75521 l 0.2608,-44.5 92.5,0 92.5,0 0,45.5 0,45.5 -92.27938,0.25521 c -73.29381,0.20271 -92.37844,-0.003 -92.76081,-1 z"
         id="path4091"
         inkscape:connector-curvature="0" />
      <path
         style="fill:#de243e"
         d="m 569,884.57648 0,-417.5 66.3,0 c 50.23333,0 66.5908,-0.2908 67.5,-1.2 0.89801,-0.89801 1.2,-12.6 1.2,-46.5 l 0,-45.3 94,0 94,0 0,45.3 c 0,33.9 0.30199,45.60199 1.2,46.5 0.90991,0.90991 17.71111,1.2 69.5,1.2 l 68.3,0 0,417.5 0,417.50002 -231,0 -231,0 0,-417.50002 z m 370.8,326.30002 c 1.74843,-1.7484 1.74843,-650.85159 0,-652.60002 -1.74381,-1.74381 -277.85619,-1.74381 -279.6,0 -1.74843,1.74843 -1.74843,650.85162 0,652.60002 1.74381,1.7438 277.85619,1.7438 279.6,0 z M 708,652.07648 l 0,-45 92,0 92,0 0,45 0,45 -92,0 -92,0 0,-45 z"
         id="path4089"
         inkscape:connector-curvature="0" />
    </g>
  </g>
</svg>
