<?xml version="1.0" encoding="UTF-8" standalone="no"?>
<!-- Created with Inkscape (http://www.inkscape.org/) -->

<svg
   xmlns:dc="http://purl.org/dc/elements/1.1/"
   xmlns:cc="http://creativecommons.org/ns#"
   xmlns:rdf="http://www.w3.org/1999/02/22-rdf-syntax-ns#"
   xmlns:svg="http://www.w3.org/2000/svg"
   xmlns="http://www.w3.org/2000/svg"
   xmlns:sodipodi="http://sodipodi.sourceforge.net/DTD/sodipodi-0.dtd"
   xmlns:inkscape="http://www.inkscape.org/namespaces/inkscape"
   width="32"
   height="32"
   viewBox="0 0 32.000001 32.000001"
   id="svg3715"
   version="1.1"
   inkscape:version="0.91 r13725"
   sodipodi:docname="battery-070.svg">
  <defs
     id="defs3717" />
  <sodipodi:namedview
     id="base"
     pagecolor="#ffffff"
     bordercolor="#666666"
     borderopacity="1.0"
     inkscape:pageopacity="0.0"
     inkscape:pageshadow="2"
     inkscape:zoom="0.35"
     inkscape:cx="375"
     inkscape:cy="520"
     inkscape:document-units="px"
     inkscape:current-layer="layer1"
     showgrid="false"
     units="px"
     inkscape:window-width="1920"
     inkscape:window-height="1080"
     inkscape:window-x="0"
     inkscape:window-y="0"
     inkscape:window-maximized="1" />
  <metadata
     id="metadata3720">
    <rdf:RDF>
      <cc:Work
         rdf:about="">
        <dc:format>image/svg+xml</dc:format>
        <dc:type
           rdf:resource="http://purl.org/dc/dcmitype/StillImage" />
        <dc:title></dc:title>
      </cc:Work>
    </rdf:RDF>
  </metadata>
  <g
     inkscape:label="Layer 1"
     inkscape:groupmode="layer"
     id="layer1"
     transform="translate(0,-1020.3622)">
    <g
       id="g3734"
       transform="matrix(0.03125,0,0,0.03125,12.785714,1026.601)">
      <path
         style="fill:#fdfdfd"
         d="m -409.14285,312.3622 0,-512 512,0 512,0 0,512 0,512 -512,0 -512,0 0,-512 z"
         id="path3750"
         inkscape:connector-curvature="0" />
      <path
         style="fill:#fae6e9"
         d="m -130.94285,779.1622 c -1.7492,-1.7492 -1.7492,-838.8508 0,-840.6 0.9092,-0.9092 17.26667,-1.2 67.5,-1.2 l 66.3,0 0,-45.3 c 0,-33.9 0.30199,-45.60199 1.2,-46.5 1.74019,-1.74019 191.85981,-1.74019 193.6,0 0.89801,0.89801 1.2,12.6 1.2,46.5 l 0,45.3 68.3,0 c 51.78889,0 68.59009,0.29009 69.5,1.2 1.7492,1.7492 1.7492,838.8508 0,840.6 -1.74706,1.74706 -465.85294,1.74706 -467.6,0 z m 370.8,-420.3 0,-323.5 -137,0 -137,0 0,323.5 0,323.5 137,0 137,0 0,-323.5 z M 8.42858,406.79077 c -1.4157,-1.41569 -1.57143,-17.69827 -1.57143,-164.3 0,-125.23333 0.2765,-163.00507 1.2,-163.92857 1.73994,-1.73994 187.86006,-1.73994 189.6,0 0.9235,0.9235 1.2,38.69524 1.2,163.92857 0,146.60173 -0.15573,162.88431 -1.57143,164.3 -1.40601,1.40601 -11.34632,1.57143 -94.42857,1.57143 -83.08225,0 -93.02256,-0.16542 -94.42857,-1.57143 z"
         id="path3748"
         inkscape:connector-curvature="0" />
      <path
         style="fill:#f3b9c1"
         d="m -130.67921,778.11431 c -0.26136,-0.68866 -0.3601,-189.80211 -0.21942,-420.25211 l 0.25578,-419 67.24002,-0.25703 67.24002,-0.25704 0.25998,-46.24296 0.25998,-46.24297 96.5,0 96.5,0 0.25998,46.24316 0.25999,46.24316 69.24001,0.25684 69.24002,0.25684 0,420 0,420 -233.28057,0.25211 c -186.09996,0.20112 -233.37669,-0.001 -233.75579,-1 z m 371.53636,-419.25211 0,-324.5 -138,0 -138,0 0,324.5 0,324.5 138,0 138,0 0,-324.5 z M 8.97658,406.00611 C 8.1505,405.01074 7.91843,361.31996 8.10414,241.75611 L 8.35715,78.8622 l 94.5,0 94.5,0 0.25301,162.89391 c 0.18571,119.56385 -0.0464,163.25463 -0.87244,164.25 -0.93252,1.12362 -17.0263,1.35609 -93.88057,1.35609 -76.85427,0 -92.94805,-0.23247 -93.88057,-1.35609 z"
         id="path3746"
         inkscape:connector-curvature="0" />
      <path
         style="fill:#f1b1ba"
         d="m -129.57142,777.79077 c -1.42355,-1.42355 -1.57143,-40.84632 -1.57143,-418.92857 0,-378.08225 0.14788,-417.50502 1.57143,-418.92857 1.39679,-1.39679 8.89827,-1.57143 67.5,-1.57143 l 65.92857,0 0,-44.92857 c 0,-39.51082 0.18949,-45.11806 1.57143,-46.5 1.40625,-1.40625 11.43723,-1.57143 95.42857,-1.57143 83.99134,0 94.02232,0.16518 95.42857,1.57143 1.38194,1.38194 1.57143,6.98918 1.57143,46.5 l 0,44.92857 67.92857,0 c 60.41991,0 68.10227,0.1737 69.5,1.57143 1.42355,1.42355 1.57143,40.84632 1.57143,418.92857 0,378.08225 -0.14788,417.50502 -1.57143,418.92857 -1.41949,1.4195 -23.89177,1.57143 -232.42857,1.57143 -208.5368,0 -231.00908,-0.15193 -232.42857,-1.57143 z m 370.42857,-418.92857 0,-324.5 -138,0 -138,0 0,324.5 0,324.5 138,0 138,0 0,-324.5 z M 10.70978,406.7004 C 9.80372,406.45547 8.79736,405.26668 8.47343,404.05864 8.1495,402.8506 7.87831,329.78184 7.8708,241.68363 7.8585,97.38838 8.01297,81.34923 9.42858,79.93363 c 1.40576,-1.40576 11.25541,-1.57143 93.42857,-1.57143 82.39362,0 92.01996,0.16282 93.43751,1.58037 1.42962,1.42962 1.55567,17.01745 1.32143,163.41674 -0.14242,89.01001 -0.63384,162.21134 -1.09205,162.66963 -0.84077,0.84091 -182.75563,1.49828 -185.81426,0.67146 z"
         id="path3744"
         inkscape:connector-curvature="0" />
      <path
         style="fill:#e96f80"
         d="m -129.6792,777.11432 c -0.26137,-0.68867 -0.36011,-189.35212 -0.21943,-419.25212 l 0.25578,-418 67,-0.5 67,-0.5 0.5,-46 0.5,-46 95.5,0 95.5,0 0.5,46 0.5,46 69,0.5 69,0.5 0,419 0,419 -232.28057,0.25212 c -185.29995,0.20113 -232.37669,-10e-4 -232.75578,-1 z m 371.03635,-418.25212 0,-325 -138.5,0 -138.5,0 -0.25597,324 c -0.14078,178.2 -0.0418,324.56409 0.21997,325.25352 0.37894,0.99805 28.65792,1.20186 138.75597,1 l 138.28003,-0.25352 0,-325 z M 9.32097,405.11736 C 9.05842,404.42702 8.95916,330.9622 9.10038,241.8622 l 0.25677,-162 93.5,0 93.5,0 0,163 0,163 -93.27941,0.25516 c -74.09557,0.20268 -93.37758,-0.003 -93.75677,-1 z"
         id="path3742"
         inkscape:connector-curvature="0" />
      <path
         style="fill:#e5576b"
         d="m -129.14285,358.8622 0,-418.5 66.3,0 c 50.23333,0 66.5908,-0.2908 67.5,-1.2 0.89801,-0.89801 1.2,-12.6 1.2,-46.5 l 0,-45.3 95,0 95,0 0,45.3 c 0,33.9 0.30199,45.60199 1.2,46.5 0.90991,0.90991 17.71111,1.2 69.5,1.2 l 68.3,0 0,418.5 0,418.5 -232,0 -232,0 0,-418.5 z m 370.8,325.3 c 1.74842,-1.74842 1.74842,-648.85158 0,-650.6 -1.74376,-1.74376 -275.85624,-1.74376 -277.6,0 -1.74842,1.74842 -1.74842,648.85158 0,650.6 1.74376,1.74376 275.85624,1.74376 277.6,0 z m -231.8,-441.3 0,-162.5 93,0 93,0 0,162.5 0,162.5 -93,0 -93,0 0,-162.5 z"
         id="path3740"
         inkscape:connector-curvature="0" />
      <path
         style="fill:#e03a51"
         d="m -128.6792,776.11433 c -0.26137,-0.68867 -0.36012,-188.90213 -0.21943,-418.25213 l 0.25578,-417 67,-0.5 67,-0.5 0.5,-46 0.5,-46 94.5,0 94.5,0 0.5,46 0.5,46 69,0.5 69,0.5 0,418 0,418 -231.28057,0.25213 c -184.49993,0.20113 -231.37669,-10e-4 -231.75578,-1 z m 371.03635,-417.25213 0,-326 -139.5,0 -139.5,0 -0.25596,325 c -0.14078,178.75 -0.0418,325.56407 0.21995,326.2535 0.37894,0.99806 28.85789,1.20184 139.75597,1 l 139.28004,-0.2535 0,-326 z M 10.32099,404.11741 C 10.05842,403.42705 9.95914,330.4122 10.10037,241.8622 l 0.25678,-161 92.5,0 92.5,0 0,162 0,162 -92.27938,0.25521 c -73.29551,0.20271 -92.3776,-0.003 -92.75678,-1 z"
         id="path3738"
         inkscape:connector-curvature="0" />
      <path
         style="fill:#de243e"
         d="m -128.14285,358.8622 0,-417.5 66.3,0 c 50.23333,0 66.5908,-0.2908 67.5,-1.2 0.89801,-0.89801 1.2,-12.6 1.2,-46.5 l 0,-45.3 94,0 94,0 0,45.3 c 0,33.9 0.30199,45.60199 1.2,46.5 0.90991,0.90991 17.71111,1.2 69.5,1.2 l 68.3,0 0,417.5 0,417.5 -231,0 -231,0 0,-417.5 z m 370.8,326.3 c 1.74843,-1.74843 1.74843,-650.85157 0,-652.6 -1.74381,-1.74381 -277.85619,-1.74381 -279.6,0 -1.74843,1.74843 -1.74843,650.85157 0,652.6 1.74381,1.74381 277.85619,1.74381 279.6,0 z m -231.8,-442.3 0,-161.5 92,0 92,0 0,161.5 0,161.5 -92,0 -92,0 0,-161.5 z"
         id="path3736"
         inkscape:connector-curvature="0" />
    </g>
  </g>
</svg>
