<?xml version="1.0" encoding="UTF-8" standalone="no"?>
<!-- Created with Inkscape (http://www.inkscape.org/) -->

<svg
   xmlns:dc="http://purl.org/dc/elements/1.1/"
   xmlns:cc="http://creativecommons.org/ns#"
   xmlns:rdf="http://www.w3.org/1999/02/22-rdf-syntax-ns#"
   xmlns:svg="http://www.w3.org/2000/svg"
   xmlns="http://www.w3.org/2000/svg"
   xmlns:sodipodi="http://sodipodi.sourceforge.net/DTD/sodipodi-0.dtd"
   xmlns:inkscape="http://www.inkscape.org/namespaces/inkscape"
   width="32"
   height="32"
   viewBox="0 0 32.000001 32.000001"
   id="svg4252"
   version="1.1"
   inkscape:version="0.91 r13725"
   sodipodi:docname="battery-030-charging.svg">
  <defs
     id="defs4254" />
  <sodipodi:namedview
     id="base"
     pagecolor="#ffffff"
     bordercolor="#666666"
     borderopacity="1.0"
     inkscape:pageopacity="0.0"
     inkscape:pageshadow="2"
     inkscape:zoom="0.35"
     inkscape:cx="375"
     inkscape:cy="520"
     inkscape:document-units="px"
     inkscape:current-layer="layer1"
     showgrid="false"
     units="px"
     inkscape:window-width="1920"
     inkscape:window-height="1080"
     inkscape:window-x="0"
     inkscape:window-y="0"
     inkscape:window-maximized="1" />
  <metadata
     id="metadata4257">
    <rdf:RDF>
      <cc:Work
         rdf:about="">
        <dc:format>image/svg+xml</dc:format>
        <dc:type
           rdf:resource="http://purl.org/dc/dcmitype/StillImage" />
        <dc:title></dc:title>
      </cc:Work>
    </rdf:RDF>
  </metadata>
  <g
     inkscape:label="Layer 1"
     inkscape:groupmode="layer"
     id="layer1"
     transform="translate(0,-1020.3622)">
    <g
       id="g4271"
       transform="matrix(0.03125,0,0,0.03125,-11.85714,1009.6366)">
      <path
         style="fill:#fdfdfd"
         d="m 379.42856,855.21936 0,-512 512,0 512.00004,0 0,512 0,512.00004 -512.00004,0 -512,0 0,-512.00004 z"
         id="path4287"
         inkscape:connector-curvature="0" />
      <path
         style="fill:#f9e6e9"
         d="m 657.62856,1322.0194 c -1.7492,-1.7492 -1.7492,-838.85084 0,-840.60004 0.9092,-0.9092 17.26667,-1.2 67.5,-1.2 l 66.3,0 0,-45.3 c 0,-33.9 0.30199,-45.60199 1.2,-46.5 1.74019,-1.74019 191.85981,-1.74019 193.6,0 0.89801,0.89801 1.2,12.6 1.2,46.5 l 0,45.3 68.30004,0 c 51.7889,0 68.5901,0.29009 69.5,1.2 1.7492,1.7492 1.7492,838.85084 0,840.60004 -1.7471,1.747 -465.85298,1.747 -467.60004,0 z m 370.80004,-257.3 0,-160.50004 -44.00004,0 -44,0 0,45.37756 c 0,37.91464 -0.23283,45.57078 -1.41569,46.55247 -1.13301,0.94031 -15.61312,-5.71584 -72.51577,-33.33371 -39.10504,-18.97974 -80.15071,-39.47836 -91.21259,-45.55247 -11.06189,-6.07412 -20.27979,-11.04385 -20.48423,-11.04385 -0.20445,0 -0.37172,71.775 -0.37172,159.50004 l 0,159.5 137,0 137.00004,0 0,-160.5 z M 842.42856,853.8418 c 0,-36.84985 0.25342,-45.58787 1.3485,-46.49671 1.04346,-0.86599 17.38709,6.65731 72.25,33.25811 38.99582,18.90749 80.03559,39.38101 91.19944,45.49671 11.1639,6.1157 20.5014,11.11945 20.75,11.11945 0.2487,0 0.4521,-71.775 0.4521,-159.5 l 0,-159.5 -137.00004,0 -137,0 0,160.5 0,160.5 44,0 44,0 0,-45.37756 z m -45.8,-90.82244 c -1.73583,-1.73583 -1.73583,-139.86417 0,-141.6 1.73994,-1.73994 187.86006,-1.73994 189.6,0 1.73583,1.73583 1.73583,139.86417 0,141.6 -1.73994,1.73994 -187.86006,1.73994 -189.6,0 z"
         id="path4285"
         inkscape:connector-curvature="0" />
      <path
         style="fill:#f3bcc4"
         d="m 657.8922,1320.9715 c -0.26136,-0.6887 -0.3601,-189.8021 -0.21942,-420.25214 l 0.25578,-419 67.24002,-0.25703 67.24002,-0.25704 0.25998,-46.24296 0.25998,-46.24297 96.5,0 96.5,0 0.25998,46.24316 0.25999,46.24316 69.23997,0.25684 69.2401,0.25684 0,420 0,420.00004 -233.28061,0.2521 c -186.09996,0.2011 -233.37669,0 -233.75579,-1 z m 371.5364,-256.2521 0,-161.50004 -45.00004,0 -45,0 0,45.89301 c 0,36.20215 -0.26845,45.99603 -1.27131,46.38086 -1.73139,0.6644 -141.68781,-67.46098 -164.60206,-80.12192 -10.10536,-5.58357 -18.76786,-10.15195 -19.25,-10.15195 -0.49853,0 -0.87663,69.22544 -0.87663,160.50004 l 0,160.5 138,0 138.00004,0 0,-161.5 z M 843.42856,854.32635 c 0,-35.8103 0.27463,-45.99083 1.25,-46.33823 1.74016,-0.61979 139.95058,66.6714 163.55644,79.63156 10.6186,5.82982 19.7311,10.59968 20.2501,10.59968 0.5874,0 0.9435,-60.57315 0.9435,-160.5 l 0,-160.5 -138.00004,0 -138,0 0,161.5 0,161.5 45,0 45,0 0,-45.89301 z m -46.53827,-92.35188 c -0.26368,-0.69031 -0.36294,-32.53011 -0.22058,-70.75511 l 0.25885,-69.5 94.5,0 94.5,0 0,70.5 0,70.5 -94.27943,0.25511 c -74.89476,0.20265 -94.37799,-0.003 -94.75884,-1 z"
         id="path4283"
         inkscape:connector-curvature="0" />
      <path
         style="fill:#f1afb9"
         d="m 658.99999,1320.6479 c -1.42355,-1.4235 -1.57143,-40.8463 -1.57143,-418.92854 0,-378.08225 0.14788,-417.50502 1.57143,-418.92857 1.39679,-1.39679 8.89827,-1.57143 67.5,-1.57143 l 65.92857,0 0,-44.92857 c 0,-39.51082 0.18949,-45.11806 1.57143,-46.5 1.40625,-1.40625 11.43723,-1.57143 95.42857,-1.57143 83.99134,0 94.02232,0.16518 95.42857,1.57143 1.38194,1.38194 1.57143,6.98918 1.57143,46.5 l 0,44.92857 67.92854,0 c 60.4199,0 68.1023,0.1737 69.5,1.57143 1.4236,1.42355 1.5715,40.84632 1.5715,418.92857 0,378.08224 -0.1479,417.50504 -1.5715,418.92854 -1.4195,1.4195 -23.8917,1.5715 -232.42854,1.5715 -208.5368,0 -231.00908,-0.152 -232.42857,-1.5715 z m 370.42861,-255.9285 0,-161.50004 -45.00004,0 -45,0 0,44.41821 c 0,24.43002 -0.27314,45.13002 -0.60699,46 -0.33384,0.86999 -1.034,1.58179 -1.55591,1.58179 -2.26925,0 -142.97813,-69.06501 -161.93827,-79.48516 -11.52359,-6.33316 -21.16502,-11.51484 -21.42541,-11.51484 -0.26038,0 -0.47342,72.45 -0.47342,161.00004 l 0,161 138,0 138.00004,0 0,-161.5 z M 843.44387,855.46936 c 0.009,-25.68483 0.40965,-45.37346 0.9409,-46.21339 0.80759,-1.27683 1.34748,-1.25951 4.23469,0.13584 93.951,45.40521 140.61251,68.42187 158.02224,77.94743 11.9423,6.53407 21.9548,11.88012 22.25,11.88012 0.2953,0 0.5369,-72.45 0.5369,-161 l 0,-161 -138.00004,0 -138,0 0,161.5 0,161.5 45,0 45,0 0.0153,-44.75 z m -45.44388,-93.82143 c -1.3977,-1.39769 -1.57143,-9.07359 -1.57143,-69.42857 0,-60.35498 0.17373,-68.03088 1.57143,-69.42857 1.40576,-1.40576 11.25541,-1.57143 93.42857,-1.57143 82.17316,0 92.02281,0.16567 93.42857,1.57143 1.3977,1.39769 1.57143,9.07359 1.57143,69.42857 0,60.35498 -0.17373,68.03088 -1.57143,69.42857 -1.40576,1.40576 -11.25541,1.57143 -93.42857,1.57143 -82.17316,0 -92.02281,-0.16567 -93.42857,-1.57143 z"
         id="path4281"
         inkscape:connector-curvature="0" />
      <path
         style="fill:#e96f80"
         d="m 658.89221,1319.9715 c -0.26137,-0.6887 -0.36011,-189.3521 -0.21943,-419.25214 l 0.25578,-418 67,-0.5 67,-0.5 0.5,-46 0.5,-46 95.5,0 95.5,0 0.5,46 0.5,46 69.00004,0.5 69,0.5 0,419 0,419.00004 -232.28061,0.2521 c -185.29995,0.2011 -232.37669,0 -232.75578,-1 z m 371.03639,-255.2521 0,-162.00004 -45.50004,0 -45.5,0 -0.26009,45.75 c -0.21797,38.34223 -0.48593,45.75 -1.65489,45.75 -1.41298,0 -13.08274,-5.48202 -51.08502,-23.99782 -11.55,-5.6275 -26.4,-12.8293 -33,-16.00401 -40.21955,-19.34627 -59.27988,-28.92555 -77.26979,-38.83401 -11.14838,-6.14029 -20.93588,-11.16416 -21.75,-11.16416 -1.30081,0 -1.48021,19.49259 -1.48021,160.83334 0,88.4583 0.30158,161.1349 0.67017,161.5035 0.3686,0.3686 62.8061,0.5561 138.75,0.4167 l 138.07987,-0.2535 0,-162 z M 844.18865,854.96936 c 0.21423,-37.68332 0.49886,-45.75 1.61432,-45.75 2.54588,0 139.0803,66.74992 160.33833,78.38736 11.6671,6.38695 21.9059,11.61264 22.7531,11.61264 1.3817,0 1.5142,-16.60034 1.2872,-161.25 l -0.253,-161.25 -138.50004,0 -138.5,0 -0.25678,161 c -0.14123,88.55 -0.0411,161.56709 0.22253,162.26021 0.37781,0.99333 10.06781,1.2051 45.75678,1 l 45.27747,-0.26021 0.26009,-45.75 z m -46.29839,-93.99484 c -0.26372,-0.69034 -0.36299,-32.08016 -0.2206,-69.75516 l 0.2589,-68.5 93.5,0 93.5,0 0,69.5 0,69.5 -93.27941,0.25516 c -74.09467,0.20268 -93.37802,-0.003 -93.75889,-1 z"
         id="path4279"
         inkscape:connector-curvature="0" />
      <path
         style="fill:#e4566a"
         d="m 659.42856,901.71936 0,-418.5 66.3,0 c 50.23333,0 66.5908,-0.2908 67.5,-1.2 0.89801,-0.89801 1.2,-12.6 1.2,-46.5 l 0,-45.3 95,0 95,0 0,45.3 c 0,33.9 0.30199,45.60199 1.2,46.5 0.90991,0.90991 17.71114,1.2 69.50004,1.2 l 68.3,0 0,418.5 0,418.50004 -232.00004,0 -232,0 0,-418.50004 z m 370.80004,325.30004 c 1.7449,-1.745 1.7449,-322.8551 0,-324.60004 -0.9334,-0.93333 -0.9334,-1.46667 0,-2.4 1.7449,-1.74492 1.7449,-321.85508 0,-323.6 -1.7438,-1.74376 -275.85628,-1.74376 -277.60004,0 -1.74494,1.74494 -1.74494,322.85506 0,324.6 0.93333,0.93333 0.93333,1.46667 0,2.4 -1.74492,1.74492 -1.74492,321.85504 0,323.60004 1.74376,1.7437 275.85624,1.7437 277.60004,0 z M 866.42856,959.81297 c -38.775,-18.81906 -79.88585,-39.36383 -91.35743,-45.65504 l -20.85744,-11.43857 44.49347,-0.26022 c 35.55362,-0.20793 44.71522,-0.52741 45.59713,-1.59005 0.76,-0.91573 1.18473,-15.33389 1.36397,-46.30226 l 0.2603,-44.97243 70.24018,34.06248 c 38.63211,18.73436 79.71569,39.23748 91.29686,45.56248 l 21.0567,11.5 -44.43293,0.26022 c -35.5032,0.20791 -44.65468,0.52747 -45.53654,1.59005 -0.76009,0.91585 -1.1847,15.35891 -1.36397,46.39482 l -0.2603,45.06498 -70.5,-34.21646 z m -68,-267.59361 0,-69 93,0 93,0 0,69 0,69 -93,0 -93,0 0,-69 z"
         id="path4277"
         inkscape:connector-curvature="0" />
      <path
         style="fill:#e03950"
         d="m 659.89221,1318.9715 c -0.26137,-0.6887 -0.36012,-188.9021 -0.21943,-418.25214 l 0.25578,-417 67,-0.5 67,-0.5 0.5,-46 0.5,-46 94.5,0 94.5,0 0.5,46 0.5,46 69.00004,0.5 69,0.5 0,418 0,418.00004 -231.28061,0.2521 c -184.49993,0.2011 -231.37669,0 -231.75578,-1 z m 371.03639,-417.25214 0,-326 -139.50004,0 -139.5,0 -0.25471,325 c -0.1401,178.75004 -0.0411,325.56404 0.21995,326.25354 0.37795,0.998 28.85611,1.2018 139.75472,1 l 139.28008,-0.2535 0,-326.00004 z m -165.50004,57.13381 c -60.20602,-29.27554 -96.65694,-47.84884 -107,-54.52108 -2.32642,-1.50076 0.58969,-1.64745 42,-2.11273 l 44.5,-0.5 0.26016,-45.85309 c 0.20428,-36.00499 0.52644,-45.7447 1.5,-45.34841 0.68191,0.27757 32.28984,15.56783 70.23984,33.97835 60.118,29.16479 88.17724,43.41573 105.50004,53.58218 l 4.5,2.64097 -44.50004,0.5 -44.5,0.5 -0.26009,45.75 c -0.14305,25.1625 -0.59305,45.73084 -1,45.70743 -0.40695,-0.0234 -32.46491,-15.46904 -71.23991,-34.32362 z m -66.53834,-198.8786 c -0.26376,-0.69036 -0.36303,-31.63021 -0.22061,-68.75521 l 0.25895,-67.5 92.5,0 92.5,0 0,68.5 0,68.5 -92.27938,0.25521 c -73.29459,0.20271 -92.37805,-0.003 -92.75896,-1 z"
         id="path4275"
         inkscape:connector-curvature="0" />
      <path
         style="fill:#de243e"
         d="m 660.42856,901.71936 0,-417.5 66.3,0 c 50.23333,0 66.5908,-0.2908 67.5,-1.2 0.89801,-0.89801 1.2,-12.6 1.2,-46.5 l 0,-45.3 94,0 94,0 0,45.3 c 0,33.9 0.30199,45.60199 1.2,46.5 0.90991,0.90991 17.71114,1.2 69.50004,1.2 l 68.3,0 0,417.5 0,417.50004 -231.00004,0 -231,0 0,-417.50004 z m 370.87524,326.15034 c 1.6041,-1.9329 1.6041,-650.36782 0,-652.30066 -1.6697,-2.0119 -278.08078,-2.01188 -279.75051,2e-5 -1.60411,1.93285 -1.60409,650.36774 3e-5,652.30064 1.66973,2.0119 278.08078,2.0119 279.75048,0 z M 866.42856,958.80807 c -37.675,-18.30919 -77.4334,-38.19427 -88.352,-44.18907 l -19.852,-10.89964 42.76262,-0.26086 c 29.54185,-0.18021 43.17671,-0.60452 44.102,-1.37244 1.08285,-0.89869 1.33938,-9.72745 1.33938,-46.09613 0,-35.59199 0.26099,-44.87845 1.25,-44.47639 9.65383,3.92457 139.8657,68.05168 155.53274,76.59722 l 21.2828,11.6086 -42.69339,0.26086 c -29.49104,0.18019 -43.10758,0.6046 -44.03277,1.37244 -1.08276,0.89862 -1.33938,9.70986 -1.33938,45.98914 0,24.68266 -0.3375,44.85015 -0.75,44.81664 -0.4125,-0.0335 -31.575,-15.04117 -69.25,-33.35037 z m -67,-266.58871 0,-68 92,0 92,0 0,68 0,68 -92,0 -92,0 0,-68 z"
         id="path4273"
         inkscape:connector-curvature="0" />
    </g>
  </g>
</svg>
