<?xml version="1.0" encoding="UTF-8" standalone="no"?>
<!-- Created with Inkscape (http://www.inkscape.org/) -->

<svg
   xmlns:dc="http://purl.org/dc/elements/1.1/"
   xmlns:cc="http://creativecommons.org/ns#"
   xmlns:rdf="http://www.w3.org/1999/02/22-rdf-syntax-ns#"
   xmlns:svg="http://www.w3.org/2000/svg"
   xmlns="http://www.w3.org/2000/svg"
   xmlns:sodipodi="http://sodipodi.sourceforge.net/DTD/sodipodi-0.dtd"
   xmlns:inkscape="http://www.inkscape.org/namespaces/inkscape"
   width="48"
   height="48"
   viewBox="0 0 48 48"
   id="svg4383"
   version="1.1"
   inkscape:version="0.91 r13725"
   sodipodi:docname="network-wireless-signal-excellent.svg">
  <defs
     id="defs4385" />
  <sodipodi:namedview
     id="base"
     pagecolor="#ffffff"
     bordercolor="#666666"
     borderopacity="1.0"
     inkscape:pageopacity="0.0"
     inkscape:pageshadow="2"
     inkscape:zoom="5.6"
     inkscape:cx="89.540533"
     inkscape:cy="55.140345"
     inkscape:document-units="px"
     inkscape:current-layer="layer1"
     showgrid="false"
     units="px"
     inkscape:window-width="1920"
     inkscape:window-height="1080"
     inkscape:window-x="0"
     inkscape:window-y="0"
     inkscape:window-maximized="1" />
  <metadata
     id="metadata4388">
    <rdf:RDF>
      <cc:Work
         rdf:about="">
        <dc:format>image/svg+xml</dc:format>
        <dc:type
           rdf:resource="http://purl.org/dc/dcmitype/StillImage" />
        <dc:title />
      </cc:Work>
    </rdf:RDF>
  </metadata>
  <g
     inkscape:label="Layer 1"
     inkscape:groupmode="layer"
     id="layer1"
     transform="translate(0,-1004.3622)">
    <g
       id="g4395"
       transform="matrix(0.00535714,0,0,-0.00535714,-3.4285696,1053.7908)"
       style="fill:#df253f;fill-opacity:1;stroke:none">
      <path
         id="path4397"
         d="M 4630,8950 C 3293,8852 2109,8421 1070,7656 989,7596 733,7392 663,7331 l -23,-19 0,-456 0,-456 478,0 477,0 113,90 c 356,283 675,485 1056,671 776,377 1588,537 2573,507 1173,-35 2202,-414 3182,-1172 l 125,-96 478,0 478,0 0,445 0,445 -41,37 c -214,193 -582,460 -889,645 -777,466 -1654,782 -2550,917 -343,52 -505,63 -950,66 -234,2 -477,-1 -540,-5 z"
         inkscape:connector-curvature="0"
         style="fill:#df253f;fill-opacity:1" />
      <path
         id="path4399"
         d="m 4755,7034 c -22,-2 -96,-9 -165,-14 C 3501,6927 2548,6501 1999,5864 l -79,-92 0,-326 0,-326 645,0 644,0 92,66 c 353,255 761,429 1199,513 379,72 877,70 1264,-5 422,-82 832,-259 1172,-505 l 95,-69 644,0 645,0 0,330 0,330 -157,158 c -87,87 -205,196 -263,242 -571,450 -1326,736 -2210,836 -136,15 -823,29 -935,18 z"
         inkscape:connector-curvature="0"
         style="fill:#df253f;fill-opacity:1" />
      <path
         id="path4401"
         d="m 4695,5104 c -263,-29 -500,-81 -714,-157 -232,-82 -515,-241 -705,-396 l -76,-62 0,-325 0,-324 1920,0 1920,0 0,324 0,324 -107,80 c -390,290 -795,453 -1318,528 -159,23 -743,28 -920,8 z"
         inkscape:connector-curvature="0"
         style="fill:#df253f;fill-opacity:1" />
      <path
         id="path4403"
         d="m 4886,3184 c -237,-43 -468,-161 -649,-333 -200,-190 -336,-442 -382,-709 -19,-109 -19,-335 0,-444 43,-246 160,-477 334,-661 190,-199 441,-336 705,-382 115,-20 337,-20 452,0 522,91 948,518 1038,1040 20,114 21,336 1,447 -29,170 -103,351 -204,503 -61,93 -238,270 -332,333 -158,105 -332,177 -503,207 -111,19 -351,19 -460,-1 z"
         inkscape:connector-curvature="0"
         style="fill:#df253f;fill-opacity:1" />
    </g>
  </g>
</svg>
