<?xml version="1.0" encoding="UTF-8" standalone="no"?>
<!-- Created with Inkscape (http://www.inkscape.org/) -->

<svg
   xmlns:dc="http://purl.org/dc/elements/1.1/"
   xmlns:cc="http://creativecommons.org/ns#"
   xmlns:rdf="http://www.w3.org/1999/02/22-rdf-syntax-ns#"
   xmlns:svg="http://www.w3.org/2000/svg"
   xmlns="http://www.w3.org/2000/svg"
   xmlns:sodipodi="http://sodipodi.sourceforge.net/DTD/sodipodi-0.dtd"
   xmlns:inkscape="http://www.inkscape.org/namespaces/inkscape"
   width="22"
   height="22"
   viewBox="0 0 22.000001 22.000001"
   id="svg4083"
   version="1.1"
   inkscape:version="0.91 r13725"
   sodipodi:docname="battery-080.svg">
  <defs
     id="defs4085" />
  <sodipodi:namedview
     id="base"
     pagecolor="#ffffff"
     bordercolor="#666666"
     borderopacity="1.0"
     inkscape:pageopacity="0.0"
     inkscape:pageshadow="2"
     inkscape:zoom="37.41667"
     inkscape:cx="11.999999"
     inkscape:cy="12.000019"
     inkscape:document-units="px"
     inkscape:current-layer="layer1"
     showgrid="false"
     units="px"
     inkscape:window-width="1920"
     inkscape:window-height="1080"
     inkscape:window-x="0"
     inkscape:window-y="0"
     inkscape:window-maximized="1" />
  <metadata
     id="metadata4088">
    <rdf:RDF>
      <cc:Work
         rdf:about="">
        <dc:format>image/svg+xml</dc:format>
        <dc:type
           rdf:resource="http://purl.org/dc/dcmitype/StillImage" />
        <dc:title></dc:title>
      </cc:Work>
    </rdf:RDF>
  </metadata>
  <g
     inkscape:label="Layer 1"
     inkscape:groupmode="layer"
     id="layer1"
     transform="translate(0,-1030.3622)">
    <g
       id="g4102"
       transform="matrix(0.02148438,0,0,0.02148438,-7.0468759,1024.1546)">
      <path
         style="fill:#fdfdfd"
         d="m 328,800.93362 0,-512 512,0 512,0 0,512 0,511.99998 -512,0 -512,0 0,-511.99998 z"
         id="path4118"
         inkscape:connector-curvature="0" />
      <path
         style="fill:#fae6e9"
         d="m 606.2,1267.7336 c -1.7492,-1.7492 -1.7492,-838.85078 0,-840.59998 0.9092,-0.9092 17.26667,-1.2 67.5,-1.2 l 66.3,0 0,-45.3 c 0,-33.9 0.30199,-45.60199 1.2,-46.5 1.74019,-1.74019 191.85981,-1.74019 193.6,0 0.89801,0.89801 1.2,12.6 1.2,46.5 l 0,45.3 68.3,0 c 51.7889,0 68.5901,0.29009 69.5,1.2 1.7492,1.7492 1.7492,838.85078 0,840.59998 -1.7471,1.7471 -465.85294,1.7471 -467.6,0 z M 977,847.43362 l 0,-323.5 -137,0 -137,0 0,323.5 0,323.49998 137,0 137,0 0,-323.49998 z m -231.8,141.3 c -1.74654,-1.74654 -1.74654,-419.85346 0,-421.6 1.73994,-1.73994 187.86006,-1.73994 189.6,0 1.74654,1.74654 1.74654,419.85346 0,421.6 -1.73994,1.73994 -187.86006,1.73994 -189.6,0 z"
         id="path4116"
         inkscape:connector-curvature="0" />
      <path
         style="fill:#f4bac2"
         d="m 606.46364,1266.6857 c -0.26136,-0.6886 -0.3601,-189.8021 -0.21942,-420.25208 l 0.25578,-419 67.24002,-0.25703 67.24002,-0.25704 0.25998,-46.24296 0.25998,-46.24297 96.5,0 96.5,0 0.25998,46.24316 0.25999,46.24316 69.24003,0.25684 69.24,0.25684 0,420 0,419.99998 -233.28057,0.2521 c -186.09996,0.2011 -233.37669,-10e-4 -233.75579,-1 z M 978,847.43362 l 0,-324.5 -138,0 -138,0 0,324.5 0,324.49998 138,0 138,0 0,-324.49998 z M 745.46417,987.68873 c -0.26234,-0.69031 -0.3616,-95.53011 -0.22058,-210.75511 l 0.25641,-209.5 94.5,0 94.5,0 0,210.5 0,210.5 -94.27943,0.25511 c -74.89579,0.20265 -94.37749,-0.003 -94.7564,-1 z"
         id="path4114"
         inkscape:connector-curvature="0" />
      <path
         style="fill:#f1b1ba"
         d="M 607.57143,1266.3622 C 606.14788,1264.9386 606,1225.5159 606,847.43362 c 0,-378.08225 0.14788,-417.50502 1.57143,-418.92857 1.39679,-1.39679 8.89827,-1.57143 67.5,-1.57143 l 65.92857,0 0,-44.92857 c 0,-39.51082 0.18949,-45.11806 1.57143,-46.5 1.40625,-1.40625 11.43723,-1.57143 95.42857,-1.57143 83.99134,0 94.02232,0.16518 95.42857,1.57143 1.38194,1.38194 1.57143,6.98918 1.57143,46.5 l 0,44.92857 67.9286,0 c 60.4199,0 68.1022,0.1737 69.5,1.57143 1.4235,1.42355 1.5714,40.84632 1.5714,418.92857 0,378.08228 -0.1479,417.50498 -1.5714,418.92858 -1.4195,1.4195 -23.8918,1.5714 -232.4286,1.5714 -208.5368,0 -231.00908,-0.1519 -232.42857,-1.5714 z M 978,847.43362 l 0,-324.5 -138,0 -138,0 0,324.5 0,324.49998 138,0 138,0 0,-324.49998 z M 746.57143,987.36219 C 745.15294,985.9437 745,965.56133 745,777.93362 c 0,-187.62771 0.15294,-208.01008 1.57143,-209.42857 1.40576,-1.40576 11.25541,-1.57143 93.42857,-1.57143 82.17316,0 92.02281,0.16567 93.42857,1.57143 1.41849,1.41849 1.57143,21.80086 1.57143,209.42857 0,187.62771 -0.15294,208.01008 -1.57143,209.42857 -1.40576,1.40576 -11.25541,1.57143 -93.42857,1.57143 -82.17316,0 -92.02281,-0.16567 -93.42857,-1.57143 z"
         id="path4112"
         inkscape:connector-curvature="0" />
      <path
         style="fill:#e96f80"
         d="m 607.46365,1265.6857 c -0.26137,-0.6886 -0.36011,-189.3521 -0.21943,-419.25208 l 0.25578,-418 67,-0.5 67,-0.5 0.5,-46 0.5,-46 95.5,0 95.5,0 0.5,46 0.5,46 69,0.5 69,0.5 0,419 0,418.99998 -232.28057,0.2521 c -185.29995,0.2012 -232.37669,-10e-4 -232.75578,-1 z M 978.5,847.43362 l 0,-325 -138.5,0 -138.5,0 -0.25597,324 c -0.14078,178.19998 -0.0418,324.56408 0.21997,325.25348 0.37894,0.9981 28.65792,1.2019 138.75597,1 l 138.28003,-0.2535 0,-324.99998 z M 746.46418,986.68878 c -0.26235,-0.69034 -0.36162,-95.08016 -0.22059,-209.75516 l 0.25641,-208.5 93.5,0 93.5,0 0,209.5 0,209.5 -93.27941,0.25516 c -74.09572,0.20268 -93.3775,-0.003 -93.75641,-1 z"
         id="path4110"
         inkscape:connector-curvature="0" />
      <path
         style="fill:#e5596d"
         d="m 608,847.43362 0,-418.5 66.3,0 c 50.23333,0 66.5908,-0.2908 67.5,-1.2 0.89801,-0.89801 1.2,-12.6 1.2,-46.5 l 0,-45.3 95,0 95,0 0,45.3 c 0,33.9 0.30199,45.60199 1.2,46.5 0.90991,0.90991 17.71111,1.2 69.5,1.2 l 68.3,0 0,418.5 0,418.49998 -232,0 -232,0 0,-418.49998 z m 370.8,325.29998 c 1.74842,-1.7484 1.74842,-648.85156 0,-650.59998 -1.74376,-1.74376 -275.85624,-1.74376 -277.6,0 -1.74842,1.74842 -1.74842,648.85158 0,650.59998 1.74376,1.7438 275.85624,1.7438 277.6,0 z M 747,777.93362 l 0,-209 93,0 93,0 0,209 0,209 -93,0 -93,0 0,-209 z"
         id="path4108"
         inkscape:connector-curvature="0" />
      <path
         style="fill:#e03a51"
         d="m 608.46365,1264.6858 c -0.26137,-0.6887 -0.36012,-188.9022 -0.21943,-418.25218 l 0.25578,-417 67,-0.5 67,-0.5 0.5,-46 0.5,-46 94.5,0 94.5,0 0.5,46 0.5,46 69,0.5 69,0.5 0,418 0,417.99998 -231.28057,0.2522 c -184.49993,0.2011 -231.37669,0 -231.75578,-1 z M 979.5,847.43362 l 0,-326 -139.5,0 -139.5,0 -0.25596,325 c -0.14078,178.74998 -0.0418,325.56408 0.21995,326.25348 0.37894,0.9981 28.85789,1.2019 139.75597,1 l 139.28004,-0.2535 0,-325.99998 z M 747.4642,985.68883 c -0.26237,-0.69036 -0.36165,-94.63021 -0.22062,-208.75521 l 0.25642,-207.5 92.5,0 92.5,0 0,208.5 0,208.5 -92.27938,0.25521 c -73.29566,0.20271 -92.37753,-0.003 -92.75642,-1 z"
         id="path4106"
         inkscape:connector-curvature="0" />
      <path
         style="fill:#de243e"
         d="m 609,847.43362 0,-417.5 66.3,0 c 50.23333,0 66.5908,-0.2908 67.5,-1.2 0.89801,-0.89801 1.2,-12.6 1.2,-46.5 l 0,-45.3 94,0 94,0 0,45.3 c 0,33.9 0.30199,45.60199 1.2,46.5 0.90991,0.90991 17.71111,1.2 69.5,1.2 l 68.3,0 0,417.5 0,417.49998 -231,0 -231,0 0,-417.49998 z m 370.8,326.29998 c 1.74843,-1.7484 1.74843,-650.85155 0,-652.59998 -1.74381,-1.74381 -277.85619,-1.74381 -279.6,0 -1.74843,1.74843 -1.74843,650.85158 0,652.59998 1.74381,1.7438 277.85619,1.7438 279.6,0 z M 748,777.93362 l 0,-208 92,0 92,0 0,208 0,208 -92,0 -92,0 0,-208 z"
         id="path4104"
         inkscape:connector-curvature="0" />
    </g>
  </g>
</svg>
