<?xml version="1.0" encoding="UTF-8" standalone="no"?>
<!-- Created with Inkscape (http://www.inkscape.org/) -->

<svg
   xmlns:dc="http://purl.org/dc/elements/1.1/"
   xmlns:cc="http://creativecommons.org/ns#"
   xmlns:rdf="http://www.w3.org/1999/02/22-rdf-syntax-ns#"
   xmlns:svg="http://www.w3.org/2000/svg"
   xmlns="http://www.w3.org/2000/svg"
   xmlns:sodipodi="http://sodipodi.sourceforge.net/DTD/sodipodi-0.dtd"
   xmlns:inkscape="http://www.inkscape.org/namespaces/inkscape"
   width="16"
   height="16"
   viewBox="0 0 16 16"
   id="svg3825"
   version="1.1"
   inkscape:version="0.91 r13725"
   sodipodi:docname="firefox.svg">
  <defs
     id="defs3827" />
  <sodipodi:namedview
     id="base"
     pagecolor="#ffffff"
     bordercolor="#666666"
     borderopacity="1.0"
     inkscape:pageopacity="0.0"
     inkscape:pageshadow="2"
     inkscape:zoom="22.4"
     inkscape:cx="17.16388"
     inkscape:cy="15.998096"
     inkscape:document-units="px"
     inkscape:current-layer="layer1"
     showgrid="false"
     units="px"
     inkscape:window-width="1920"
     inkscape:window-height="1080"
     inkscape:window-x="0"
     inkscape:window-y="0"
     inkscape:window-maximized="1" />
  <metadata
     id="metadata3830">
    <rdf:RDF>
      <cc:Work
         rdf:about="">
        <dc:format>image/svg+xml</dc:format>
        <dc:type
           rdf:resource="http://purl.org/dc/dcmitype/StillImage" />
        <dc:title></dc:title>
      </cc:Work>
    </rdf:RDF>
  </metadata>
  <g
     inkscape:label="Layer 1"
     inkscape:groupmode="layer"
     id="layer1"
     transform="translate(0,-1036.3622)">
    <g
       id="g3844"
       transform="matrix(0.01249823,0,0,0.01249823,0,1039.2095)">
      <path
         style="fill:#f8f7f4"
         d="m 0,412.36217 0,-640 640,0 640,0 0,640 0,640.00003 -640,0 -640,0 0,-640.00003 z"
         id="path3860"
         inkscape:connector-curvature="0" />
      <path
         style="fill:#f58f36"
         d="m 0,412.36217 0,-640 640,0 640,0 0,640 0,640.00003 -640,0 -640,0 0,-640.00003 z m 738.125,158.73047 c 4.125,-1.56941 10.32964,-4.65232 13.78807,-6.8509 23.84367,-15.15777 37.33184,-52.40318 29.42055,-81.24007 -9.11641,-33.22963 -33.2551,-51.95531 -69.64713,-54.02909 -18.97118,-1.08106 -19.07224,-0.87365 -5.66867,11.63355 13.33862,12.44659 24.00887,27.62189 28.72298,40.85003 4.54741,12.76036 4.55565,29.02915 0.0211,41.7512 -5.17915,14.53071 -15.46017,28.36926 -32.0809,43.18181 -3.95995,3.52915 -6.26397,6.48206 -5.7308,7.34476 0.63277,1.02383 5.65133,1.2641 17.28322,0.82748 12.99041,-0.48762 17.94772,-1.20737 23.89153,-3.46877 z M 509.12885,259.79803 c 30.74089,-16.64406 59.0938,-37.17009 81.89654,-59.28882 l 15.48887,-15.02425 -4.70739,-8.1239 c -2.58905,-4.46814 -5.46263,-9.3722 -6.38572,-10.89792 l -1.67836,-2.77402 -12.80889,6.72006 c -33.05683,17.34291 -72.6888,26.95299 -111.15418,26.95299 l -16.34222,0 0.78644,3.93219 c 1.27121,6.35605 10.47607,28.3837 16.37781,39.19281 7.59158,13.9041 17.8208,28.125 20.23056,28.125 1.10946,0 9.3429,-3.96636 18.29654,-8.81414 z"
         id="path3858"
         inkscape:connector-curvature="0" />
      <path
         style="fill:#e75621"
         d="m 0,412.36217 0,-640 640,0 640,0 0,640 0,640.00003 -640,0 -640,0 0,-640.00003 z m 722.5,314.33491 c 47.35547,-8.33021 90.18076,-22.00648 128.125,-40.91676 18.57319,-9.25631 33.15586,-19.34919 75,-51.90849 11.47986,-8.93259 53.6072,-51.60631 60,-60.77821 2.75,-3.94548 7.56758,-10.36474 10.70571,-14.26503 13.46599,-16.7364 32.77709,-49.89903 43.07179,-73.96642 5.044,-11.79229 18.7169,-52.24256 20.0366,-59.27699 0.4747,-2.53044 0.2916,-5.17837 -0.4183,-6.04921 -0.6944,-0.85184 -1.9798,-4.08005 -2.8563,-7.1738 -2.4089,-8.50213 -13.142,-35.2748 -18.0438,-45.00859 -22.6911,-45.05836 -55.99765,-80.22126 -97.81155,-103.26294 -5.67371,-3.12652 -10.90333,-5.48875 -11.62138,-5.2494 -0.74643,0.24882 0.34044,3.6386 2.538,7.91555 9.97314,19.40995 21.87019,56.63123 26.76277,83.73038 3.81815,21.14812 6.4421,64.4843 5.22231,86.25 -2.97749,53.12995 -19.26261,103.42304 -46.8535,144.69694 -26.77186,40.04871 -58.07235,69.60555 -104.20145,98.39675 -22.67071,14.14979 -66.63884,35.25779 -88.4059,42.44147 -8.05255,2.65755 -15.53109,6.23159 -13.125,6.27251 0.6875,0.0113 6.03125,-0.81979 11.875,-1.84776 z M 557.37194,610.97457 c 13.58266,-1.31423 37.52189,-5.81688 49.81451,-9.36945 3.9537,-1.14261 18.1573,-6.73405 31.56355,-12.4254 34.1257,-14.48739 33.78425,-14.41005 65.26522,-14.78104 29.43858,-0.34691 33.98188,-1.31034 47.89785,-10.15694 23.84367,-15.15777 37.33184,-52.40318 29.42055,-81.24007 -8.95052,-32.62495 -32.98871,-51.67544 -68.11143,-53.97898 -18.37549,-1.20515 -26.66793,0.8254 -49.30692,12.07374 -10.74715,5.33979 -24.57182,12.62801 -30.7215,16.19605 -24.11095,13.98915 -57.03158,27.07088 -80.69377,32.06543 -17.67989,3.73182 -42.41789,4.20362 -58.5309,1.11631 -41.13956,-7.8825 -77.65115,-35.79484 -110.76114,-84.67455 -4.07485,-6.01563 -8.04385,-10.9375 -8.82,-10.9375 -1.94846,0 -11.94995,17.34694 -16.71649,28.9937 -2.1651,5.29028 -5.4681,15.69653 -7.34,23.125 -3.0877,12.25324 -3.40592,15.65174 -3.42997,36.6313 -0.0291,25.42349 1.37381,34.83767 8.32934,55.89211 5.32661,16.12374 14.7268,34.61052 17.89416,35.19134 1.375,0.25215 3.90625,1.4363 5.625,2.63145 5.01079,3.4843 27.20467,13.09605 38.75,16.78189 5.84375,1.86561 14.84375,4.74922 20,6.40802 12.86326,4.1382 44.83932,10.37327 59.64726,11.63073 14.02761,1.1912 41.27436,0.66045 60.22468,-1.17314 z M 509.2666,259.66466 c 30.35519,-16.32467 58.90006,-36.98242 81.81099,-59.20608 l 15.54106,-15.07489 -6.5422,-12.13576 c -3.59823,-6.67467 -6.93489,-12.13576 -7.41483,-12.13576 -0.47993,0 -1.93991,-1.82813 -3.24441,-4.0625 -1.30449,-2.23438 -5.08201,-7.66201 -8.3945,-12.06141 C 577.71023,140.58886 575,136.02718 575,134.85119 c 0,-1.87478 -2.18515,-2.24906 -17.74111,-3.0387 -37.13151,-1.88483 -70.39269,-14.94362 -100.2938,-39.376708 -5.11561,-4.180112 -9.55869,-7.17235 -9.87353,-6.649412 -1.62116,2.692837 -4.47791,22.69331 -5.06398,35.4538 -0.81859,17.82272 2.7182,53.53731 6.73368,67.997 7.87749,28.36664 20.05819,55.38831 32.56854,72.2501 5.32416,7.17606 6.734,8.37222 9.05086,7.67912 1.50939,-0.45153 10.00806,-4.72731 18.88594,-9.50173 z"
         id="path3856"
         inkscape:connector-curvature="0" />
      <path
         style="fill:#328a74"
         d="m 0,412.36217 0,-640 640,0 640,0 0,640 0,640.00003 -640,0 -640,0 0,-640.00003 z m 714.375,475.69946 c 85.36074,-10.49611 162.57801,-37.92759 228.75,-81.26356 36.18235,-23.69578 57.1025,-43.13411 90.2997,-83.90353 12.2834,-15.08511 37.9923,-53.60596 44.9837,-67.40098 2.4373,-4.809 5.6808,-10.434 7.2078,-12.5 3.1883,-4.31364 30.0796,-58.74624 32.7213,-66.2337 0.9667,-2.73998 2.4693,-6.11598 3.3391,-7.50223 0.8699,-1.38625 3.4374,-8.42671 5.7057,-15.64546 2.2683,-7.21875 5.4793,-17.34375 7.1355,-22.5 1.6563,-5.15625 3.0109,-10.78125 3.0103,-12.5 -6e-4,-1.71875 0.7561,-5.65625 1.6816,-8.75 0.9254,-3.09375 2.4003,-11.25 3.2776,-18.125 0.8773,-6.875 2.0651,-13.09893 2.6397,-13.83095 0.5746,-0.73201 1.6374,-13.80809 2.3618,-29.05794 1.3194,-27.77659 0.028,-59.59542 -3.8648,-95.23611 -2.9515,-27.02162 -12.7706,-69.73421 -21.614,-94.02025 -26.0613,-71.56985 -55.2403,-119.55435 -106.6317,-175.35475 -19.64529,-21.330738 -40.90892,-40.400287 -34.79161,-31.20165 38.39241,57.73084 61.37141,108.5899 75.65731,167.45165 8.7521,36.06054 12.6172,66.16467 13.4272,104.57952 0.7081,33.58277 -0.5646,53.13782 -5.0701,77.90652 -2.0632,11.34173 -3.2146,15.07935 -4.7351,15.36977 -1.4571,0.27833 -2.4546,-1.26317 -3.631,-5.61102 -2.2665,-8.37682 -12.9178,-35.05935 -18.1143,-45.37838 -22.6911,-45.05836 -55.99765,-80.22126 -97.81155,-103.26294 -5.67371,-3.12652 -10.90333,-5.48874 -11.62138,-5.24939 -0.74643,0.24881 0.34044,3.6386 2.538,7.91554 9.97314,19.40996 21.87019,56.63123 26.76277,83.73038 3.81815,21.14813 6.4421,64.4843 5.22231,86.25 -4.58859,81.87814 -39.79106,153.51187 -101.86826,207.29234 -21.30443,18.45705 -49.37209,37.24183 -76.80817,51.40526 -17.28267,8.9219 -49.32873,23.10037 -59.53442,26.34044 -3.78125,1.20046 -9.48393,3.4887 -12.67263,5.08498 -8.87505,4.44292 -18.96062,5.4844 -52.95237,5.46815 -35.04076,-0.0168 -53.08704,-1.6577 -80.625,-7.33121 -17.9547,-3.69911 -53.89155,-15.15369 -64.90863,-20.68907 -3.14401,-1.57967 -6.9003,-3.23819 -8.34732,-3.68562 -5.15701,-1.59456 -33.58319,-17.3036 -41.65594,-23.02013 -8.95361,-6.3403 -28.044,-22.69579 -42.15227,-36.11352 C 403.67596,624.36042 371.25,582.74661 371.25,576.76201 c 0,-2.57972 3.28599,-2.39124 7.30704,0.41911 5.14679,3.59712 27.16205,13.16679 38.94296,16.92784 5.84375,1.86561 14.84375,4.74922 20,6.40802 13.30305,4.27968 44.44881,10.25787 60.63406,11.63824 15.07145,1.28538 55.98834,-0.0158 69.58444,-2.21276 30.35268,-4.90469 41.02623,-8.02461 71.0315,-20.76274 34.1257,-14.48739 33.78425,-14.41005 65.26522,-14.78104 29.43858,-0.34691 33.98188,-1.31034 47.89785,-10.15693 23.84367,-15.15778 37.33184,-52.40319 29.42055,-81.24008 -8.95052,-32.62495 -32.98871,-51.67544 -68.11143,-53.97898 -18.37549,-1.20514 -26.66793,0.8254 -49.30692,12.07374 -10.74715,5.33979 -24.57182,12.62802 -30.7215,16.19605 -24.11095,13.98915 -57.03158,27.07088 -80.69377,32.06543 -17.67989,3.73182 -42.41789,4.20362 -58.5309,1.11631 -40.93738,-7.84376 -74.7669,-33.44133 -109.45055,-82.81724 -5.9227,-8.4316 -10.76855,-16.09816 -10.76855,-17.03681 0,-0.93865 4.11996,-6.41506 9.15548,-12.16981 29.97612,-34.25772 73.61936,-57.74858 122.06416,-65.70074 6.8917,-1.13126 12.53036,-2.40443 12.53036,-2.82924 0,-0.42482 -4.56914,-6.09609 -10.15363,-12.60281 -11.25071,-13.10865 -19.08793,-24.17581 -18.41237,-26.0006 0.24255,-0.65518 7.191,-4.71115 15.441,-9.0133 34.58985,-18.03765 66.814,-41.43834 91.72049,-66.60604 l 10.47047,-10.5803 -5.32686,-9.81507 c -7.67646,-14.14437 -12.18284,-21.30184 -18.84878,-29.93757 -3.2361,-4.19235 -6.08809,-8.69235 -6.33778,-10 -0.40978,-2.1461 -2.2169,-2.48088 -18.56575,-3.4394 -37.99963,-2.22786 -69.07528,-14.43528 -100.94628,-39.654633 -11.31856,-8.956312 -11.33506,-8.999362 -8.36162,-21.82055 5.57864,-24.054587 23.79632,-58.179737 45.88692,-85.95475 4.80823,-6.0455 8.45882,-11.275225 8.11242,-11.621637 -1.04865,-1.048638 -22.18157,4.5739 -32.17823,8.561225 -19.14671,7.636962 -40.65941,19.2674375 -62.2001,33.627437 -7.0538,4.702388 -13.31811,8.549788 -13.92067,8.549788 -1.43138,0 -21.48339,15.336162 -35.75423,27.345512 -16.22621,13.65485 -44.18516,42.036088 -59.42439,60.321908 -24.12126,28.94357 -42.23725,56.55147 -59.35724,90.45758 -26.83456,53.14584 -41.49277,103.80226 -47.56443,164.375 -2.63287,26.26621 -2.99649,78.72734 -0.69315,100 6.16858,56.9703 19.45061,103.57793 43.28065,151.875 16.42616,33.29142 38.39581,66.7812 64.16585,97.81218 18.00015,21.67486 55.95117,59.27895 76.46771,75.76864 71.45041,57.42667 152.65459,90.12043 243.95377,98.21869 18.92794,1.67891 76.15128,0.64441 95.42123,-1.72505 z"
         id="path3854"
         inkscape:connector-curvature="0" />
      <path
         style="fill:#1a9283"
         d="m 0,412.35734 0,-639.99517 639.99518,0 639.99522,0 -10e-5,639.99511 0,639.99512 -639.99519,0 L 0,1052.3525 0,412.35734 Z M 543.125,1046.7963 C 425.1269,1027.6512 320.13575,979.89913 228.75,903.81217 c -18.50559,-15.40759 -62.29241,-59.19441 -77.7,-77.7 C 66.848427,724.98019 17.472479,607.54558 3.3652534,474.86217 c -0.4562429,-4.29112 -0.4689959,-4.27762 -0.665207,0.70447 -0.2312695,5.87228 2.3501257,26.36049 6.0633425,48.12401 19.1005931,111.95034 70.4232861,220.65407 145.7342311,308.67152 15.78149,18.44415 49.55823,52.22089 68.00238,68.00238 88.9926,76.14532 195.0365,125.92065 311.86333,146.38365 8.94392,1.5665 18.51167,2.8571 21.26167,2.8678 2.75,0.013 -2.875,-1.2581 -12.5,-2.8197 z m 204.07439,0 c 103.26321,-17.5978 197.88886,-58.38381 281.34611,-121.26714 24.5298,-18.48271 42.9312,-34.57039 66.4933,-58.13244 23.5621,-23.56205 39.6497,-41.96354 58.1324,-66.49333 62.8834,-83.45722 103.6694,-178.08287 121.2672,-281.34608 1.6706,-9.80341 2.992,-19.51189 2.9364,-21.57439 -0.056,-2.0625 -1.379,4.125 -2.9407,13.75 -19.1451,117.9981 -66.8971,222.98925 -142.9841,314.375 -15.4076,18.50559 -59.1944,62.29241 -77.7,77.7 -91.38575,76.08696 -196.3769,123.83898 -314.375,142.98408 -9.625,1.5617 -15.8125,2.8849 -13.75,2.9407 2.0625,0.055 11.77098,-1.2658 21.57439,-2.9364 z M 714.375,888.06163 c 85.36074,-10.49611 162.57801,-37.92759 228.75,-81.26356 36.18235,-23.69578 57.1025,-43.13411 90.2997,-83.90353 12.2834,-15.08511 37.9923,-53.60596 44.9837,-67.40098 2.4373,-4.809 5.6808,-10.434 7.2078,-12.5 3.1883,-4.31364 30.0796,-58.74624 32.7213,-66.2337 0.9667,-2.73998 2.4693,-6.11598 3.3391,-7.50223 0.8699,-1.38625 3.4374,-8.42671 5.7057,-15.64546 2.2683,-7.21875 5.4793,-17.34375 7.1355,-22.5 1.6563,-5.15625 3.0109,-10.78125 3.0103,-12.5 -6e-4,-1.71875 0.7561,-5.65625 1.6816,-8.75 0.9254,-3.09375 2.4003,-11.25 3.2776,-18.125 0.8773,-6.875 2.0651,-13.09893 2.6397,-13.83095 0.5746,-0.73201 1.6374,-13.80809 2.3618,-29.05794 1.3194,-27.77659 0.028,-59.59542 -3.8648,-95.23611 -2.9515,-27.02162 -12.7706,-69.73421 -21.614,-94.02025 -26.0613,-71.56985 -55.2403,-119.55435 -106.6317,-175.35475 -19.64529,-21.330738 -40.90892,-40.400287 -34.79161,-31.20165 38.39241,57.73084 61.37141,108.5899 75.65731,167.45165 8.7521,36.06054 12.6172,66.16467 13.4272,104.57952 0.7081,33.58277 -0.5646,53.13782 -5.0701,77.90652 -2.0632,11.34173 -3.2146,15.07935 -4.7351,15.36977 -1.4571,0.27833 -2.4546,-1.26317 -3.631,-5.61102 -2.2665,-8.37682 -12.9178,-35.05935 -18.1143,-45.37838 -22.6911,-45.05836 -55.99765,-80.22126 -97.81155,-103.26294 -5.67371,-3.12652 -10.90333,-5.48874 -11.62138,-5.24939 -0.74643,0.24881 0.34044,3.6386 2.538,7.91554 9.97314,19.40996 21.87019,56.63123 26.76277,83.73038 3.81815,21.14813 6.4421,64.4843 5.22231,86.25 -4.58859,81.87814 -39.79106,153.51187 -101.86826,207.29234 -21.30443,18.45705 -49.37209,37.24183 -76.80817,51.40526 -17.28267,8.9219 -49.32873,23.10037 -59.53442,26.34044 -3.78125,1.20046 -9.48393,3.4887 -12.67263,5.08498 -8.87505,4.44292 -18.96062,5.4844 -52.95237,5.46815 -35.04076,-0.0168 -53.08704,-1.6577 -80.625,-7.33121 -17.9547,-3.69911 -53.89155,-15.15369 -64.90863,-20.68907 -3.14401,-1.57967 -6.9003,-3.23819 -8.34732,-3.68562 -5.15701,-1.59456 -33.58319,-17.3036 -41.65594,-23.02013 -8.95361,-6.3403 -28.044,-22.69579 -42.15227,-36.11352 C 403.67596,624.36042 371.25,582.74661 371.25,576.76201 c 0,-2.57972 3.28599,-2.39124 7.30704,0.41911 5.14679,3.59712 27.16205,13.16679 38.94296,16.92784 5.84375,1.86561 14.84375,4.74922 20,6.40802 13.30305,4.27968 44.44881,10.25787 60.63406,11.63824 15.07145,1.28538 55.98834,-0.0158 69.58444,-2.21276 30.35268,-4.90469 41.02623,-8.02461 71.0315,-20.76274 28.16869,-11.95845 34.23897,-13.81402 48.6967,-14.88567 14.44431,-1.07066 11.96729,0.45748 -3.04356,1.87766 -13.42462,1.27009 -20.31335,3.47958 -45.98668,14.74982 -22.71231,9.97039 -32.92576,13.40155 -50.61766,17.00479 -39.03764,7.95061 -88.33811,8.75776 -117.1738,1.91839 -5.5,-1.30451 -13.60305,-2.99987 -18.00679,-3.76743 -4.40372,-0.76757 -10.87247,-2.41787 -14.375,-3.66734 -3.50251,-1.24946 -11.43071,-3.78291 -17.61821,-5.62989 -11.09795,-3.31278 -37.29911,-14.25007 -42.84986,-17.88707 -3.86869,-2.53486 -4.70039,-1.2429 -1.96226,3.04824 2.11655,3.317 17.35348,23.67404 25.97551,34.7041 11.23056,14.36712 44.63983,45.56832 63.21161,59.03383 6.97991,5.0608 35.62034,20.93705 40.47176,22.43472 1.45928,0.45049 4.90324,1.96081 7.65324,3.35627 10.6144,5.38615 48.25228,17.44459 65.625,21.02497 27.84366,5.73834 46.7234,7.45712 81.71209,7.43896 32.21066,-0.0168 41.67154,-0.96909 52.52315,-5.28717 3.51437,-1.39844 9.48351,-3.54383 13.26476,-4.76752 15.66444,-5.06935 55.69137,-24.12455 75.625,-36.00201 29.43753,-17.54035 50.51011,-33.05885 68.97261,-50.7935 19.74361,-18.96526 30.29967,-31.59096 45.14854,-54.0005 11.80967,-17.82287 12.7031,-19.50734 22.84057,-43.06409 8.96464,-20.83138 16.36932,-47.03285 19.93276,-70.53211 2.75027,-18.13681 3.41019,-63.27526 1.29818,-88.7944 -2.69102,-32.51521 -16.03779,-81.46208 -29.50505,-108.20449 -5.16454,-10.2554 -5.50609,-12.9136 -1.50011,-11.67496 5.60229,1.73222 13.1136,6.01807 28.87404,16.47515 29.19588,19.37149 56.29596,48.6439 74.68056,80.66702 7.6053,13.24713 20.9068,43.28273 23.6038,53.29853 2.2906,8.50665 3.6514,6.4244 6.873,-10.51685 3.9475,-20.75814 5.7338,-66.7934 3.662,-94.375 -1.6483,-21.94391 -7.3652,-58.49987 -12.5111,-80 -8.8223,-36.86096 -14.2613,-52.07783 -35.52,-99.375 -7.2669,-16.16762 -23.92648,-44.171213 -38.52308,-64.7546 -5.2672,-7.427525 -10.34846,-14.5994 -11.29168,-15.9375 -1.48244,-2.103025 -1.45118,-2.4329 0.23061,-2.4329 3.27786,0 20.6633,14.6072 37.10935,31.179188 42.9519,43.280812 78.8823,94.877302 101.0234,145.070812 15.3036,34.693 23.9543,60.50062 30.3775,90.625 7.4562,34.96866 7.0067,31.77334 11.8394,84.16081 0.4014,4.35095 1.0116,7.62893 1.3562,7.28439 0.3445,-0.34454 1.69,-7.56065 2.99,-16.03581 9.0818,-59.20859 7.9161,-125.98356 -3.2635,-186.93952 -8.1883,-44.64633 -19.7283,-82.43306 -38.6619,-126.59487 -30.5399,-71.233425 -83.7996,-143.522775 -146.5986,-198.97825 -7.73438,-6.82995 -14.0625,-13.21125 -14.0625,-14.18068 0,-2.53602 2.07476,-1.55534 22.00396,10.40063 79.25214,47.545075 150.27824,115.84625 202.39824,194.6333 50.5662,76.43834 83.6795,161.91851 98.7819,255 1.5616,9.625 2.8849,15.8125 2.9407,13.75 0.055,-2.0625 -1.2658,-11.77098 -2.9364,-21.57439 -17.5978,-103.26321 -58.3838,-197.88886 -121.2672,-281.346085 -18.4827,-24.5297875 -34.5703,-42.931275 -58.1324,-66.493325 -39.1856,-39.185625 -76.208,-68.13062 -123.62786,-96.65522 -17.54274,-10.55254 -22.66094,-12.59954 -22.66094,-9.06317 0,2.16495 2.28408,4.47269 26.7302,27.00719 41.1866,37.965925 82.0128,88.749587 108.5297,135 36.6544,63.931975 61.2896,138.00969 70.2532,211.25 5.8529,47.82344 5.6286,107.15094 -0.5576,147.47752 -2.5463,16.59883 -2.8517,16.09609 -5.1353,-8.45427 -3.5715,-38.39686 -12.7095,-79.70506 -25.2393,-114.09404 -23.189,-63.64405 -55.0418,-115.93722 -101.5594,-166.73141 -22.44786,-24.511675 -48.9033,-48.1978 -53.83291,-48.1978 -2.84754,0 -1.88009,4.691413 1.85986,9.019 7.39452,8.5564 25.1774,35.357287 35.52805,53.54495 10.9292,19.20431 27.0453,55.40964 35.765,80.34704 7.7348,22.12091 16.9794,61.90488 20.8177,89.58901 4.4281,31.93819 5.6347,80.47829 2.6321,105.88921 -2.4071,20.37189 -4.5398,32.86511 -5.6071,32.84725 -0.4451,-0.007 -2.7631,-5.49182 -5.1512,-12.1875 -14.6916,-41.19199 -42.8123,-82.45055 -74.02846,-108.6142 -20.62787,-17.28911 -46.11769,-32.93476 -53.65719,-32.93476 -3.46293,0 -2.91589,2.88709 2.56917,13.55912 14.25682,27.73888 26.98849,74.20457 30.02122,109.56588 1.96492,22.91065 1.64406,66.96469 -0.60287,82.77466 -7.69796,54.16492 -27.5266,100.39079 -61.0078,142.22556 -8.59177,10.73544 -28.06624,30.66167 -40.99433,41.9453 -8.96522,7.82484 -33.25948,24.76253 -51.08274,35.61432 -29.54154,17.98651 -83.205,41.62908 -105,46.25997 -11.39639,2.42145 -65.46619,2.44126 -86.875,0.0319 -25.1561,-2.83115 -50.98753,-8.75075 -74.80525,-17.14258 -24.38944,-8.59325 -58.77392,-25.27412 -72.43908,-35.1422 -19.29601,-13.93436 -47.72416,-40.35424 -61.53921,-57.19191 -12.86169,-15.67572 -27.23954,-35.01859 -26.54565,-35.71248 0.33323,-0.33322 7.43749,2.48465 15.78724,6.26196 15.60694,7.06033 47.02337,17.37622 61.41695,20.16684 4.46875,0.86639 12.0625,2.44648 16.875,3.51129 26.57562,5.88014 74.67409,5.43855 109.41691,-1.00454 21.87258,-4.05628 29.94147,-6.58361 54.95809,-17.21383 36.99869,-15.72174 34.00266,-15.0105 67.5,-16.02402 32.10631,-0.97142 34.44815,-1.43163 47.43758,-9.3223 17.63642,-10.71356 30.04821,-31.9036 33.82783,-57.7526 3.52047,-24.07655 -7.14163,-51.70495 -25.64041,-66.44133 -10.5321,-8.39003 -12.97246,-9.76224 -23.99996,-13.49516 -11.11045,-3.761 -29.75864,-4.97546 -44.81874,-2.91878 -9.27653,1.26684 -24.49173,8.23559 -54.17413,24.81242 -30.73968,17.16729 -58.71716,28.524 -85.13217,34.55713 -14.34295,3.2759 -39.75808,3.85335 -54.61526,1.24091 -41.12608,-7.23149 -78.34148,-35.33969 -110.80793,-83.69151 -4.57975,-6.82054 -8.32681,-12.83706 -8.32681,-13.37004 0,-2.12756 17.04446,-20.25386 26.65846,-28.35051 29.15598,-24.55436 62.44883,-39.81792 100.21654,-45.94566 18.43574,-2.99116 18.12918,-2.90183 18.08062,-5.2691 -0.0244,-1.19003 -5.14873,-8.06994 -11.38738,-15.28869 -13.6646,-15.8113 -19.21148,-23.61966 -17.76822,-25.01238 0.59124,-0.57052 7.26488,-4.36307 14.83032,-8.42788 48.23697,-25.91712 97.37859,-66.99669 119.24999,-99.68615 12.92257,-19.31436 29.22196,-54.51978 26.94627,-58.20189 -1.17516,-1.90146 -4.68768,-1.33525 -8.7016,1.40268 -7.08911,4.83555 -20.68948,11.23674 -30.33738,14.27872 -21.97892,6.92993 -29.6812,8.12964 -52.16262,8.12492 -19.34104,-0.004 -22.48521,-0.32593 -35,-3.58291 -28.00719,-7.28887 -47.7139,-17.10567 -69.21928,-34.48121 -9.75029,-7.877888 -9.8758,-8.21955 -7.13087,-19.4139 6.29389,-25.6678 23.09466,-56.751613 46.19634,-85.469738 6.19277,-7.698362 10.64257,-14.332312 10.26811,-15.308137 -0.91688,-2.389338 -5.38816,-2.1583 -18.01781,0.930987 -23.95749,5.860138 -58.57596,22.757138 -87.45112,42.684175 -8.77963,6.058926 -9.27156,6.233176 -13.7818,4.881876 C 386.41613,18.060608 375.8882,15.69742 365.5932,13.579807 349.69247,10.309145 343.11197,9.624095 321.875,9.0286075 296.20452,8.308795 281.52913,9.521395 257.02629,14.386895 c -12.2161,2.425737 -46.89305,14.110037 -56.96408,19.193875 -4.12001,2.079775 -8.15741,3.7814 -8.97202,3.7814 -1.12404,0 -1.28328,-7.609213 -0.66054,-31.5625 0.45131,-17.359375 1.1799,-35.078125 1.61908,-39.375 0.74792,-7.317675 0.6351,-7.8125 -1.78133,-7.8125 -4.59173,0 -38.1022,36.8686 -59.60066,65.573325 C 61.073252,117.1066 19.319879,219.05169 4.3404865,332.62384 c -1.0122676,7.67492 -1.7504656,16.24014 -1.6404401,19.03385 0.1962111,4.9821 0.2089641,4.9956 0.665207,0.70448 C 17.163456,222.58523 64.952629,106.98187 146.7596,5.48717 c 12.48586,-15.490713 40.44952,-44.375 42.96065,-44.375 1.47704,0 1.6973,1.091362 1.0722,5.3125 -1.13805,7.684862 -2.57185,69.004925 -1.66854,71.358925 0.64726,1.686737 2.53149,1.165262 12.48963,-3.456625 13.58807,-6.306663 42.31317,-15.912937 55.88657,-18.68965 22.62746,-4.628912 39.98484,-6.0727625 64.37489,-5.35495 23.5588,0.69335 34.82455,2.309088 63.44569,9.099387 l 8.44567,2.003725 15.30433,-10.007912 c 29.40437,-19.228325 59.00301,-33.393013 81.19312,-38.855675 17.32694,-4.265475 20.06953,-3.3262 13.07283,4.47715 -17.70153,19.7423375 -40.656,56.717075 -47.93488,77.212787 -3.10351,8.7388 -6.65176,22.969013 -6.65176,26.676775 0,3.671038 5.27584,8.55055 21.875,20.231713 20.68256,14.55474 49.13002,25.78012 72.5,28.60852 8.11316,0.98192 8.29511,1.06643 2.5,1.16114 -7.265,0.11875 -27.61898,-5.11217 -43.75,-11.24364 -19.16258,-7.28376 -55.40494,-32.167383 -55.55591,-38.144108 -0.038,-1.504212 0.79891,-6.477662 1.8598,-11.052125 5.57864,-24.054587 23.79632,-58.179737 45.88692,-85.95475 4.80823,-6.0455 8.45882,-11.275225 8.11242,-11.621637 -1.04865,-1.048638 -22.18157,4.5739 -32.17823,8.561225 -19.14671,7.636962 -40.65941,19.2674375 -62.2001,33.627437 -7.0538,4.702388 -13.31811,8.549788 -13.92067,8.549788 -1.43138,0 -21.48339,15.336162 -35.75423,27.345512 -16.22621,13.65485 -44.18516,42.036088 -59.42439,60.321908 -24.12126,28.94357 -42.23725,56.55147 -59.35724,90.45758 -26.83456,53.14584 -41.49277,103.80226 -47.56443,164.375 -2.63287,26.26621 -2.99649,78.72734 -0.69315,100 6.16858,56.9703 19.45061,103.57793 43.28065,151.875 16.42616,33.29142 38.39581,66.7812 64.16585,97.81218 18.00015,21.67486 55.95117,59.27895 76.46771,75.76864 71.45041,57.42667 152.65459,90.12043 243.95377,98.21869 18.92794,1.67891 76.15128,0.64441 95.42123,-1.72505 z M 508.75,492.23152 C 483.16195,490.41172 459.55657,481.58107 439.09159,466.17268 426.3728,456.59651 413.06276,444.13307 403.8462,433.16906 393.39087,420.73144 373.75,392.96389 373.75,390.62017 c 0,-0.93865 4.11996,-6.41506 9.15548,-12.16981 29.97612,-34.25772 73.61936,-57.74858 122.06416,-65.70074 6.8917,-1.13126 12.53036,-2.40443 12.53036,-2.82924 0,-0.42482 -4.56914,-6.09609 -10.15363,-12.60281 -13.55421,-15.79255 -19.15763,-24.2475 -17.96132,-27.10163 0.77781,-1.85568 1.10965,-1.59907 1.98236,1.53294 0.98915,3.54983 21.4101,29.72821 27.20065,34.86953 1.47506,1.30967 2.68194,3.12708 2.68194,4.03869 0,1.77159 -0.59782,1.94146 -15,4.26202 -46.25455,7.45279 -85.87554,27.78868 -116.38177,59.7342 -7.49003,7.84339 -13.61823,15.10115 -13.61823,16.12834 0,2.66642 16.43654,26.65013 26.35436,38.45551 37.81675,45.014 74.80921,63.44592 123.44494,61.5079 33.77361,-1.3458 65.96106,-12.0792 109.5757,-36.5397 26.57634,-14.90486 46.73481,-24.27088 53.75,-24.97326 l 6.25,-0.62578 -7.11021,1.83139 c -7.55982,1.94719 -36.76073,16.13131 -55.32102,26.87175 -24.84288,14.37605 -59.57198,27.97824 -82.56877,32.33932 -15.7273,2.9825 -26.72033,3.66053 -41.875,2.58273 z m 92.41867,-317.05685 c -7.60137,-14.00915 -12.12606,-21.19195 -18.77835,-29.80998 -3.2361,-4.19235 -6.08771,-8.69235 -6.33692,-10 -0.3897,-2.04486 -1.93799,-2.47611 -11.06575,-3.08214 l -10.61265,-0.70462 12.7138,-0.23288 c 24.25866,-0.44434 62.73281,-11.93977 77.84155,-23.25774 8.20775,-6.14843 9.51399,-3.44332 4.6157,9.55882 -4.65198,12.34837 -14.87651,31.92804 -23.05194,44.14379 -7.82586,11.69344 -17.20262,23.07225 -19.01279,23.07225 -0.58091,0 -3.42161,-4.35938 -6.31265,-9.6875 z M 2.0778509,447.04967 c -0.3467654,-0.85938 -0.6304825,-0.15625 -0.6304825,1.5625 0,1.71875 0.2837171,2.42187 0.6304825,1.5625 0.3467653,-0.85938 0.3467653,-2.26563 0,-3.125 z m 0,-70 c -0.3467654,-0.85938 -0.6304825,-0.15625 -0.6304825,1.5625 0,1.71875 0.2837171,2.42187 0.6304825,1.5625 0.3467653,-0.85938 0.3467653,-2.26563 0,-3.125 z M 717.5,-222.01283 c 0,-1.04167 -1.11111,-1.875 -2.5,-1.875 -1.38889,0 -2.5,0.83333 -2.5,1.875 0,1.04167 1.11111,1.875 2.5,1.875 1.38889,0 2.5,-0.83333 2.5,-1.875 z m -11.17228,-1.25 c 0,-0.6875 -1.42373,-1.42799 -3.16386,-1.64553 -2.25487,-0.28189 -3.16386,0.19087 -3.16386,1.64553 0,1.45466 0.90899,1.92742 3.16386,1.64553 1.74013,-0.21754 3.16386,-0.95803 3.16386,-1.64553 z m -13.20272,-0.625 c 0.46656,-0.75491 -1.23702,-1.25 -4.30122,-1.25 -2.79058,0 -5.07378,0.5625 -5.07378,1.25 0,0.6875 1.93555,1.25 4.30122,1.25 2.36568,0 4.64888,-0.5625 5.07378,-1.25 z m -66.44309,-0.9375 c 0.31872,-0.51562 -2.03872,-0.76943 -5.23872,-0.564 -9.12864,0.586 -10.23578,1.19789 -2.45447,1.3565 3.91255,0.0797 7.37449,-0.27687 7.69319,-0.7925 z m 43.94309,0.19072 c -5.75352,-0.93511 -15.34677,-1.05866 -14.80868,-0.19072 0.31967,0.51563 4.3449,0.8609 8.94496,0.76727 4.60004,-0.0936 7.23872,-0.35307 5.86372,-0.57655 z m 7.1875,-1.33107 c -0.85938,-0.34677 -2.26563,-0.34677 -3.125,0 -0.85938,0.34676 -0.15625,0.63048 1.5625,0.63048 1.71875,0 2.42187,-0.28372 1.5625,-0.63048 z"
         id="path3852"
         inkscape:connector-curvature="0" />
      <path
         style="fill:#576c53"
         d="m 573.75,1050.4595 c -68.35498,-6.2562 -144.57008,-27.9162 -210.67927,-59.87423 -48.22826,-23.31411 -92.28968,-51.77843 -134.32073,-86.7731 -18.50559,-15.40759 -62.29241,-59.19441 -77.7,-77.7 C 71.323926,730.35558 21.252086,616.09934 5.6085604,494.23717 c -5.6987348,-44.39283 -5.6987348,-116.85718 0,-161.25 C 20.876647,214.04964 69.401024,101.46292 146.7596,5.48717 c 12.48586,-15.490713 40.44952,-44.375 42.96065,-44.375 1.47704,0 1.6973,1.091362 1.0722,5.3125 -1.13805,7.684862 -2.57185,69.004925 -1.66854,71.358925 0.64726,1.686737 2.53149,1.165262 12.48963,-3.456625 13.58807,-6.306663 42.31317,-15.912937 55.88657,-18.68965 22.62746,-4.628912 39.98484,-6.0727625 64.37489,-5.35495 23.5588,0.69335 34.82455,2.309088 63.44569,9.099387 l 8.44567,2.003725 15.30433,-10.007912 c 29.40437,-19.228325 59.00301,-33.393013 81.19312,-38.855675 17.32694,-4.265475 20.06953,-3.3262 13.07283,4.47715 -17.70153,19.7423375 -40.656,56.717075 -47.93488,77.212787 -3.10351,8.7388 -6.65176,22.969013 -6.65176,26.676775 0,3.671038 5.27584,8.55055 21.875,20.231713 20.68256,14.55474 49.13002,25.78012 72.5,28.60852 8.11316,0.98192 8.29511,1.06643 2.5,1.16114 -7.265,0.11875 -27.61898,-5.11217 -43.75,-11.24364 -19.16258,-7.28376 -55.40494,-32.167383 -55.55591,-38.144108 -0.038,-1.504212 0.79891,-6.477662 1.8598,-11.052125 5.57864,-24.054587 23.79632,-58.179737 45.88692,-85.95475 4.80823,-6.0455 8.45882,-11.275225 8.11242,-11.621637 -1.04865,-1.048638 -22.18157,4.5739 -32.17823,8.561225 -19.14671,7.636962 -40.65941,19.2674375 -62.2001,33.627437 -7.0538,4.702388 -13.31811,8.549788 -13.92067,8.549788 -1.43138,0 -21.48339,15.336162 -35.75423,27.345512 -16.22621,13.65485 -44.18516,42.036088 -59.42439,60.321908 -24.12126,28.94357 -42.23725,56.55147 -59.35724,90.45758 -26.83456,53.14584 -41.49277,103.80226 -47.56443,164.375 -2.63287,26.26621 -2.99649,78.72734 -0.69315,100 6.16858,56.9703 19.45061,103.57793 43.28065,151.875 16.42616,33.29142 38.39581,66.7812 64.16585,97.81218 18.00015,21.67486 55.95117,59.27895 76.46771,75.76864 85.6809,68.86409 184.71929,102.0824 295.625,99.15514 97.29299,-2.56797 193.52868,-32.20682 272.5,-83.92506 36.18235,-23.69578 57.1025,-43.13411 90.2997,-83.90353 12.2834,-15.08511 37.9923,-53.60596 44.9837,-67.40098 2.4373,-4.809 5.6808,-10.434 7.2078,-12.5 3.1883,-4.31364 30.0796,-58.74624 32.7213,-66.2337 0.9667,-2.73998 2.4693,-6.11598 3.3391,-7.50223 0.8699,-1.38625 3.4374,-8.42671 5.7057,-15.64546 2.2683,-7.21875 5.4793,-17.34375 7.1355,-22.5 1.6563,-5.15625 3.0109,-10.78125 3.0103,-12.5 -6e-4,-1.71875 0.7561,-5.65625 1.6816,-8.75 0.9254,-3.09375 2.4003,-11.25 3.2776,-18.125 0.8773,-6.875 2.0651,-13.09893 2.6397,-13.83095 0.5746,-0.73201 1.6374,-13.80809 2.3618,-29.05794 1.3194,-27.77659 0.028,-59.59542 -3.8648,-95.23611 -2.9515,-27.02162 -12.7706,-69.73421 -21.614,-94.02025 -26.0613,-71.56985 -55.2403,-119.55435 -106.6317,-175.35475 -19.64529,-21.330738 -40.90892,-40.400287 -34.79161,-31.20165 38.39241,57.73084 61.37141,108.5899 75.65731,167.45165 8.7521,36.06054 12.6172,66.16467 13.4272,104.57952 0.7081,33.58277 -0.5646,53.13782 -5.0701,77.90652 -2.0632,11.34173 -3.2146,15.07935 -4.7351,15.36977 -1.4571,0.27833 -2.4546,-1.26317 -3.631,-5.61102 -2.2665,-8.37682 -12.9178,-35.05935 -18.1143,-45.37838 -22.6911,-45.05836 -55.99765,-80.22126 -97.81155,-103.26294 -5.67371,-3.12652 -10.90333,-5.48874 -11.62138,-5.24939 -0.74643,0.24881 0.34044,3.6386 2.538,7.91554 9.97314,19.40996 21.87019,56.63123 26.76277,83.73038 3.81815,21.14813 6.4421,64.4843 5.22231,86.25 -4.58859,81.87814 -39.79106,153.51187 -101.86826,207.29234 -21.30443,18.45705 -49.37209,37.24183 -76.80817,51.40526 -17.28267,8.9219 -49.32873,23.10037 -59.53442,26.34044 -3.78125,1.20046 -9.48393,3.4887 -12.67263,5.08498 -8.87505,4.44292 -18.96062,5.4844 -52.95237,5.46815 -35.04076,-0.0168 -53.08704,-1.6577 -80.625,-7.33121 -17.9547,-3.69911 -53.89155,-15.15369 -64.90863,-20.68907 -3.14401,-1.57967 -6.9003,-3.23819 -8.34732,-3.68562 -5.15701,-1.59456 -33.58319,-17.3036 -41.65594,-23.02013 -8.95361,-6.3403 -28.044,-22.69579 -42.15227,-36.11352 C 403.67596,624.36042 371.25,582.74661 371.25,576.76201 c 0,-2.57972 3.28599,-2.39124 7.30704,0.41911 5.14679,3.59712 27.16205,13.16679 38.94296,16.92784 5.84375,1.86561 14.84375,4.74922 20,6.40802 13.30305,4.27968 44.44881,10.25787 60.63406,11.63824 15.07145,1.28538 55.98834,-0.0158 69.58444,-2.21276 30.35268,-4.90469 41.02623,-8.02461 71.0315,-20.76274 28.16869,-11.95845 34.23897,-13.81402 48.6967,-14.88567 14.44431,-1.07066 11.96729,0.45748 -3.04356,1.87766 -13.42462,1.27009 -20.31335,3.47958 -45.98668,14.74982 -22.71231,9.97039 -32.92576,13.40155 -50.61766,17.00479 -39.03764,7.95061 -88.33811,8.75776 -117.1738,1.91839 -5.5,-1.30451 -13.60305,-2.99987 -18.00679,-3.76743 -4.40372,-0.76757 -10.87247,-2.41787 -14.375,-3.66734 -3.50251,-1.24946 -11.43071,-3.78291 -17.61821,-5.62989 -11.09795,-3.31278 -37.29911,-14.25007 -42.84986,-17.88707 -3.86869,-2.53486 -4.70039,-1.2429 -1.96226,3.04824 2.11655,3.317 17.35348,23.67404 25.97551,34.7041 11.23056,14.36712 44.63983,45.56832 63.21161,59.03383 6.97991,5.0608 35.62034,20.93705 40.47176,22.43472 1.45928,0.45049 4.90324,1.96081 7.65324,3.35627 10.6144,5.38615 48.25228,17.44459 65.625,21.02497 27.84366,5.73834 46.7234,7.45712 81.71209,7.43896 32.21066,-0.0168 41.67154,-0.96909 52.52315,-5.28717 3.51437,-1.39844 9.48351,-3.54383 13.26476,-4.76752 15.66444,-5.06935 55.69137,-24.12455 75.625,-36.00201 29.43753,-17.54035 50.51011,-33.05885 68.97261,-50.7935 19.74361,-18.96526 30.29967,-31.59096 45.14854,-54.0005 11.80967,-17.82287 12.7031,-19.50734 22.84057,-43.06409 8.96464,-20.83138 16.36932,-47.03285 19.93276,-70.53211 2.75027,-18.13681 3.41019,-63.27526 1.29818,-88.7944 -2.69102,-32.51521 -16.03779,-81.46208 -29.50505,-108.20449 -5.16454,-10.2554 -5.50609,-12.9136 -1.50011,-11.67496 5.60229,1.73222 13.1136,6.01807 28.87404,16.47515 29.19588,19.37149 56.29596,48.6439 74.68056,80.66702 7.6053,13.24713 20.9068,43.28273 23.6038,53.29853 2.2906,8.50665 3.6514,6.4244 6.873,-10.51685 3.9475,-20.75814 5.7338,-66.7934 3.662,-94.375 -1.6483,-21.94391 -7.3652,-58.49987 -12.5111,-80 -8.8223,-36.86096 -14.2613,-52.07783 -35.52,-99.375 -7.2669,-16.16762 -23.92648,-44.171213 -38.52308,-64.7546 -5.2672,-7.427525 -10.34846,-14.5994 -11.29168,-15.9375 -1.48244,-2.103025 -1.45118,-2.4329 0.23061,-2.4329 3.27786,0 20.6633,14.6072 37.10935,31.179188 42.9519,43.280812 78.8823,94.877302 101.0234,145.070812 15.3036,34.693 23.9543,60.50062 30.3775,90.625 7.4562,34.96866 7.0067,31.77334 11.8394,84.16081 0.4014,4.35095 1.0116,7.62893 1.3562,7.28439 0.3445,-0.34454 1.69,-7.56065 2.99,-16.03581 9.0818,-59.20859 7.9161,-125.98356 -3.2635,-186.93952 -8.1883,-44.64633 -19.7283,-82.43306 -38.6619,-126.59487 -30.5399,-71.233425 -83.7996,-143.522775 -146.5986,-198.97825 -7.73438,-6.82995 -14.0625,-13.21125 -14.0625,-14.18068 0,-2.53602 2.07476,-1.55534 22.00396,10.40063 79.25214,47.545075 150.27824,115.84625 202.39824,194.6333 50.3497,76.11097 84.377,163.90331 98.7542,254.7907 7.6996,48.6738 7.6996,147.9948 0,196.6686 -18.3283,115.86524 -67.1093,223.06809 -142.9564,314.1657 -15.4076,18.50559 -59.1944,62.29241 -77.7,77.7 -100.10762,83.34871 -224.01089,135.78123 -346.6657,146.69963 -25.0757,2.2321 -108.73328,2.1994 -133.3343,-0.053 z m -65,-558.22798 C 483.16195,490.41172 459.55657,481.58107 439.09159,466.17268 426.3728,456.59651 413.06276,444.13307 403.8462,433.16906 393.39087,420.73144 373.75,392.96389 373.75,390.62017 c 0,-0.93865 4.11996,-6.41506 9.15548,-12.16981 29.97612,-34.25772 73.61936,-57.74858 122.06416,-65.70074 6.8917,-1.13126 12.53036,-2.40443 12.53036,-2.82924 0,-0.42482 -4.56914,-6.09609 -10.15363,-12.60281 -13.55421,-15.79255 -19.15763,-24.2475 -17.96132,-27.10163 0.77781,-1.85568 1.10965,-1.59907 1.98236,1.53294 0.98915,3.54983 21.4101,29.72821 27.20065,34.86953 1.47506,1.30967 2.68194,3.12708 2.68194,4.03869 0,1.77159 -0.59782,1.94146 -15,4.26202 -46.25455,7.45279 -85.87554,27.78868 -116.38177,59.7342 -7.49003,7.84339 -13.61823,15.10115 -13.61823,16.12834 0,2.66642 16.43654,26.65013 26.35436,38.45551 37.81675,45.014 74.80921,63.44592 123.44494,61.5079 33.77361,-1.3458 65.96106,-12.0792 109.5757,-36.5397 26.57634,-14.90486 46.73481,-24.27088 53.75,-24.97326 l 6.25,-0.62578 -7.11021,1.83139 c -7.55982,1.94719 -36.76073,16.13131 -55.32102,26.87175 -24.84288,14.37605 -59.57198,27.97824 -82.56877,32.33932 -15.7273,2.9825 -26.72033,3.66053 -41.875,2.58273 z m 92.41867,-317.05685 c -7.60137,-14.00915 -12.12606,-21.19195 -18.77835,-29.80998 -3.2361,-4.19235 -6.08771,-8.69235 -6.33692,-10 -0.3897,-2.04486 -1.93799,-2.47611 -11.06575,-3.08214 l -10.61265,-0.70462 12.7138,-0.23288 c 24.25866,-0.44434 62.73281,-11.93977 77.84155,-23.25774 8.20775,-6.14843 9.51399,-3.44332 4.6157,9.55882 -4.65198,12.34837 -14.87651,31.92804 -23.05194,44.14379 -7.82586,11.69344 -17.20262,23.07225 -19.01279,23.07225 -0.58091,0 -3.42161,-4.35938 -6.31265,-9.6875 z m 13.51883,-401.21674 c 2.23437,-0.27729 5.89062,-0.27729 8.125,0 2.23437,0.27728 0.40625,0.50415 -4.0625,0.50415 -4.46875,0 -6.29688,-0.22687 -4.0625,-0.50415 z m 45.625,-0.006 c 2.57812,-0.26968 6.79687,-0.26968 9.375,0 2.57812,0.26968 0.46875,0.49033 -4.6875,0.49033 -5.15625,0 -7.26563,-0.22065 -4.6875,-0.49033 z"
         id="path3850"
         inkscape:connector-curvature="0" />
      <path
         style="fill:#94431f"
         d="M 588.75,1051.1085 C 452.19731,1036.6494 338.13149,990.27076 236.28006,907.79559 212.73932,888.73327 166.1289,842.12284 147.06657,818.58211 85.571265,742.63943 44.325979,660.13858 21.226255,566.87013 13.699258,536.47881 8.3288594,505.28098 5.7107502,476.73717 4.638744,465.04967 3.1965271,449.23689 2.505824,441.59767 c -1.59929263,-17.68827 -1.59929263,-38.28272 0,-55.971 0.6907031,-7.63923 2.13292,-23.452 3.2049262,-35.1395 C 18.301775,213.21409 81.672758,73.68612 176.53634,-25.630543 c 6.42623,-6.727899 11.18883,-10.765662 12.06184,-10.226125 0.79342,0.490375 1.21767,1.274588 0.94275,1.742713 -0.98742,1.681337 -3.60692,68.796987 -2.80917,71.97545 0.44873,1.787875 1.5929,3.250675 2.54259,3.250675 0.9497,0 6.42336,-2.15795 12.16369,-4.795438 5.74032,-2.637487 19.15571,-7.692387 29.81196,-11.2331 43.58005,-14.480175 90.91123,-17.180162 135.625,-7.736687 28.29102,5.975025 26.93957,5.922287 33.93535,1.324187 4.62961,-3.042887 5.17731,-3.22655 2.31465,-0.776187 -2.0625,1.76545 -5.71875,4.1407 -8.125,5.278312 -10.5264,4.97665 -43.01682,32.085475 -65.63158,54.7606 -38.45786,38.560553 -66.35528,76.925353 -90.02505,123.803313 -26.83456,53.14584 -41.49277,103.80226 -47.56443,164.375 -2.63287,26.26621 -2.99649,78.72734 -0.69315,100 6.16858,56.9703 19.45061,103.57793 43.28065,151.875 16.42616,33.29142 38.39581,66.7812 64.16585,97.81218 18.00015,21.67486 55.95117,59.27895 76.46771,75.76864 85.6809,68.86409 184.71929,102.0824 295.625,99.15514 97.29299,-2.56797 193.52868,-32.20682 272.5,-83.92506 36.18235,-23.69578 57.1025,-43.13411 90.2997,-83.90353 12.2834,-15.08511 37.9923,-53.60596 44.9837,-67.40098 2.4373,-4.809 5.6808,-10.434 7.2078,-12.5 3.1883,-4.31364 30.0796,-58.74624 32.7213,-66.2337 0.9667,-2.73998 2.4693,-6.11598 3.3391,-7.50223 0.8699,-1.38625 3.4374,-8.42671 5.7057,-15.64546 2.2683,-7.21875 5.4793,-17.34375 7.1355,-22.5 1.6563,-5.15625 3.0109,-10.78125 3.0103,-12.5 -6e-4,-1.71875 0.7561,-5.65625 1.6816,-8.75 0.9254,-3.09375 2.4003,-11.25 3.2776,-18.125 0.8773,-6.875 2.0645,-13.0982 2.6384,-13.82933 2.1686,-2.76292 3.7429,-55.33453 2.2824,-76.21578 -0.7711,-11.02482 -1.1829,-21.43107 -0.915,-23.125 0.2678,-1.69394 0.9362,4.37323 1.4852,13.48261 0.9231,15.31414 2.1055,19.81871 3.7735,14.375 1.6377,-5.34494 7.1413,-47.6567 8.4141,-64.6875 2.8281,-37.84188 0.07,-101.98429 -5.8596,-136.25 -4.8722,-28.15818 -10.3865,-52.06413 -16.9099,-73.31043 -25.2788,-82.330608 -63.6027,-149.806908 -121.933,-214.685545 -16.85431,-18.746415 -39.28938,-41.109795 -52.05636,-51.890035 -3.96989,-3.3521 -6.9416,-6.37109 -6.60383,-6.70887 1.42258,-1.42258 43.05424,25.14203 65.07179,41.521442 25.717,19.131575 44.9547,36.002075 71.9087,63.0605 36.9683,37.1116005 63.3344,70.056063 88.9668,111.164388 53.8694,86.39369 83.9596,176.3776 96.0044,287.09855 1.4114,12.9738 1.4114,90.7762 0,103.75 -12.0448,110.72095 -42.135,200.70486 -96.0044,287.09855 -26.0774,41.82186 -52.1123,74.24545 -90.1969,112.33005 -38.0846,38.0846 -70.5082,64.11955 -112.33005,90.19693 -86.39369,53.8694 -176.3776,83.9596 -287.09855,96.0043 -11.63094,1.2653 -92.40746,1.2587 -104.375,-0.013 z m 39.0625,-319.65692 c 2.57812,-0.26967 6.79687,-0.26967 9.375,0 2.57812,0.26969 0.46875,0.49033 -4.6875,0.49033 -5.15625,0 -7.26563,-0.22064 -4.6875,-0.49033 z m 45,-0.0131 c 3.95312,-0.24807 10.42187,-0.24807 14.375,0 3.95312,0.24806 0.71875,0.45102 -7.1875,0.45102 -7.90625,0 -11.14063,-0.20296 -7.1875,-0.45102 z m -58.125,-1.20843 c 1.54687,-0.29795 4.07812,-0.29795 5.625,0 1.54687,0.29794 0.28125,0.54171 -2.8125,0.54171 -3.09375,0 -4.35938,-0.24377 -2.8125,-0.54171 z m 83.14879,0.0159 c 1.21621,-0.31693 2.90371,-0.29609 3.75,0.0464 0.84629,0.34241 -0.14879,0.60172 -2.21129,0.57624 -2.0625,-0.0255 -2.75492,-0.30562 -1.53871,-0.62255 z m -95.0066,-1.28074 c 1.90007,-0.28732 4.71257,-0.27964 6.25,0.017 1.53742,0.2967 -0.0172,0.53178 -3.45469,0.5224 -3.4375,-0.01 -4.69539,-0.25215 -2.79531,-0.53946 z m 101.93594,0.0431 c 0.90233,-0.36108 1.98047,-0.31668 2.39583,0.0986 0.41536,0.41536 -0.32292,0.7108 -1.64062,0.65652 -1.45619,-0.06 -1.75238,-0.35617 -0.75521,-0.7552 z M 594.6875,727.78432 c 0.85937,-0.34676 2.26562,-0.34676 3.125,0 0.85937,0.34676 0.15625,0.63049 -1.5625,0.63049 -1.71875,0 -2.42188,-0.28373 -1.5625,-0.63049 z m -6.25,-1.25 c 0.85937,-0.34676 2.26562,-0.34676 3.125,0 0.85937,0.34676 0.15625,0.63049 -1.5625,0.63049 -1.71875,0 -2.42188,-0.28373 -1.5625,-0.63049 z m -6.25,-1.25 c 0.85937,-0.34676 2.26562,-0.34676 3.125,0 0.85937,0.34676 0.15625,0.63049 -1.5625,0.63049 -1.71875,0 -2.42188,-0.28373 -1.5625,-0.63049 z m -6.25,-1.25 c 0.85937,-0.34676 2.26562,-0.34676 3.125,0 0.85937,0.34676 0.15625,0.63049 -1.5625,0.63049 -1.71875,0 -2.42188,-0.28373 -1.5625,-0.63049 z m -6.25,-1.25 c 0.85937,-0.34676 2.26562,-0.34676 3.125,0 0.85937,0.34676 0.15625,0.63049 -1.5625,0.63049 -1.71875,0 -2.42188,-0.28373 -1.5625,-0.63049 z m -6.17188,-1.27604 c 0.90234,-0.36109 1.98048,-0.31669 2.39584,0.0986 0.41536,0.41536 -0.32292,0.7108 -1.64062,0.65652 -1.45619,-0.06 -1.75238,-0.35617 -0.75522,-0.7552 z m -20.78125,-6.25 c -7.08984,-2.42359 -12.67219,-4.62496 -12.40522,-4.89192 0.52965,-0.52965 25.89565,7.80395 26.94359,8.85188 1.22526,1.22527 -1.70313,0.42763 -14.53837,-3.95996 z M 518.75,706.73717 c -4.08244,-2.33374 -2.65395,-2.35992 2.66899,-0.0489 2.31331,1.00433 3.36226,1.82815 2.33101,1.8307 -1.03125,0.002 -3.28125,-0.79926 -5,-1.78178 z m -15.9375,-6.91395 c -4.18581,-1.68249 -3.40333,-2.53696 0.9375,-1.02375 2.0625,0.719 3.75,1.53349 3.75,1.80999 0,0.74155 -1.52142,0.48636 -4.6875,-0.78624 z m -14.375,-7.53866 c -5.32813,-2.72395 -9.6875,-5.23337 -9.6875,-5.57647 0,-0.34311 4.5,1.63873 10,4.40408 5.5,2.76535 10,5.30287 10,5.63895 0,0.84215 0.46784,1.04478 -10.3125,-4.46656 z m -22.34695,-13.35989 c -1.55484,-1.98258 -1.51063,-2.02679 0.47195,-0.47195 2.08219,1.63296 2.74435,2.65945 1.71555,2.65945 -0.25956,0 -1.24394,-0.98438 -2.1875,-2.1875 z m -18.11655,-13.75 c -17.7862,-15.2322 -31.14678,-27.7957 -38.2175,-35.9375 -3.58234,-4.125 0.77256,-0.39126 9.67757,8.2972 8.90502,8.68846 20.97218,19.88932 26.81593,24.89081 13.10322,11.21463 14.44586,12.43699 13.66076,12.43699 -0.34372,0 -5.71526,-4.35938 -11.93676,-9.6875 z m -50.13115,-50 c -5.72901,-6.95631 -12.68711,-16.49373 -10.71539,-14.6875 2.09504,1.9192 16.72319,20.625 16.12898,20.625 -0.288,0 -2.72411,-2.67188 -5.41359,-5.9375 z M 381.25,593.61217 c -2.17804,-2.75 -3.67883,-5 -3.33508,-5 0.34375,0 2.40704,2.25 4.58508,5 2.17804,2.75 3.67883,5 3.33508,5 -0.34375,0 -2.40704,-2.25 -4.58508,-5 z m -9.4264,-13.83316 c -0.45316,-0.73324 -0.55585,-1.60125 -0.22819,-1.92892 0.32765,-0.32766 0.92883,0.27227 1.33594,1.33317 0.84523,2.20263 0.12488,2.59007 -1.10775,0.59575 z m 686.9176,-162.29862 c 1.0264,-0.69638 2.8,-5.36725 3.9414,-10.3797 2.4102,-10.58522 2.9601,-7.72987 0.6507,3.37893 -1.2078,5.80971 -2.108,7.57941 -4.008,7.87969 -2.0118,0.31795 -2.1163,0.16065 -0.5841,-0.87892 z m 6.5211,-22.61822 c -0.014,-1.71875 0.7359,-8.75 1.6662,-15.625 l 1.6915,-12.5 -0.6524,10.625 c -0.6505,10.5942 -2.6563,23.56941 -2.7053,17.5 z m -690.67896,-0.83334 c -1.1289,-1.1289 -1.05764,-5.1305 0.10412,-5.84852 0.51563,-0.31868 0.9375,1.05437 0.9375,3.05122 0,1.99685 -0.0469,3.63064 -0.10412,3.63064 -0.0573,0 -0.47918,-0.375 -0.9375,-0.83334 z m 8.6183,-15.92417 c 11.21352,-13.04003 32.22646,-30.64239 43.98586,-36.84659 5.53823,-2.92194 2.67259,-0.41489 -4.79256,4.19288 -10.68698,6.59637 -21.12295,15.37703 -34.8183,29.29558 -9.80901,9.96887 -10.54669,10.53509 -4.375,3.35813 z m 762.15586,-8.86749 c 0.01,-3.4375 0.2522,-4.69539 0.5395,-2.79531 0.2873,1.90007 0.2796,4.71257 -0.017,6.25 -0.2967,1.53742 -0.5318,-0.0173 -0.5224,-3.45469 z m -1.25,-13.75 c 0.01,-3.4375 0.2522,-4.69539 0.5395,-2.79531 0.2873,1.90007 0.2796,4.71257 -0.017,6.25 -0.2967,1.53742 -0.5318,-0.0173 -0.5224,-3.45469 z m -74.841,-28.75 c 0,-12.375 0.1884,-17.26842 0.4157,-10.87428 0.2273,6.39416 0.2262,16.51916 0,22.5 -0.2287,5.98086 -0.4146,0.74928 -0.4133,-11.62572 z m 73.4772,18.75 c 0.025,-2.0625 0.3056,-2.75492 0.6225,-1.53871 0.317,1.21621 0.2961,2.90371 -0.046,3.75 -0.3424,0.84629 -0.6017,-0.14879 -0.5763,-2.21129 z M 431.25,339.32513 c 0,-0.34375 1.125,-1.22708 2.5,-1.96296 1.375,-0.73588 2.5,-1.05671 2.5,-0.71296 0,0.34375 -1.125,1.22708 -2.5,1.96296 -1.375,0.73588 -2.5,1.05671 -2.5,0.71296 z m 710.2437,-2.58796 c 0.025,-2.0625 0.3056,-2.75492 0.6225,-1.53871 0.317,1.21621 0.2961,2.90371 -0.046,3.75 -0.3425,0.84629 -0.6017,-0.14879 -0.5763,-2.21129 z M 440,334.24905 c 0,-0.85533 7.65364,-4.6499 8.22546,-4.07808 0.27123,0.27122 -1.46853,1.4286 -3.86616,2.57195 -2.39761,1.14334 -4.3593,1.8211 -4.3593,1.50613 z m 700.1974,-4.38688 c 0,-1.71875 0.2837,-2.42188 0.6304,-1.5625 0.3468,0.85937 0.3468,2.26562 0,3.125 -0.3467,0.85937 -0.6304,0.15625 -0.6304,-1.5625 z m -686.4474,-2.5 c 1.03125,-0.66645 2.4375,-1.21171 3.125,-1.21171 0.6875,0 0.40625,0.54526 -0.625,1.21171 -1.03125,0.66645 -2.4375,1.21171 -3.125,1.21171 -0.6875,0 -0.40625,-0.54526 0.625,-1.21171 z m 685.1974,-3.75 c 0,-1.71875 0.2837,-2.42188 0.6304,-1.5625 0.3468,0.85937 0.3468,2.26562 0,3.125 -0.3467,0.85937 -0.6304,0.15625 -0.6304,-1.5625 z M 463.75,323.82306 c 1.03125,-0.63717 3.28125,-1.53463 5,-1.99438 2.17185,-0.58094 2.55311,-0.48254 1.25,0.3226 -1.03125,0.63716 -3.28125,1.53463 -5,1.99438 -2.17185,0.58093 -2.55311,0.48253 -1.25,-0.3226 z m 9.76562,-3.56478 c 0.90234,-0.36109 1.98048,-0.31669 2.39584,0.0986 0.41536,0.41536 -0.32292,0.7108 -1.64062,0.65652 -1.45619,-0.06 -1.75238,-0.35617 -0.75522,-0.7552 z m 8.75,-2.5 c 0.90234,-0.36109 1.98048,-0.31669 2.39584,0.0986 0.41536,0.41536 -0.32292,0.7108 -1.64062,0.65652 -1.45619,-0.06 -1.75238,-0.35617 -0.75522,-0.7552 z m 5.85938,-1.64611 c 1.375,-0.59086 3.625,-1.05775 5,-1.03754 2.00974,0.0295 1.88716,0.233 -0.625,1.03754 -4.27396,1.36876 -7.56028,1.36876 -4.375,0 z m 648.3687,-3.125 c 0.025,-2.0625 0.3056,-2.75492 0.6225,-1.53871 0.317,1.21621 0.2961,2.90371 -0.046,3.75 -0.3425,0.84629 -0.6017,-0.14879 -0.5763,-2.21129 z M 496.35416,314.403 c 0.28646,-0.25256 2.77084,-0.80178 5.52084,-1.22052 3.48475,-0.53061 4.24237,-0.41808 2.5,0.37132 -2.39964,1.08718 -9.09481,1.79603 -8.02084,0.8492 z m 18.33334,-2.94074 c 1.54687,-0.28388 2.8125,-0.98045 2.8125,-1.54793 0,-0.56747 -2.59124,-4.04573 -5.75831,-7.72947 l -5.7583,-6.69769 6.43842,6.70964 c 6.81371,7.10072 7.42088,9.46427 2.48179,9.66098 -2.77694,0.11063 -2.7949,0.0778 -0.2161,-0.39553 z m 620.5099,-5.35009 c 0,-1.71875 0.2837,-2.42188 0.6304,-1.5625 0.3468,0.85937 0.3468,2.26562 0,3.125 -0.3467,0.85937 -0.6304,0.15625 -0.6304,-1.5625 z m -1.3487,-5.72916 c 0.06,-1.45619 0.3562,-1.75238 0.7552,-0.75522 0.3611,0.90234 0.3167,1.98048 -0.099,2.39584 -0.4154,0.41536 -0.7108,-0.32292 -0.6566,-1.64062 z m -66.0082,-5.52084 c 0,-3.09375 0.2437,-4.35938 0.5417,-2.8125 0.2979,1.54687 0.2979,4.07812 0,5.625 -0.298,1.54687 -0.5417,0.28125 -0.5417,-2.8125 z m 64.8569,0 c 0,-1.71875 0.2837,-2.42188 0.6305,-1.5625 0.3467,0.85937 0.3467,2.26562 0,3.125 -0.3468,0.85937 -0.6305,0.15625 -0.6305,-1.5625 z M 500,288.61217 c -2.87804,-3.4375 -4.95155,-6.25 -4.6078,-6.25 0.34375,0 2.97976,2.8125 5.8578,6.25 2.87804,3.4375 4.95155,6.25 4.6078,6.25 -0.34375,0 -2.97976,-2.8125 -5.8578,-6.25 z m 630.7143,-0.71429 c -0.4598,-1.83189 -0.5949,-3.57177 -0.3003,-3.86642 0.2947,-0.29464 0.9119,0.96311 1.3717,2.795 0.4598,1.83188 0.5949,3.57177 0.3003,3.86642 -0.2947,0.29464 -0.9119,-0.96311 -1.3717,-2.795 z m -64.1743,-4.28571 c 0,-2.40625 0.2572,-3.39063 0.5717,-2.1875 0.3144,1.20312 0.3144,3.17187 0,4.375 -0.3145,1.20312 -0.5717,0.21875 -0.5717,-2.1875 z m 62.3087,-3.22916 c 0.06,-1.45619 0.3562,-1.75238 0.7552,-0.75522 0.3611,0.90234 0.3167,1.98048 -0.099,2.39584 -0.4154,0.41536 -0.7108,-0.32292 -0.6566,-1.64062 z m -63.5335,-6.14584 c 0.014,-2.75 0.2699,-3.72781 0.5689,-2.17292 0.299,1.55488 0.2876,3.80488 -0.025,5 -0.3128,1.19511 -0.5575,-0.0771 -0.5436,-2.82708 z m 60.5777,-3.39286 c -1.1384,-3.5596 -1.8622,-6.67948 -1.6087,-6.93305 0.2536,-0.25358 1.4195,2.42433 2.5908,5.95091 1.1713,3.52657 1.8952,6.64645 1.6086,6.93305 -0.2866,0.2866 -1.4524,-2.3913 -2.5907,-5.95091 z m -61.8529,-5.98214 c 0,-2.40625 0.2572,-3.39063 0.5717,-2.1875 0.3144,1.20312 0.3144,3.17187 0,4.375 -0.3145,1.20312 -0.5717,0.21875 -0.5717,-2.1875 z m -1.25,-8.75 c 0,-2.40625 0.2572,-3.39063 0.5717,-2.1875 0.3144,1.20312 0.3144,3.17187 0,4.375 -0.3145,1.20312 -0.5717,0.21875 -0.5717,-2.1875 z m 57.3489,-1.38889 c -0.7701,-2.20907 -1.1814,-4.23526 -0.9141,-4.50261 0.2674,-0.26736 1.1162,1.32131 1.8863,3.53039 0.7701,2.20907 1.1814,4.23526 0.9141,4.50261 -0.2674,0.26736 -1.1162,-1.32131 -1.8863,-3.53039 z m -58.5989,-7.36111 c 0,-2.40625 0.2572,-3.39063 0.5717,-2.1875 0.3144,1.20312 0.3144,3.17187 0,4.375 -0.3145,1.20312 -0.5717,0.21875 -0.5717,-2.1875 z m 55.4894,-0.67332 c -1.2062,-3.14337 -0.8504,-3.95444 0.6232,-1.42043 0.7296,1.25469 1.0632,2.54457 0.7414,2.86641 -0.3218,0.32184 -0.9359,-0.32886 -1.3646,-1.44598 z m -56.9307,-6.30584 c 0.06,-1.45619 0.3562,-1.75238 0.7552,-0.75522 0.3611,0.90234 0.3167,1.98048 -0.099,2.39584 -0.4154,0.41536 -0.7108,-0.32292 -0.6566,-1.64062 z m 54.4307,0.0559 c -1.2062,-3.14336 -0.8504,-3.95444 0.6232,-1.42042 0.7296,1.25468 1.0632,2.54457 0.7414,2.86641 -0.3218,0.32184 -0.9359,-0.32886 -1.3646,-1.44599 z m -55.6807,-5.05584 c 0.06,-1.45618 0.3562,-1.75237 0.7552,-0.75521 0.3611,0.90234 0.3167,1.98048 -0.099,2.39584 -0.4154,0.41536 -0.7108,-0.32293 -0.6566,-1.64063 z m 53.1807,-1.19416 c -1.2062,-3.14336 -0.8504,-3.95444 0.6232,-1.42042 0.7296,1.25468 1.0632,2.54457 0.7414,2.86641 -0.3218,0.32184 -0.9359,-0.32886 -1.3646,-1.44599 z m -55.6901,-8.79096 c -0.8591,-3.83883 -1.3209,-7.22075 -1.0263,-7.5154 0.2947,-0.29464 1.2386,2.60515 2.0977,6.44397 0.8591,3.83883 1.3209,7.22075 1.0263,7.5154 -0.2947,0.29464 -1.2386,-2.60515 -2.0977,-6.44397 z m 53.1901,2.54096 c -1.2062,-3.14336 -0.8504,-3.95444 0.6232,-1.42042 0.7296,1.25468 1.0632,2.54457 0.7414,2.86641 -0.3218,0.32184 -0.9359,-0.32886 -1.3646,-1.44599 z m -2.5,-6.25 c -1.2062,-3.14336 -0.8504,-3.95444 0.6232,-1.42042 0.7296,1.25468 1.0632,2.54457 0.7414,2.86641 -0.3218,0.32184 -0.9359,-0.32886 -1.3646,-1.44599 z m -53.1807,-7.55584 c 0.06,-1.45618 0.3562,-1.75237 0.7552,-0.75521 0.3611,0.90234 0.3167,1.98048 -0.099,2.39584 -0.4154,0.41536 -0.7108,-0.32293 -0.6566,-1.64063 z m 47.6371,-4.95669 c -3.7656,-7.75076 -3.346,-8.83567 0.5335,-1.37939 1.7341,3.33286 2.939,6.27364 2.6776,6.53507 -0.2615,0.26143 -1.7065,-2.05862 -3.2111,-5.15568 z m -49.6108,-1.81418 c -0.4746,-2.16083 -0.6023,-4.18932 -0.2839,-4.50779 0.3185,-0.31846 0.9384,1.21786 1.3777,3.41404 1.042,5.21031 0.032,6.22017 -1.0938,1.09375 z m -1.7763,-8.22916 c 0.06,-1.45619 0.3562,-1.75238 0.7552,-0.75522 0.3611,0.90234 0.3167,1.98048 -0.099,2.39584 -0.4154,0.41536 -0.7108,-0.32292 -0.6566,-1.64062 z m 42.2682,-8.33334 c -1.4761,-2.92188 -4.1114,-7.84375 -5.8561,-10.9375 -1.7447,-3.09375 -2.5601,-5.0625 -1.812,-4.375 1.7982,1.65249 11.9722,20.625 11.0602,20.625 -0.3895,0 -1.9159,-2.39063 -3.3921,-5.3125 z m -487.06258,-10 c -0.68848,-0.85938 -2.49709,-4.03311 -4.01913,-7.05275 -3.06129,-6.07338 -14.39942,-22.98586 -20.62135,-30.75975 -2.201,-2.75 -4.3231,-6.26563 -4.7158,-7.8125 -0.62754,-2.47196 -0.23628,-2.81388 3.23148,-2.8239 2.17002,-0.006 9.57048,-1.42904 16.44548,-3.1617 24.50109,-6.17484 40.08655,-12.1704 48.9791,-18.84172 4.79197,-3.59502 5.3959,-3.66855 5.3959,-0.6571 0,9.20503 -24.34541,53.63857 -37.16136,67.82429 -4.75637,5.26472 -5.63978,5.64992 -7.53431,3.28513 z m 435.47508,-9.11082 c -1.2062,-3.14337 -0.8504,-3.95444 0.6232,-1.42043 0.7296,1.25469 1.0632,2.54457 0.7414,2.86641 -0.3218,0.32184 -0.9359,-0.32886 -1.3646,-1.44598 z m 40.2259,-0.88918 c -0.9802,-1.54688 -3.0462,-5.0625 -4.591,-7.8125 -3.3045,-5.88229 0.3035,-1.30297 4.5941,5.83085 3.0454,5.0636 3.0427,6.78812 0,1.98165 z m -44.599,-10.46875 c -1.4906,-3.89491 -2.4991,-7.2926 -2.2413,-7.55041 0.2578,-0.25782 1.6882,2.718 3.1788,6.61291 1.4905,3.89491 2.499,7.2926 2.2412,7.55041 -0.2578,0.25781 -1.6882,-2.718 -3.1787,-6.61291 z m 28.2906,-15.15625 c -17.3962,-25.6761 -53.626,-67.741888 -73.55325,-85.401338 -11.57693,-10.259412 -13.85446,-11.7095 -10.58256,-6.737812 9.62422,14.6241 24.05261,37.855025 22.87251,36.82665 -1.6119,-1.404613 -29.69891,-44.15135 -29.28314,-44.567138 0.9926,-0.992587 12.17399,8.208838 24.4386,20.111088 22.40554,21.74355 49.02224,53.07085 65.38444,76.95605 8.8733,12.95301 10.1632,15 9.4523,15 -0.2594,0 -4.1874,-5.48438 -8.729,-12.1875 z m -34.4939,0.25896 c -2.0943,-4.59661 -1.6947,-5.57723 0.5699,-1.39845 1.0575,1.9514 1.6889,3.7819 1.403,4.06778 -0.2859,0.28587 -1.1737,-0.91532 -1.9729,-2.66933 z m -4.354,-10.00456 c -2.9364,-6.15784 -2.5233,-7.20568 0.5466,-1.38645 1.3943,2.64301 2.3141,5.02656 2.0438,5.29681 -0.2702,0.27024 -1.4359,-1.48942 -2.5904,-3.91036 z m -10.5846,-22.48885 c -2.8854,-5.81792 -4.9753,-10.57805 -4.6442,-10.57805 0.8328,0 10.8946,20.1519 10.3391,20.7074 -0.2468,0.24678 -2.8095,-4.31142 -5.6949,-10.12935 z M 1006.25,96.11217 c -1.4029,-2.75 -2.2696,-5 -1.9258,-5 0.3437,0 1.7728,2.25 3.1758,5 1.4029,2.75 2.2696,5 1.9258,5 -0.3437,0 -1.7728,-2.25 -3.1758,-5 z M 446.34869,77.883008 c 0.06,-1.456188 0.35617,-1.752376 0.7552,-0.755213 0.36108,0.902337 0.31668,1.980462 -0.0986,2.395838 -0.41536,0.415362 -0.7108,-0.322925 -0.65652,-1.640625 z m 1.25,-5 c 0.06,-1.456188 0.35617,-1.752376 0.7552,-0.755213 0.36108,0.902337 0.31668,1.980462 -0.0986,2.395838 -0.41536,0.415362 -0.7108,-0.322925 -0.65652,-1.640625 z m 1.34867,-5.520838 c 0,-1.71875 0.28373,-2.421875 0.63049,-1.5625 0.34676,0.859375 0.34676,2.265625 0,3.125 -0.34676,0.859375 -0.63049,0.15625 -0.63049,-1.5625 z m 1.84506,-6.25 c 0.42165,-1.71875 1.53507,-4.8125 2.47423,-6.875 1.37143,-3.011763 1.55666,-3.1348 0.94093,-0.625 -0.42165,1.71875 -1.53507,4.8125 -2.47423,6.875 -1.37143,3.011763 -1.55666,3.1348 -0.94093,0.625 z m 4.24587,-11.875 c 0,-0.6875 0.54526,-2.09375 1.21171,-3.125 0.66645,-1.03125 1.21171,-1.3125 1.21171,-0.625 0,0.6875 -0.54526,2.09375 -1.21171,3.125 -0.66645,1.03125 -1.21171,1.3125 -1.21171,0.625 z m 10.58671,-21.875 c 1.74191,-3.4375 3.44836,-6.25 3.79211,-6.25 0.34375,0 -0.8002,2.8125 -2.54211,6.25 -1.74191,3.4375 -3.44836,6.25 -3.79211,6.25 -0.34375,0 0.8002,-2.8125 2.54211,-6.25 z m 6.01193,-10.625 c 1.05739,-2.0625 2.85755,-4.875 4.00033,-6.25 1.14278,-1.375 0.81438,-0.25 -0.72978,2.5 -3.40682,6.067212 -5.9585,8.99295 -3.27055,3.75 z m -61.71949,-4.137063 c 1.67333,-1.358812 4.76709,-3.421387 6.875,-4.5834995 L 420.625,5.90367 417.58256,8.3742325 c -1.67333,1.3588125 -4.76708,3.4213875 -6.875,4.5834995 l -3.83256,2.112938 3.04244,-2.470563 z M 421.25,5.5751325 c 0,-0.34375 1.125,-1.2270875 2.5,-1.9629625 1.375,-0.735875 2.5,-1.0567125 2.5,-0.7129625 0,0.34375 -1.125,1.2270875 -2.5,1.9629625 -1.375,0.735875 -2.5,1.0567125 -2.5,0.7129625 z M 427.5,1.80137 c 0,-0.34375 1.6875,-1.4976375 3.75,-2.5642 2.0625,-1.0665625 3.75,-1.65795 3.75,-1.3142 0,0.34375 -1.6875,1.4976375 -3.75,2.5642 -2.0625,1.0665625 -3.75,1.65795 -3.75,1.3142 z m 55.86182,-3.5017 c 0.64237,-0.859375 5.302,-6.8169625 10.35474,-13.239075 7.33863,-9.327513 8.83189,-11.918625 7.42263,-12.8797 -1.40684,-0.959413 -1.30773,-1.1262 0.48934,-0.823425 1.23943,0.208837 2.25305,0.824587 2.25247,1.368325 -10e-4,1.112362 -20.26679,27.136375 -21.13182,27.136375 -0.30542,0 -0.0298,-0.703125 0.61265,-1.5625 z M 436.25,-3.258905 c 0,-0.829875 25.15152,-13.394062 25.70495,-12.84065 0.24347,0.243475 -5.44054,3.368612 -12.63114,6.9447375 C 442.13321,-5.5786925 436.25,-2.92553 436.25,-3.258905 Z m 32.36971,-15.74335 c 3.02209,-1.3408 5.7173,-2.215238 5.98935,-1.943175 0.54039,0.540387 -9.09204,4.612537 -10.57186,4.4693 -0.50171,-0.0485 1.56041,-1.185313 4.58251,-2.526125 z M 481.875,-23.88783 c 1.375,-0.590863 3.34375,-1.074288 4.375,-1.074288 1.18185,0 0.9508,0.397138 -0.625,1.074288 -1.375,0.590863 -3.34375,1.074287 -4.375,1.074287 -1.18185,0 -0.9508,-0.397137 0.625,-1.074287 z m 9.375,-2.5 c 1.71875,-0.550437 4.25,-1.0008 5.625,-1.0008 1.97959,0 1.84947,0.208338 -0.625,1.0008 -1.71875,0.550437 -4.25,1.0008 -5.625,1.0008 -1.97959,0 -1.84947,-0.208338 0.625,-1.0008 z m 131.01562,-199.60389 c 0.90234,-0.36109 1.98048,-0.31668 2.39584,0.0987 0.41536,0.41537 -0.32292,0.7108 -1.64062,0.65653 -1.45619,-0.06 -1.75238,-0.35618 -0.75522,-0.75521 z m 36.25,0 c 0.90234,-0.36109 1.98048,-0.31668 2.39584,0.0987 0.41536,0.41537 -0.32292,0.7108 -1.64062,0.65653 -1.45619,-0.06 -1.75238,-0.35618 -0.75522,-0.75521 z"
         id="path3848"
         inkscape:connector-curvature="0" />
      <path
         style="fill:#69260a"
         d="m 601.92074,172.04967 c -5.26123,-9.82009 -14.29947,-23.65054 -20.56923,-31.47536 -5.04711,-6.29892 -4.25052,-7.06214 11.14849,-10.68166 24.58121,-5.7778 42.92479,-12.65885 52.1041,-19.5453 4.79197,-3.59502 5.3959,-3.66855 5.3959,-0.6571 0,11.56487 -34.98254,71.42192 -41.74145,71.42192 -0.81535,0 -3.66736,-4.07813 -6.33781,-9.0625 z M 76.73615,114.38612 C 97.352869,74.918745 128.6972,28.421008 155.62252,-2.63783 c 15.76289,-18.182775 31.40662,-34.18855 32.6588,-33.414662 0.65047,0.402012 0.73335,6.94305 0.19632,15.492712 -0.51122,8.138325 -1.08093,25.5631875 -1.26605,38.721938 L 186.875,42.087145 174.056,48.47042 c -30.29411,15.085075 -57.3899,34.846825 -85.830806,62.5989 l -19.899805,19.41785 8.410761,-16.10105 z"
         id="path3846"
         inkscape:connector-curvature="0" />
    </g>
  </g>
</svg>
