<?xml version="1.0" encoding="UTF-8" standalone="no"?>
<!-- Created with Inkscape (http://www.inkscape.org/) -->

<svg
   xmlns:dc="http://purl.org/dc/elements/1.1/"
   xmlns:cc="http://creativecommons.org/ns#"
   xmlns:rdf="http://www.w3.org/1999/02/22-rdf-syntax-ns#"
   xmlns:svg="http://www.w3.org/2000/svg"
   xmlns="http://www.w3.org/2000/svg"
   xmlns:sodipodi="http://sodipodi.sourceforge.net/DTD/sodipodi-0.dtd"
   xmlns:inkscape="http://www.inkscape.org/namespaces/inkscape"
   width="16"
   height="16"
   viewBox="0 0 16 16"
   id="svg2"
   version="1.1"
   inkscape:version="0.91 r13725"
   sodipodi:docname="rhythmbox.svg">
  <defs
     id="defs4" />
  <sodipodi:namedview
     id="base"
     pagecolor="#ffffff"
     bordercolor="#666666"
     borderopacity="1.0"
     inkscape:pageopacity="0.0"
     inkscape:pageshadow="2"
     inkscape:zoom="11.2"
     inkscape:cx="49.011299"
     inkscape:cy="8.8157856"
     inkscape:document-units="px"
     inkscape:current-layer="layer1"
     showgrid="false"
     units="px"
     inkscape:window-width="1920"
     inkscape:window-height="1080"
     inkscape:window-x="0"
     inkscape:window-y="0"
     inkscape:window-maximized="1" />
  <metadata
     id="metadata7">
    <rdf:RDF>
      <cc:Work
         rdf:about="">
        <dc:format>image/svg+xml</dc:format>
        <dc:type
           rdf:resource="http://purl.org/dc/dcmitype/StillImage" />
        <dc:title></dc:title>
      </cc:Work>
    </rdf:RDF>
  </metadata>
  <g
     inkscape:label="Layer 1"
     inkscape:groupmode="layer"
     id="layer1"
     transform="translate(0,-1036.3622)">
    <g
       id="g3347"
       transform="matrix(0.015625,0,0,0.015625,2.4819376e-7,1035.919)">
      <path
         style="fill:#e8e9e7"
         d="m 0,540.36216 0,-511.999998 512,0 512,0 0,511.999998 0,512.00004 -512,0 -512,0 0,-512.00004 z"
         id="path3363"
         inkscape:connector-curvature="0" />
      <path
         style="fill:#a6e4d3"
         d="M 0,1023.9692 C 0,999.00093 0.19079655,995.50292 1.5817875,994.96915 3.7003797,994.15617 546.28145,994.19579 811.75,995.02835 l 212.25,0.66563 0,28.33412 0,28.3341 -512,0 -512,0 0,-28.393 z M 312.94907,824.5365 c -12.1705,-3.17756 -21.05776,-10.75608 -26.67193,-22.74421 l -2.77714,-5.93013 -0.31668,-72 c -0.23239,-52.83623 -9.5e-4,-73.4639 0.86955,-77.5 2.59636,-12.0381 10.48833,-22.17356 21.45989,-27.56038 l 5.98724,-2.93962 53.25,-0.2834 53.25,-0.28339 0,104.9264 c 0,94.75667 -0.15331,104.98524 -1.58179,105.5334 -0.86998,0.33385 -23.03248,0.58105 -49.25,0.54934 -41.63337,-0.0503 -48.49756,-0.27418 -54.21914,-1.76801 z M 397,720.36216 l 0,-84 -38.75,0.022 c -35.53447,0.0201 -39.08193,0.17516 -42.75,1.86808 -4.62763,2.13579 -7.91663,5.42189 -9.43339,9.42506 C 305.34795,649.57401 305,673.41842 305,720.76998 l 0,70.27761 2.30274,4.35455 c 1.57392,2.97633 3.68095,5.08336 6.65728,6.65728 4.33205,2.29084 4.55778,2.30274 43.69726,2.30274 l 39.34272,0 0,-84 z M 607.25,825.69988 C 606.26114,825.30087 606,803.26981 606,720.24543 l 0,-104.95006 53.25,0.28339 53.25,0.2834 5.98724,2.93962 c 10.52868,5.16938 18.04718,14.43195 21.15341,26.06038 1.94759,7.29099 1.95053,143.69236 0.003,151 -2.75822,10.35087 -8.22398,17.97954 -16.89932,23.58668 -10.23496,6.61518 -13.25952,6.92397 -66.942,6.83437 -26.01642,-0.0434 -47.86509,-0.30592 -48.55259,-0.58333 z m 102.78998,-23.64046 c 2.97633,-1.57392 5.08336,-3.68095 6.65728,-6.65728 L 719,791.04759 l 0,-70.27761 c 0,-47.35156 -0.34795,-71.19597 -1.06661,-73.09272 -1.51676,-4.00317 -4.80576,-7.28927 -9.43339,-9.42506 -3.66807,-1.69292 -7.21553,-1.84794 -42.75,-1.86808 l -38.75,-0.022 0,84 0,84 39.34272,0 c 39.13948,0 39.36521,-0.0119 43.69726,-2.30274 z M 246.07554,710.95318 c -0.88095,-1.06148 -1.08519,-27.38915 -0.82813,-106.75 0.30455,-94.02109 0.52967,-106.63054 2.09488,-117.34102 8.93458,-61.13779 34.09724,-112.08503 76.09078,-154.06223 30.73485,-30.72289 65.26743,-51.84646 106.66919,-65.24951 27.39738,-8.86939 51.31693,-12.52856 81.89774,-12.52856 30.61832,0 54.49117,3.65693 82,12.56105 41.3904,13.39735 75.88932,34.4993 106.58464,65.19461 41.9438,41.94381 67.14437,92.9871 76.07307,154.08464 1.56521,10.71048 1.79033,23.31993 2.09488,117.34102 0.25706,79.36085 0.0528,105.68852 -0.82813,106.75 -1.58385,1.90842 -18.1899,1.99899 -19.75948,0.10777 -0.75343,-0.90783 -1.18653,-33.63306 -1.43262,-108.25 -0.38469,-116.6431 -0.22032,-113.05937 -6.37003,-138.88515 -21.25724,-89.27001 -91.65596,-159.66873 -180.92597,-180.92597 -32.08424,-7.63999 -69.18046,-8.58221 -102.3982,-2.60084 -94.27417,16.97554 -171.10108,89.8802 -193.40049,183.52681 -6.14971,25.82578 -5.98534,22.24205 -6.37003,138.88515 -0.24609,74.61694 -0.67919,107.34217 -1.43262,108.25 -1.56958,1.89122 -18.17563,1.80065 -19.75948,-0.10777 z"
         id="path3361"
         inkscape:connector-curvature="0" />
      <path
         style="fill:#d4c2b1"
         d="M 0,1023.9692 C 0,999.00093 0.19079655,995.50292 1.5817875,994.96915 3.7003797,994.15617 546.28145,994.19579 811.75,995.02835 l 212.25,0.66563 0,28.33412 0,28.3341 -512,0 -512,0 0,-28.393 z M 314.5,823.95593 c -11.02482,-2.74681 -21.52885,-10.81867 -26.28884,-20.20173 -4.2076,-8.29416 -4.35953,-11.55271 -4.02795,-86.39204 l 0.31679,-71.5 2.3206,-5.74666 c 3.06902,-7.60002 10.89238,-16.04592 18.59126,-20.07065 l 6.08814,-3.18269 52.75463,-0.28369 52.75464,-0.28368 -0.25464,104.28368 L 416.5,824.86216 368,825.03191 c -35.86453,0.12553 -49.80263,-0.15479 -53.5,-1.07598 z m 83,-103.59377 0,-84.5 -40.57437,0 -40.57437,0 -4.05448,2.68402 c -2.44125,1.61607 -4.89846,4.42744 -6.17563,7.06572 -2.10023,4.3385 -2.12115,5.07907 -2.12115,75.10582 0,67.42646 0.0883,70.89711 1.89359,74.43428 2.29686,4.50029 4.56223,6.64084 9.13616,8.63277 2.93289,1.27726 9.58677,1.47768 42.97025,1.29433 l 39.5,-0.21694 0,-84.5 z M 607.66667,824.69549 C 607.3,824.32883 607,777.28867 607,720.16182 l 0,-103.86702 52.75,0.28368 52.75,0.28368 6.08814,3.18269 c 7.69888,4.02473 15.52224,12.47063 18.59126,20.07065 l 2.3206,5.74666 0.31679,71.5 c 0.23222,52.41378 4.2e-4,72.96817 -0.86837,77 -3.22927,14.98619 -15.18588,26.60699 -30.74764,29.88406 -5.77797,1.21676 -99.34848,1.63491 -100.53411,0.44927 z m 101.07885,-20.87147 c 4.7503,-1.9848 7.02196,-4.08929 9.36089,-8.67202 1.8053,-3.53717 1.89359,-7.00782 1.89359,-74.43428 0,-70.02675 -0.0209,-70.76732 -2.12115,-75.10582 -1.27717,-2.63828 -3.73438,-5.44965 -6.17563,-7.06572 l -4.05448,-2.68402 -40.57437,0 -40.57437,0 -0.25825,83.5 c -0.14203,45.925 -0.0437,84.0625 0.21862,84.75 0.37025,0.97053 9.21055,1.25 39.54036,1.25 32.89137,0 39.64516,-0.24303 42.74479,-1.53814 z M 246.46741,709.08833 c -0.31388,-1.25061 -0.41277,-49.06311 -0.21974,-106.25 0.38221,-113.2328 0.33389,-112.17644 6.37269,-139.32519 22.84076,-102.68568 104.23881,-182.36027 206.91282,-202.53182 20.09802,-3.94849 31.31261,-4.99883 52.96682,-4.96078 30.23675,0.0532 53.54801,3.64301 81.32903,12.52444 90.24326,28.85023 159.3878,105.64657 178.18964,197.9088 5.38296,26.41461 5.28023,23.96592 5.70001,135.87011 0.21552,57.45395 0.13341,105.49145 -0.18246,106.75 -0.545,2.17142 -1.03198,2.28827 -9.53622,2.28827 -8.47393,0 -8.99005,-0.12251 -9.47901,-2.25 -0.28441,-1.2375 -0.67263,-50.175 -0.8627,-108.75 C 757.28188,484.36595 757.536,489.88281 751.37518,463.95643 743.33855,430.13617 727.27734,396.91547 705.21369,368.47688 696.88684,357.74412 677.1008,337.74681 666.5,329.34981 632.14822,302.13944 590.59382,284.15362 547.05838,277.65238 530.71443,275.21171 492.88479,275.22457 477,277.67619 c -44.17111,6.81729 -82.98912,23.43337 -117.88528,50.46089 -11.06282,8.56829 -31.77151,29.27698 -40.3398,40.3398 -29.05605,37.51527 -47.32978,82.95784 -51.77046,128.74123 -0.59711,6.1562 -1.00446,51.0366 -1.00446,110.66822 0,55.17174 -0.27314,101.02406 -0.60699,101.89404 -0.49039,1.27795 -2.31155,1.58179 -9.48095,1.58179 -8.39619,0 -8.90468,-0.12242 -9.44465,-2.27383 z"
         id="path3359"
         inkscape:connector-curvature="0" />
      <path
         style="fill:#74e1c4"
         d="m 0,1023.8608 0,-28.50132 369.75,0.25134 369.75,0.25134 0.26557,28.25004 0.26558,28.25 -370.01558,0 -370.01557,0 0,-28.5014 z M 314.5,823.95593 c -11.02482,-2.74681 -21.52885,-10.81867 -26.28884,-20.20173 -4.2076,-8.29416 -4.35953,-11.55271 -4.02795,-86.39204 l 0.31679,-71.5 2.3206,-5.74666 c 3.06902,-7.60002 10.89238,-16.04592 18.59126,-20.07065 l 6.08814,-3.18269 52.75463,-0.28369 52.75464,-0.28368 -0.25464,104.28368 L 416.5,824.86216 368,825.03191 c -35.86453,0.12553 -49.80263,-0.15479 -53.5,-1.07598 z m 83,-103.59377 0,-84.5 -40.57437,0 -40.57437,0 -4.05448,2.68402 c -2.44125,1.61607 -4.89846,4.42744 -6.17563,7.06572 -2.10023,4.3385 -2.12115,5.07907 -2.12115,75.10582 0,67.42646 0.0883,70.89711 1.89359,74.43428 2.29686,4.50029 4.56223,6.64084 9.13616,8.63277 2.93289,1.27726 9.58677,1.47768 42.97025,1.29433 l 39.5,-0.21694 0,-84.5 z M 607.66667,824.69549 C 607.3,824.32883 607,777.28867 607,720.16182 l 0,-103.86702 52.75,0.28368 52.75,0.28368 6.08814,3.18269 c 7.69888,4.02473 15.52224,12.47063 18.59126,20.07065 l 2.3206,5.74666 0.31679,71.5 c 0.23222,52.41378 4.2e-4,72.96817 -0.86837,77 -3.22927,14.98619 -15.18588,26.60699 -30.74764,29.88406 -5.77797,1.21676 -99.34848,1.63491 -100.53411,0.44927 z m 101.07885,-20.87147 c 4.7503,-1.9848 7.02196,-4.08929 9.36089,-8.67202 1.8053,-3.53717 1.89359,-7.00782 1.89359,-74.43428 0,-70.02675 -0.0209,-70.76732 -2.12115,-75.10582 -1.27717,-2.63828 -3.73438,-5.44965 -6.17563,-7.06572 l -4.05448,-2.68402 -40.57437,0 -40.57437,0 -0.25825,83.5 c -0.14203,45.925 -0.0437,84.0625 0.21862,84.75 0.37025,0.97053 9.21055,1.25 39.54036,1.25 32.89137,0 39.64516,-0.24303 42.74479,-1.53814 z M 246.46741,709.08833 c -0.31388,-1.25061 -0.41277,-49.06311 -0.21974,-106.25 0.38221,-113.2328 0.33389,-112.17644 6.37269,-139.32519 22.84076,-102.68568 104.23881,-182.36027 206.91282,-202.53182 20.09802,-3.94849 31.31261,-4.99883 52.96682,-4.96078 30.23675,0.0532 53.54801,3.64301 81.32903,12.52444 90.24326,28.85023 159.3878,105.64657 178.18964,197.9088 5.38296,26.41461 5.28023,23.96592 5.70001,135.87011 0.21552,57.45395 0.13341,105.49145 -0.18246,106.75 -0.545,2.17142 -1.03198,2.28827 -9.53622,2.28827 -8.47393,0 -8.99005,-0.12251 -9.47901,-2.25 -0.28441,-1.2375 -0.67263,-50.175 -0.8627,-108.75 C 757.28188,484.36595 757.536,489.88281 751.37518,463.95643 743.33855,430.13617 727.27734,396.91547 705.21369,368.47688 696.88684,357.74412 677.1008,337.74681 666.5,329.34981 632.14822,302.13944 590.59382,284.15362 547.05838,277.65238 530.71443,275.21171 492.88479,275.22457 477,277.67619 c -44.17111,6.81729 -82.98912,23.43337 -117.88528,50.46089 -11.06282,8.56829 -31.77151,29.27698 -40.3398,40.3398 -29.05605,37.51527 -47.32978,82.95784 -51.77046,128.74123 -0.59711,6.1562 -1.00446,51.0366 -1.00446,110.66822 0,55.17174 -0.27314,101.02406 -0.60699,101.89404 -0.49039,1.27795 -2.31155,1.58179 -9.48095,1.58179 -8.39619,0 -8.90468,-0.12242 -9.44465,-2.27383 z"
         id="path3357"
         inkscape:connector-curvature="0" />
      <path
         style="fill:#e58559"
         d="m 0,1023.8608 0,-28.50132 369.75,0.25134 369.75,0.25134 0.26557,28.25004 0.26558,28.25 -370.01558,0 -370.01557,0 0,-28.5014 z M 317,823.23271 c -12.43065,-2.04647 -22.78012,-9.96409 -28.3256,-21.66984 l -3.1744,-6.70071 -0.30938,-70.5 c -0.22059,-50.26721 0.0213,-72.21238 0.84295,-76.46667 2.35324,-12.18489 9.59043,-21.74733 20.5209,-27.11412 L 312.5,617.86216 364.25468,617.5779 416.00935,617.29364 415.75468,720.5779 415.5,823.86216 369,824.00017 c -25.575,0.0759 -48.975,-0.26945 -52,-0.76746 z m 81.5,-102.87055 0,-85.5 -39,-0.29615 c -26.06712,-0.19794 -40.24904,0.0657 -42.76658,0.79511 -4.71768,1.36681 -10.60916,6.45939 -12.38238,10.7033 C 303.25885,648.67841 303,663.06591 303,721.1586 l 0,71.86067 3.03721,4.58535 c 1.87462,2.83016 4.6498,5.38591 7.25,6.67676 4.09295,2.03192 5.36487,2.08415 44.71279,1.8361 l 40.5,-0.25532 0,-85.5 z M 608.66667,823.69549 C 608.3,823.32883 608,776.73841 608,720.16124 l 0,-102.86759 51.75,0.28426 51.75,0.28425 5.6965,2.67018 c 10.69659,5.01393 18.49339,15.29108 20.71404,27.30369 1.53202,8.28748 1.50083,138.48891 -0.0349,145.72691 -3.38741,15.96495 -15.3607,27.14185 -31.87562,29.75544 -7.13476,1.12913 -96.2361,1.47434 -97.33333,0.37711 z m 104.03664,-20.51735 c 2.45475,-1.62505 4.89891,-4.42855 6.19487,-7.10565 2.135,-4.41032 2.13979,-4.6075 1.87115,-76.9736 L 720.5,646.54694 l -3.05797,-3.84239 c -1.68188,-2.11331 -5.0499,-4.8599 -7.4845,-6.10353 -4.40644,-2.25089 -4.60809,-2.25996 -44.44203,-2 l -40.0155,0.26114 -0.25821,84.5 c -0.14202,46.475 -0.0381,85.07685 0.23085,85.78189 0.38926,1.02029 8.92593,1.22436 41.83267,1 l 41.3436,-0.28189 4.0544,-2.68402 z m -464.99949,-93.4455 c -1.05679,-1.05679 -0.79596,-185.5258 0.2872,-203.12136 2.31267,-37.56836 10.62468,-69.14072 27.05063,-102.74912 41.63794,-85.19351 126.53161,-141.16405 222.01565,-146.3753 135.92837,-7.41859 254.09163,87.18471 275.90569,220.89427 3.53399,21.66164 4.14209,43.87464 3.83212,139.98103 l -0.29511,91.5 -8.5,0 -8.5,0 -0.54486,-108 c -0.59271,-117.48639 -0.37609,-112.854 -6.47648,-138.5 -6.08658,-25.58794 -19.75397,-57.1451 -33.99831,-78.5 -40.60147,-60.8691 -105.09459,-100.57181 -177.03973,-108.98769 -14.9927,-1.75379 -41.24603,-1.97399 -55.23003,-0.46323 -57.13717,6.17277 -108.92233,30.84336 -149.12024,71.04127 -18.31721,18.3172 -34.52039,40.70112 -45.91109,63.42395 -11.72428,23.38827 -18.0412,42.60082 -23.41992,71.23029 -2.16901,11.54509 -2.21792,13.69657 -2.73393,120.25541 l -0.52541,108.5 -8.04618,0.28715 c -4.42541,0.15793 -8.36291,-0.0296 -8.75,-0.41667 z"
         id="path3355"
         inkscape:connector-curvature="0" />
      <path
         style="fill:#0cdaa6"
         d="M -7.9422006e-6,1024.1122 -1.5884401e-5,995.86216 368.24999,996.10916 c 202.53751,0.13585 368.81251,0.45923 369.50001,0.71862 0.95831,0.36156 1.25,6.89612 1.25,28.00302 l 0,27.5314 -369.5,0 -369.5,0 -7.9422006e-6,-28.25 z M 317,823.23271 c -12.43065,-2.04647 -22.78012,-9.96409 -28.3256,-21.66984 l -3.1744,-6.70071 -0.30938,-70.5 c -0.22059,-50.26721 0.0213,-72.21238 0.84295,-76.46667 2.35324,-12.18489 9.59043,-21.74733 20.5209,-27.11412 L 312.5,617.86216 364.25468,617.5779 416.00935,617.29364 415.75468,720.5779 415.5,823.86216 369,824.00017 c -25.575,0.0759 -48.975,-0.26945 -52,-0.76746 z m 81.5,-102.87055 0,-85.5 -39,-0.29615 c -26.06712,-0.19794 -40.24904,0.0657 -42.76658,0.79511 -4.71768,1.36681 -10.60916,6.45939 -12.38238,10.7033 C 303.25885,648.67841 303,663.06591 303,721.1586 l 0,71.86067 3.03721,4.58535 c 1.87462,2.83016 4.6498,5.38591 7.25,6.67676 4.09295,2.03192 5.36487,2.08415 44.71279,1.8361 l 40.5,-0.25532 0,-85.5 z M 608.66667,823.69549 C 608.3,823.32883 608,776.73841 608,720.16124 l 0,-102.86759 51.75,0.28426 51.75,0.28425 5.6965,2.67018 c 10.69659,5.01393 18.49339,15.29108 20.71404,27.30369 1.53202,8.28748 1.50083,138.48891 -0.0349,145.72691 -3.38741,15.96495 -15.3607,27.14185 -31.87562,29.75544 -7.13476,1.12913 -96.2361,1.47434 -97.33333,0.37711 z m 104.03664,-20.51735 c 2.45475,-1.62505 4.89891,-4.42855 6.19487,-7.10565 2.135,-4.41032 2.13979,-4.6075 1.87115,-76.9736 L 720.5,646.54694 l -3.05797,-3.84239 c -1.68188,-2.11331 -5.0499,-4.8599 -7.4845,-6.10353 -4.40644,-2.25089 -4.60809,-2.25996 -44.44203,-2 l -40.0155,0.26114 -0.25821,84.5 c -0.14202,46.475 -0.0381,85.07685 0.23085,85.78189 0.38926,1.02029 8.92593,1.22436 41.83267,1 l 41.3436,-0.28189 4.0544,-2.68402 z m -464.99949,-93.4455 c -1.05679,-1.05679 -0.79596,-185.5258 0.2872,-203.12136 2.31267,-37.56836 10.62468,-69.14072 27.05063,-102.74912 41.63794,-85.19351 126.53161,-141.16405 222.01565,-146.3753 135.92837,-7.41859 254.09163,87.18471 275.90569,220.89427 3.53399,21.66164 4.14209,43.87464 3.83212,139.98103 l -0.29511,91.5 -8.5,0 -8.5,0 -0.54486,-108 c -0.59271,-117.48639 -0.37609,-112.854 -6.47648,-138.5 -6.08658,-25.58794 -19.75397,-57.1451 -33.99831,-78.5 -40.60147,-60.8691 -105.09459,-100.57181 -177.03973,-108.98769 -14.9927,-1.75379 -41.24603,-1.97399 -55.23003,-0.46323 -57.13717,6.17277 -108.92233,30.84336 -149.12024,71.04127 -18.31721,18.3172 -34.52039,40.70112 -45.91109,63.42395 -11.72428,23.38827 -18.0412,42.60082 -23.41992,71.23029 -2.16901,11.54509 -2.21792,13.69657 -2.73393,120.25541 l -0.52541,108.5 -8.04618,0.28715 c -4.42541,0.15793 -8.36291,-0.0296 -8.75,-0.41667 z"
         id="path3353"
         inkscape:connector-curvature="0" />
      <path
         style="fill:#fc6017"
         d="M -7.9422006e-6,1024.1122 -1.5884401e-5,995.86216 368.24999,996.10916 c 202.53751,0.13585 368.81251,0.45923 369.50001,0.71862 0.95831,0.36156 1.25,6.89612 1.25,28.00302 l 0,27.5314 -369.5,0 -369.5,0 -7.9422006e-6,-28.25 z"
         id="path3351"
         inkscape:connector-curvature="0" />
      <path
         style="fill:#e64a01"
         d="m 0,1014.7552 c 0,-16.55633 0.17433007,-18.54012 1.5817875,-18.00003 0.8699831,0.33385 166.9199825,0.60699 369.0000025,0.60699 l 367.41821,0 0,18.00004 0,18 -369,0 -369,0 0,-18.607 z"
         id="path3349"
         inkscape:connector-curvature="0" />
    </g>
  </g>
</svg>
